<?xml version='1.0' encoding='UTF-8' ?>
<svg xmlns='http://www.w3.org/2000/svg' xmlns:xlink='http://www.w3.org/1999/xlink' class='svglite' width='576.00pt' height='180.00pt' viewBox='0 0 576.00 180.00'>
<defs>
  <style type='text/css'><![CDATA[
    .svglite line, .svglite polyline, .svglite polygon, .svglite path, .svglite rect, .svglite circle {
      fill: none;
      stroke: #000000;
      stroke-linecap: round;
      stroke-linejoin: round;
      stroke-miterlimit: 10.00;
    }
  ]]></style>
</defs>
<rect width='100%' height='100%' style='stroke: none; fill: none;'/>
<defs>
  <clipPath id='cpMC4wMHw1NzYuMDB8MC4wMHwxODAuMDA='>
    <rect x='0.00' y='0.00' width='576.00' height='180.00' />
  </clipPath>
</defs>
<g clip-path='url(#cpMC4wMHw1NzYuMDB8MC4wMHwxODAuMDA=)'>
</g>
<defs>
  <clipPath id='cpMC4wMHw1NzYuMDB8MC4wMHw5MC4wMA=='>
    <rect x='0.000000000000050' y='0.00' width='576.00' height='90.00' />
  </clipPath>
</defs>
<g clip-path='url(#cpMC4wMHw1NzYuMDB8MC4wMHw5MC4wMA==)'>
</g>
<g clip-path='url(#cpMC4wMHw1NzYuMDB8MC4wMHwxODAuMDA=)'>
</g>
<defs>
  <clipPath id='cpMTAuNDF8NTcwLjUyfDUuNDh8NzEuNDk='>
    <rect x='10.41' y='5.48' width='560.11' height='66.01' />
  </clipPath>
</defs>
<g clip-path='url(#cpMTAuNDF8NTcwLjUyfDUuNDh8NzEuNDk=)'>
<polyline points='99.52,71.49 99.52,5.48 ' style='stroke-width: 0.53; stroke: #EBEBEB; stroke-linecap: butt;' />
<polyline points='226.82,71.49 226.82,5.48 ' style='stroke-width: 0.53; stroke: #EBEBEB; stroke-linecap: butt;' />
<polyline points='354.11,71.49 354.11,5.48 ' style='stroke-width: 0.53; stroke: #EBEBEB; stroke-linecap: butt;' />
<polyline points='481.41,71.49 481.41,5.48 ' style='stroke-width: 0.53; stroke: #EBEBEB; stroke-linecap: butt;' />
<polyline points='10.41,55.04 570.52,55.04 ' style='stroke-width: 1.07; stroke: #EBEBEB; stroke-linecap: butt;' />
<polyline points='35.87,71.49 35.87,5.48 ' style='stroke-width: 1.07; stroke: #EBEBEB; stroke-linecap: butt;' />
<polyline points='163.17,71.49 163.17,5.48 ' style='stroke-width: 1.07; stroke: #EBEBEB; stroke-linecap: butt;' />
<polyline points='290.47,71.49 290.47,5.48 ' style='stroke-width: 1.07; stroke: #EBEBEB; stroke-linecap: butt;' />
<polyline points='417.76,71.49 417.76,5.48 ' style='stroke-width: 1.07; stroke: #EBEBEB; stroke-linecap: butt;' />
<polyline points='545.06,71.49 545.06,5.48 ' style='stroke-width: 1.07; stroke: #EBEBEB; stroke-linecap: butt;' />
<polygon points='56.52,55.03 57.56,55.03 58.60,55.03 59.64,55.02 60.68,55.02 61.72,55.02 62.76,55.01 63.80,55.01 64.84,55.00 65.88,54.99 66.92,54.98 67.96,54.97 69.00,54.96 70.04,54.95 71.08,54.94 72.12,54.92 73.16,54.90 74.20,54.88 75.24,54.86 76.28,54.84 77.32,54.82 78.36,54.79 79.40,54.76 80.44,54.73 81.48,54.70 82.52,54.67 83.56,54.64 84.60,54.61 85.65,54.58 86.69,54.54 87.73,54.51 88.77,54.48 89.81,54.45 90.85,54.42 91.89,54.40 92.93,54.37 93.97,54.35 95.01,54.34 96.05,54.32 97.09,54.31 98.13,54.30 99.17,54.30 100.21,54.30 101.25,54.31 102.29,54.31 103.33,54.33 104.37,54.34 105.41,54.36 106.45,54.38 107.49,54.41 108.53,54.43 109.57,54.46 110.61,54.49 111.65,54.52 112.69,54.55 113.73,54.59 114.77,54.62 115.81,54.65 116.85,54.68 117.89,54.71 118.93,54.74 119.97,54.77 121.01,54.80 122.05,54.82 123.09,54.85 124.13,54.87 125.17,54.89 126.21,54.91 127.25,54.92 128.29,54.94 129.33,54.95 130.37,54.97 131.41,54.98 132.45,54.99 133.49,54.99 134.53,55.00 135.57,55.01 136.61,55.01 137.65,55.02 138.70,55.02 139.74,55.03 140.78,55.03 141.82,55.03 142.86,55.03 143.90,55.03 144.94,55.03 145.98,55.04 147.02,55.04 148.06,55.04 149.10,55.04 150.14,55.04 151.18,55.04 152.22,55.04 153.26,55.04 154.30,55.04 155.34,55.04 156.38,55.04 157.42,55.04 158.46,55.04 159.50,55.04 160.54,55.04 161.58,55.04 162.62,55.04 163.66,55.04 164.70,55.04 165.74,55.04 166.78,55.04 167.82,55.04 168.86,55.04 169.90,55.04 170.94,55.04 171.98,55.04 173.02,55.04 174.06,55.03 175.10,55.03 176.14,55.03 177.18,55.03 178.22,55.03 179.26,55.02 180.30,55.02 181.34,55.01 182.38,55.00 183.42,54.99 184.46,54.98 185.50,54.97 186.54,54.95 187.58,54.93 188.62,54.91 189.66,54.88 190.71,54.85 191.75,54.81 192.79,54.77 193.83,54.72 194.87,54.67 195.91,54.60 196.95,54.53 197.99,54.45 199.03,54.36 200.07,54.26 201.11,54.15 202.15,54.02 203.19,53.89 204.23,53.75 205.27,53.60 206.31,53.44 207.35,53.27 208.39,53.09 209.43,52.91 210.47,52.72 211.51,52.52 212.55,52.33 213.59,52.13 214.63,51.94 215.67,51.75 216.71,51.57 217.75,51.40 218.79,51.24 219.83,51.09 220.87,50.96 221.91,50.85 222.95,50.75 223.99,50.68 225.03,50.63 226.07,50.60 227.11,50.60 228.15,50.61 229.19,50.66 230.23,50.72 231.27,50.80 232.31,50.91 233.35,51.03 234.39,51.17 235.43,51.32 236.47,51.48 237.51,51.66 238.55,51.84 239.59,52.02 240.63,52.21 241.67,52.39 242.71,52.57 243.76,52.75 244.80,52.91 245.84,53.07 246.88,53.21 247.92,53.34 248.96,53.45 250.00,53.54 251.04,53.61 252.08,53.66 253.12,53.68 254.16,53.68 255.20,53.64 256.24,53.58 257.28,53.50 258.32,53.37 259.36,53.21 260.40,53.01 261.44,52.78 262.48,52.51 263.52,52.20 264.56,51.84 265.60,51.45 266.64,51.01 267.68,50.54 268.72,50.04 269.76,49.49 270.80,48.91 271.84,48.30 272.88,47.67 273.92,47.01 274.96,46.35 276.00,45.67 277.04,44.99 278.08,44.32 279.12,43.66 280.16,43.02 281.20,42.41 282.24,41.85 283.28,41.33 284.32,40.86 285.36,40.46 286.40,40.11 287.44,39.84 288.48,39.65 289.52,39.54 290.56,39.51 291.60,39.55 292.64,39.67 293.68,39.88 294.72,40.17 295.77,40.52 296.81,40.94 297.85,41.41 298.89,41.94 299.93,42.51 300.97,43.12 302.01,43.76 303.05,44.41 304.09,45.08 305.13,45.75 306.17,46.41 307.21,47.05 308.25,47.68 309.29,48.29 310.33,48.86 311.37,49.39 312.41,49.88 313.45,50.32 314.49,50.72 315.53,51.06 316.57,51.36 317.61,51.58 318.65,51.75 319.69,51.86 320.73,51.90 321.77,51.89 322.81,51.81 323.85,51.66 324.89,51.44 325.93,51.16 326.97,50.82 328.01,50.42 329.05,49.93 330.09,49.39 331.13,48.78 332.17,48.12 333.21,47.41 334.25,46.64 335.29,45.82 336.33,44.97 337.37,44.08 338.41,43.17 339.45,42.25 340.49,41.31 341.53,40.39 342.57,39.48 343.61,38.60 344.65,37.75 345.69,36.95 346.73,36.23 347.78,35.57 348.82,35.00 349.86,34.51 350.90,34.11 351.94,33.82 352.98,33.65 354.02,33.59 355.06,33.64 356.10,33.79 357.14,34.04 358.18,34.42 359.22,34.89 360.26,35.45 361.30,36.09 362.34,36.80 363.38,37.57 364.42,38.41 365.46,39.28 366.50,40.17 367.54,41.08 368.58,42.00 369.62,42.91 370.66,43.79 371.70,44.65 372.74,45.47 373.78,46.25 374.82,46.98 375.86,47.63 376.90,48.21 377.94,48.72 378.98,49.16 380.02,49.51 381.06,49.77 382.10,49.93 383.14,49.98 384.18,49.94 385.22,49.80 386.26,49.56 387.30,49.19 388.34,48.70 389.38,48.10 390.42,47.39 391.46,46.57 392.50,45.63 393.54,44.55 394.58,43.37 395.62,42.08 396.66,40.69 397.70,39.21 398.74,37.63 399.78,35.97 400.83,34.26 401.87,32.49 402.91,30.70 403.95,28.90 404.99,27.09 406.03,25.33 407.07,23.61 408.11,21.96 409.15,20.40 410.19,18.94 411.23,17.65 412.27,16.51 413.31,15.53 414.35,14.74 415.39,14.13 416.43,13.74 417.47,13.59 418.51,13.64 419.55,13.90 420.59,14.37 421.63,15.03 422.67,15.91 423.71,16.98 424.75,18.20 425.79,19.55 426.83,21.03 427.87,22.62 428.91,24.31 429.95,26.04 430.99,27.81 432.03,29.60 433.07,31.38 434.11,33.14 435.15,34.85 436.19,36.49 437.23,38.06 438.27,39.55 439.31,40.93 440.35,42.18 441.39,43.31 442.43,44.31 443.47,45.17 444.51,45.90 445.55,46.49 446.59,46.89 447.63,47.14 448.67,47.25 449.71,47.20 450.75,47.00 451.79,46.63 452.84,46.08 453.88,45.38 454.92,44.52 455.96,43.52 457.00,42.37 458.04,41.04 459.08,39.57 460.12,37.97 461.16,36.25 462.20,34.43 463.24,32.50 464.28,30.48 465.32,28.40 466.36,26.27 467.40,24.13 468.44,21.99 469.48,19.87 470.52,17.81 471.56,15.83 472.60,13.95 473.64,12.20 474.68,10.59 475.72,9.20 476.76,8.01 477.80,7.02 478.84,6.27 479.88,5.74 480.92,5.48 481.96,5.51 483.00,5.79 484.04,6.31 485.08,7.06 486.12,8.04 487.16,9.27 488.20,10.70 489.24,12.30 490.28,14.05 491.32,15.93 492.36,17.91 493.40,19.99 494.44,22.11 495.48,24.25 496.52,26.39 497.56,28.52 498.60,30.59 499.64,32.60 500.68,34.52 501.72,36.35 502.76,38.06 503.80,39.67 504.84,41.11 505.89,42.41 506.93,43.56 507.97,44.57 509.01,45.42 510.05,46.12 511.09,46.63 512.13,46.99 513.17,47.19 514.21,47.24 515.25,47.14 516.29,46.86 517.33,46.42 518.37,45.84 519.41,45.11 520.45,44.25 521.49,43.25 522.53,42.10 523.57,40.83 524.61,39.45 525.65,37.97 526.69,36.40 527.73,34.76 528.77,33.04 529.81,31.28 530.85,29.50 531.89,27.72 532.93,25.95 533.97,24.22 535.01,22.56 536.05,20.98 537.09,19.50 538.13,18.14 539.17,16.92 540.21,15.89 541.25,15.04 542.29,14.38 543.33,13.91 544.37,13.65 545.41,13.61 546.45,13.81 547.49,14.21 548.53,14.82 549.57,15.61 550.61,16.58 551.65,17.75 552.69,19.07 553.73,20.52 554.77,22.08 555.81,23.73 556.85,25.45 557.90,27.24 558.94,29.05 559.98,30.87 561.02,32.67 562.06,34.46 563.10,36.20 564.14,37.88 565.18,39.49 566.22,41.02 567.26,42.48 568.30,43.84 569.34,45.10 570.38,46.26 571.42,47.33 572.46,48.31 573.50,49.20 574.54,50.00 575.58,50.70 576.62,51.32 577.66,51.88 578.70,52.36 579.74,52.79 580.78,53.16 581.82,53.47 582.86,53.74 583.90,53.96 584.94,54.16 585.98,54.32 587.02,54.46 588.06,54.57 588.06,55.04 587.02,55.04 585.98,55.04 584.94,55.04 583.90,55.04 582.86,55.04 581.82,55.04 580.78,55.04 579.74,55.04 578.70,55.04 577.66,55.04 576.62,55.04 575.58,55.04 574.54,55.04 573.50,55.04 572.46,55.04 571.42,55.04 570.38,55.04 569.34,55.04 568.30,55.04 567.26,55.04 566.22,55.04 565.18,55.04 564.14,55.04 563.10,55.04 562.06,55.04 561.02,55.04 559.98,55.04 558.94,55.04 557.90,55.04 556.85,55.04 555.81,55.04 554.77,55.04 553.73,55.04 552.69,55.04 551.65,55.04 550.61,55.04 549.57,55.04 548.53,55.04 547.49,55.04 546.45,55.04 545.41,55.04 544.37,55.04 543.33,55.04 542.29,55.04 541.25,55.04 540.21,55.04 539.17,55.04 538.13,55.04 537.09,55.04 536.05,55.04 535.01,55.04 533.97,55.04 532.93,55.04 531.89,55.04 530.85,55.04 529.81,55.04 528.77,55.04 527.73,55.04 526.69,55.04 525.65,55.04 524.61,55.04 523.57,55.04 522.53,55.04 521.49,55.04 520.45,55.04 519.41,55.04 518.37,55.04 517.33,55.04 516.29,55.04 515.25,55.04 514.21,55.04 513.17,55.04 512.13,55.04 511.09,55.04 510.05,55.04 509.01,55.04 507.97,55.04 506.93,55.04 505.89,55.04 504.84,55.04 503.80,55.04 502.76,55.04 501.72,55.04 500.68,55.04 499.64,55.04 498.60,55.04 497.56,55.04 496.52,55.04 495.48,55.04 494.44,55.04 493.40,55.04 492.36,55.04 491.32,55.04 490.28,55.04 489.24,55.04 488.20,55.04 487.16,55.04 486.12,55.04 485.08,55.04 484.04,55.04 483.00,55.04 481.96,55.04 480.92,55.04 479.88,55.04 478.84,55.04 477.80,55.04 476.76,55.04 475.72,55.04 474.68,55.04 473.64,55.04 472.60,55.04 471.56,55.04 470.52,55.04 469.48,55.04 468.44,55.04 467.40,55.04 466.36,55.04 465.32,55.04 464.28,55.04 463.24,55.04 462.20,55.04 461.16,55.04 460.12,55.04 459.08,55.04 458.04,55.04 457.00,55.04 455.96,55.04 454.92,55.04 453.88,55.04 452.84,55.04 451.79,55.04 450.75,55.04 449.71,55.04 448.67,55.04 447.63,55.04 446.59,55.04 445.55,55.04 444.51,55.04 443.47,55.04 442.43,55.04 441.39,55.04 440.35,55.04 439.31,55.04 438.27,55.04 437.23,55.04 436.19,55.04 435.15,55.04 434.11,55.04 433.07,55.04 432.03,55.04 430.99,55.04 429.95,55.04 428.91,55.04 427.87,55.04 426.83,55.04 425.79,55.04 424.75,55.04 423.71,55.04 422.67,55.04 421.63,55.04 420.59,55.04 419.55,55.04 418.51,55.04 417.47,55.04 416.43,55.04 415.39,55.04 414.35,55.04 413.31,55.04 412.27,55.04 411.23,55.04 410.19,55.04 409.15,55.04 408.11,55.04 407.07,55.04 406.03,55.04 404.99,55.04 403.95,55.04 402.91,55.04 401.87,55.04 400.83,55.04 399.78,55.04 398.74,55.04 397.70,55.04 396.66,55.04 395.62,55.04 394.58,55.04 393.54,55.04 392.50,55.04 391.46,55.04 390.42,55.04 389.38,55.04 388.34,55.04 387.30,55.04 386.26,55.04 385.22,55.04 384.18,55.04 383.14,55.04 382.10,55.04 381.06,55.04 380.02,55.04 378.98,55.04 377.94,55.04 376.90,55.04 375.86,55.04 374.82,55.04 373.78,55.04 372.74,55.04 371.70,55.04 370.66,55.04 369.62,55.04 368.58,55.04 367.54,55.04 366.50,55.04 365.46,55.04 364.42,55.04 363.38,55.04 362.34,55.04 361.30,55.04 360.26,55.04 359.22,55.04 358.18,55.04 357.14,55.04 356.10,55.04 355.06,55.04 354.02,55.04 352.98,55.04 351.94,55.04 350.90,55.04 349.86,55.04 348.82,55.04 347.78,55.04 346.73,55.04 345.69,55.04 344.65,55.04 343.61,55.04 342.57,55.04 341.53,55.04 340.49,55.04 339.45,55.04 338.41,55.04 337.37,55.04 336.33,55.04 335.29,55.04 334.25,55.04 333.21,55.04 332.17,55.04 331.13,55.04 330.09,55.04 329.05,55.04 328.01,55.04 326.97,55.04 325.93,55.04 324.89,55.04 323.85,55.04 322.81,55.04 321.77,55.04 320.73,55.04 319.69,55.04 318.65,55.04 317.61,55.04 316.57,55.04 315.53,55.04 314.49,55.04 313.45,55.04 312.41,55.04 311.37,55.04 310.33,55.04 309.29,55.04 308.25,55.04 307.21,55.04 306.17,55.04 305.13,55.04 304.09,55.04 303.05,55.04 302.01,55.04 300.97,55.04 299.93,55.04 298.89,55.04 297.85,55.04 296.81,55.04 295.77,55.04 294.72,55.04 293.68,55.04 292.64,55.04 291.60,55.04 290.56,55.04 289.52,55.04 288.48,55.04 287.44,55.04 286.40,55.04 285.36,55.04 284.32,55.04 283.28,55.04 282.24,55.04 281.20,55.04 280.16,55.04 279.12,55.04 278.08,55.04 277.04,55.04 276.00,55.04 274.96,55.04 273.92,55.04 272.88,55.04 271.84,55.04 270.80,55.04 269.76,55.04 268.72,55.04 267.68,55.04 266.64,55.04 265.60,55.04 264.56,55.04 263.52,55.04 262.48,55.04 261.44,55.04 260.40,55.04 259.36,55.04 258.32,55.04 257.28,55.04 256.24,55.04 255.20,55.04 254.16,55.04 253.12,55.04 252.08,55.04 251.04,55.04 250.00,55.04 248.96,55.04 247.92,55.04 246.88,55.04 245.84,55.04 244.80,55.04 243.76,55.04 242.71,55.04 241.67,55.04 240.63,55.04 239.59,55.04 238.55,55.04 237.51,55.04 236.47,55.04 235.43,55.04 234.39,55.04 233.35,55.04 232.31,55.04 231.27,55.04 230.23,55.04 229.19,55.04 228.15,55.04 227.11,55.04 226.07,55.04 225.03,55.04 223.99,55.04 222.95,55.04 221.91,55.04 220.87,55.04 219.83,55.04 218.79,55.04 217.75,55.04 216.71,55.04 215.67,55.04 214.63,55.04 213.59,55.04 212.55,55.04 211.51,55.04 210.47,55.04 209.43,55.04 208.39,55.04 207.35,55.04 206.31,55.04 205.27,55.04 204.23,55.04 203.19,55.04 202.15,55.04 201.11,55.04 200.07,55.04 199.03,55.04 197.99,55.04 196.95,55.04 195.91,55.04 194.87,55.04 193.83,55.04 192.79,55.04 191.75,55.04 190.71,55.04 189.66,55.04 188.62,55.04 187.58,55.04 186.54,55.04 185.50,55.04 184.46,55.04 183.42,55.04 182.38,55.04 181.34,55.04 180.30,55.04 179.26,55.04 178.22,55.04 177.18,55.04 176.14,55.04 175.10,55.04 174.06,55.04 173.02,55.04 171.98,55.04 170.94,55.04 169.90,55.04 168.86,55.04 167.82,55.04 166.78,55.04 165.74,55.04 164.70,55.04 163.66,55.04 162.62,55.04 161.58,55.04 160.54,55.04 159.50,55.04 158.46,55.04 157.42,55.04 156.38,55.04 155.34,55.04 154.30,55.04 153.26,55.04 152.22,55.04 151.18,55.04 150.14,55.04 149.10,55.04 148.06,55.04 147.02,55.04 145.98,55.04 144.94,55.04 143.90,55.04 142.86,55.04 141.82,55.04 140.78,55.04 139.74,55.04 138.70,55.04 137.65,55.04 136.61,55.04 135.57,55.04 134.53,55.04 133.49,55.04 132.45,55.04 131.41,55.04 130.37,55.04 129.33,55.04 128.29,55.04 127.25,55.04 126.21,55.04 125.17,55.04 124.13,55.04 123.09,55.04 122.05,55.04 121.01,55.04 119.97,55.04 118.93,55.04 117.89,55.04 116.85,55.04 115.81,55.04 114.77,55.04 113.73,55.04 112.69,55.04 111.65,55.04 110.61,55.04 109.57,55.04 108.53,55.04 107.49,55.04 106.45,55.04 105.41,55.04 104.37,55.04 103.33,55.04 102.29,55.04 101.25,55.04 100.21,55.04 99.17,55.04 98.13,55.04 97.09,55.04 96.05,55.04 95.01,55.04 93.97,55.04 92.93,55.04 91.89,55.04 90.85,55.04 89.81,55.04 88.77,55.04 87.73,55.04 86.69,55.04 85.65,55.04 84.60,55.04 83.56,55.04 82.52,55.04 81.48,55.04 80.44,55.04 79.40,55.04 78.36,55.04 77.32,55.04 76.28,55.04 75.24,55.04 74.20,55.04 73.16,55.04 72.12,55.04 71.08,55.04 70.04,55.04 69.00,55.04 67.96,55.04 66.92,55.04 65.88,55.04 64.84,55.04 63.80,55.04 62.76,55.04 61.72,55.04 60.68,55.04 59.64,55.04 58.60,55.04 57.56,55.04 56.52,55.04 ' style='stroke-width: 0.75; stroke: none; fill: #B3B3B3; fill-opacity: 0.25;' />
<polyline points='56.52,55.03 57.56,55.03 58.60,55.03 59.64,55.02 60.68,55.02 61.72,55.02 62.76,55.01 63.80,55.01 64.84,55.00 65.88,54.99 66.92,54.98 67.96,54.97 69.00,54.96 70.04,54.95 71.08,54.94 72.12,54.92 73.16,54.90 74.20,54.88 75.24,54.86 76.28,54.84 77.32,54.82 78.36,54.79 79.40,54.76 80.44,54.73 81.48,54.70 82.52,54.67 83.56,54.64 84.60,54.61 85.65,54.58 86.69,54.54 87.73,54.51 88.77,54.48 89.81,54.45 90.85,54.42 91.89,54.40 92.93,54.37 93.97,54.35 95.01,54.34 96.05,54.32 97.09,54.31 98.13,54.30 99.17,54.30 100.21,54.30 101.25,54.31 102.29,54.31 103.33,54.33 104.37,54.34 105.41,54.36 106.45,54.38 107.49,54.41 108.53,54.43 109.57,54.46 110.61,54.49 111.65,54.52 112.69,54.55 113.73,54.59 114.77,54.62 115.81,54.65 116.85,54.68 117.89,54.71 118.93,54.74 119.97,54.77 121.01,54.80 122.05,54.82 123.09,54.85 124.13,54.87 125.17,54.89 126.21,54.91 127.25,54.92 128.29,54.94 129.33,54.95 130.37,54.97 131.41,54.98 132.45,54.99 133.49,54.99 134.53,55.00 135.57,55.01 136.61,55.01 137.65,55.02 138.70,55.02 139.74,55.03 140.78,55.03 141.82,55.03 142.86,55.03 143.90,55.03 144.94,55.03 145.98,55.04 147.02,55.04 148.06,55.04 149.10,55.04 150.14,55.04 151.18,55.04 152.22,55.04 153.26,55.04 154.30,55.04 155.34,55.04 156.38,55.04 157.42,55.04 158.46,55.04 159.50,55.04 160.54,55.04 161.58,55.04 162.62,55.04 163.66,55.04 164.70,55.04 165.74,55.04 166.78,55.04 167.82,55.04 168.86,55.04 169.90,55.04 170.94,55.04 171.98,55.04 173.02,55.04 174.06,55.03 175.10,55.03 176.14,55.03 177.18,55.03 178.22,55.03 179.26,55.02 180.30,55.02 181.34,55.01 182.38,55.00 183.42,54.99 184.46,54.98 185.50,54.97 186.54,54.95 187.58,54.93 188.62,54.91 189.66,54.88 190.71,54.85 191.75,54.81 192.79,54.77 193.83,54.72 194.87,54.67 195.91,54.60 196.95,54.53 197.99,54.45 199.03,54.36 200.07,54.26 201.11,54.15 202.15,54.02 203.19,53.89 204.23,53.75 205.27,53.60 206.31,53.44 207.35,53.27 208.39,53.09 209.43,52.91 210.47,52.72 211.51,52.52 212.55,52.33 213.59,52.13 214.63,51.94 215.67,51.75 216.71,51.57 217.75,51.40 218.79,51.24 219.83,51.09 220.87,50.96 221.91,50.85 222.95,50.75 223.99,50.68 225.03,50.63 226.07,50.60 227.11,50.60 228.15,50.61 229.19,50.66 230.23,50.72 231.27,50.80 232.31,50.91 233.35,51.03 234.39,51.17 235.43,51.32 236.47,51.48 237.51,51.66 238.55,51.84 239.59,52.02 240.63,52.21 241.67,52.39 242.71,52.57 243.76,52.75 244.80,52.91 245.84,53.07 246.88,53.21 247.92,53.34 248.96,53.45 250.00,53.54 251.04,53.61 252.08,53.66 253.12,53.68 254.16,53.68 255.20,53.64 256.24,53.58 257.28,53.50 258.32,53.37 259.36,53.21 260.40,53.01 261.44,52.78 262.48,52.51 263.52,52.20 264.56,51.84 265.60,51.45 266.64,51.01 267.68,50.54 268.72,50.04 269.76,49.49 270.80,48.91 271.84,48.30 272.88,47.67 273.92,47.01 274.96,46.35 276.00,45.67 277.04,44.99 278.08,44.32 279.12,43.66 280.16,43.02 281.20,42.41 282.24,41.85 283.28,41.33 284.32,40.86 285.36,40.46 286.40,40.11 287.44,39.84 288.48,39.65 289.52,39.54 290.56,39.51 291.60,39.55 292.64,39.67 293.68,39.88 294.72,40.17 295.77,40.52 296.81,40.94 297.85,41.41 298.89,41.94 299.93,42.51 300.97,43.12 302.01,43.76 303.05,44.41 304.09,45.08 305.13,45.75 306.17,46.41 307.21,47.05 308.25,47.68 309.29,48.29 310.33,48.86 311.37,49.39 312.41,49.88 313.45,50.32 314.49,50.72 315.53,51.06 316.57,51.36 317.61,51.58 318.65,51.75 319.69,51.86 320.73,51.90 321.77,51.89 322.81,51.81 323.85,51.66 324.89,51.44 325.93,51.16 326.97,50.82 328.01,50.42 329.05,49.93 330.09,49.39 331.13,48.78 332.17,48.12 333.21,47.41 334.25,46.64 335.29,45.82 336.33,44.97 337.37,44.08 338.41,43.17 339.45,42.25 340.49,41.31 341.53,40.39 342.57,39.48 343.61,38.60 344.65,37.75 345.69,36.95 346.73,36.23 347.78,35.57 348.82,35.00 349.86,34.51 350.90,34.11 351.94,33.82 352.98,33.65 354.02,33.59 355.06,33.64 356.10,33.79 357.14,34.04 358.18,34.42 359.22,34.89 360.26,35.45 361.30,36.09 362.34,36.80 363.38,37.57 364.42,38.41 365.46,39.28 366.50,40.17 367.54,41.08 368.58,42.00 369.62,42.91 370.66,43.79 371.70,44.65 372.74,45.47 373.78,46.25 374.82,46.98 375.86,47.63 376.90,48.21 377.94,48.72 378.98,49.16 380.02,49.51 381.06,49.77 382.10,49.93 383.14,49.98 384.18,49.94 385.22,49.80 386.26,49.56 387.30,49.19 388.34,48.70 389.38,48.10 390.42,47.39 391.46,46.57 392.50,45.63 393.54,44.55 394.58,43.37 395.62,42.08 396.66,40.69 397.70,39.21 398.74,37.63 399.78,35.97 400.83,34.26 401.87,32.49 402.91,30.70 403.95,28.90 404.99,27.09 406.03,25.33 407.07,23.61 408.11,21.96 409.15,20.40 410.19,18.94 411.23,17.65 412.27,16.51 413.31,15.53 414.35,14.74 415.39,14.13 416.43,13.74 417.47,13.59 418.51,13.64 419.55,13.90 420.59,14.37 421.63,15.03 422.67,15.91 423.71,16.98 424.75,18.20 425.79,19.55 426.83,21.03 427.87,22.62 428.91,24.31 429.95,26.04 430.99,27.81 432.03,29.60 433.07,31.38 434.11,33.14 435.15,34.85 436.19,36.49 437.23,38.06 438.27,39.55 439.31,40.93 440.35,42.18 441.39,43.31 442.43,44.31 443.47,45.17 444.51,45.90 445.55,46.49 446.59,46.89 447.63,47.14 448.67,47.25 449.71,47.20 450.75,47.00 451.79,46.63 452.84,46.08 453.88,45.38 454.92,44.52 455.96,43.52 457.00,42.37 458.04,41.04 459.08,39.57 460.12,37.97 461.16,36.25 462.20,34.43 463.24,32.50 464.28,30.48 465.32,28.40 466.36,26.27 467.40,24.13 468.44,21.99 469.48,19.87 470.52,17.81 471.56,15.83 472.60,13.95 473.64,12.20 474.68,10.59 475.72,9.20 476.76,8.01 477.80,7.02 478.84,6.27 479.88,5.74 480.92,5.48 481.96,5.51 483.00,5.79 484.04,6.31 485.08,7.06 486.12,8.04 487.16,9.27 488.20,10.70 489.24,12.30 490.28,14.05 491.32,15.93 492.36,17.91 493.40,19.99 494.44,22.11 495.48,24.25 496.52,26.39 497.56,28.52 498.60,30.59 499.64,32.60 500.68,34.52 501.72,36.35 502.76,38.06 503.80,39.67 504.84,41.11 505.89,42.41 506.93,43.56 507.97,44.57 509.01,45.42 510.05,46.12 511.09,46.63 512.13,46.99 513.17,47.19 514.21,47.24 515.25,47.14 516.29,46.86 517.33,46.42 518.37,45.84 519.41,45.11 520.45,44.25 521.49,43.25 522.53,42.10 523.57,40.83 524.61,39.45 525.65,37.97 526.69,36.40 527.73,34.76 528.77,33.04 529.81,31.28 530.85,29.50 531.89,27.72 532.93,25.95 533.97,24.22 535.01,22.56 536.05,20.98 537.09,19.50 538.13,18.14 539.17,16.92 540.21,15.89 541.25,15.04 542.29,14.38 543.33,13.91 544.37,13.65 545.41,13.61 546.45,13.81 547.49,14.21 548.53,14.82 549.57,15.61 550.61,16.58 551.65,17.75 552.69,19.07 553.73,20.52 554.77,22.08 555.81,23.73 556.85,25.45 557.90,27.24 558.94,29.05 559.98,30.87 561.02,32.67 562.06,34.46 563.10,36.20 564.14,37.88 565.18,39.49 566.22,41.02 567.26,42.48 568.30,43.84 569.34,45.10 570.38,46.26 571.42,47.33 572.46,48.31 573.50,49.20 574.54,50.00 575.58,50.70 576.62,51.32 577.66,51.88 578.70,52.36 579.74,52.79 580.78,53.16 581.82,53.47 582.86,53.74 583.90,53.96 584.94,54.16 585.98,54.32 587.02,54.46 588.06,54.57 ' style='stroke-width: 1.07;' />
</g>
<g clip-path='url(#cpMC4wMHw1NzYuMDB8MC4wMHwxODAuMDA=)'>
<polyline points='35.87,74.23 35.87,71.49 ' style='stroke-width: 1.07; stroke-linecap: butt;' />
<polyline points='163.17,74.23 163.17,71.49 ' style='stroke-width: 1.07; stroke-linecap: butt;' />
<polyline points='290.47,74.23 290.47,71.49 ' style='stroke-width: 1.07; stroke-linecap: butt;' />
<polyline points='417.76,74.23 417.76,71.49 ' style='stroke-width: 1.07; stroke-linecap: butt;' />
<polyline points='545.06,74.23 545.06,71.49 ' style='stroke-width: 1.07; stroke-linecap: butt;' />
<text x='35.87' y='82.72' text-anchor='middle' style='font-size: 8.80px; fill: #4D4D4D; font-family: Arial;' textLength='4.90px' lengthAdjust='spacingAndGlyphs'>1</text>
<text x='163.17' y='82.72' text-anchor='middle' style='font-size: 8.80px; fill: #4D4D4D; font-family: Arial;' textLength='4.90px' lengthAdjust='spacingAndGlyphs'>2</text>
<text x='290.47' y='82.72' text-anchor='middle' style='font-size: 8.80px; fill: #4D4D4D; font-family: Arial;' textLength='4.90px' lengthAdjust='spacingAndGlyphs'>3</text>
<text x='417.76' y='82.72' text-anchor='middle' style='font-size: 8.80px; fill: #4D4D4D; font-family: Arial;' textLength='4.90px' lengthAdjust='spacingAndGlyphs'>4</text>
<text x='545.06' y='82.72' text-anchor='middle' style='font-size: 8.80px; fill: #4D4D4D; font-family: Arial;' textLength='4.90px' lengthAdjust='spacingAndGlyphs'>5</text>
</g>
<defs>
  <clipPath id='cpMC4wMHw1NzYuMDB8OTAuMDB8MTgwLjAw'>
    <rect x='0.000000000000050' y='90.00' width='576.00' height='90.00' />
  </clipPath>
</defs>
<g clip-path='url(#cpMC4wMHw1NzYuMDB8OTAuMDB8MTgwLjAw)'>
<rect x='0.000000000000064' y='90.00' width='576.00' height='90.00' style='stroke-width: 1.07; stroke: #FFFFFF; fill: #FFFFFF;' />
</g>
<g clip-path='url(#cpMC4wMHw1NzYuMDB8MC4wMHwxODAuMDA=)'>
</g>
<defs>
  <clipPath id='cpMTAuNDF8NTcwLjUyfDk1LjQ4fDE0OC43MQ=='>
    <rect x='10.41' y='95.48' width='560.11' height='53.23' />
  </clipPath>
</defs>
<g clip-path='url(#cpMTAuNDF8NTcwLjUyfDk1LjQ4fDE0OC43MQ==)'>
<rect x='10.41' y='95.48' width='560.11' height='53.23' style='stroke-width: 1.07; stroke: none; fill: #FFFFFF;' />
<polyline points='99.52,148.71 99.52,95.48 ' style='stroke-width: 0.53; stroke: #EBEBEB; stroke-linecap: butt;' />
<polyline points='226.82,148.71 226.82,95.48 ' style='stroke-width: 0.53; stroke: #EBEBEB; stroke-linecap: butt;' />
<polyline points='354.11,148.71 354.11,95.48 ' style='stroke-width: 0.53; stroke: #EBEBEB; stroke-linecap: butt;' />
<polyline points='481.41,148.71 481.41,95.48 ' style='stroke-width: 0.53; stroke: #EBEBEB; stroke-linecap: butt;' />
<polyline points='10.41,122.24 570.52,122.24 ' style='stroke-width: 1.07; stroke: #EBEBEB; stroke-linecap: butt;' />
<polyline points='35.87,148.71 35.87,95.48 ' style='stroke-width: 1.07; stroke: #EBEBEB; stroke-linecap: butt;' />
<polyline points='163.17,148.71 163.17,95.48 ' style='stroke-width: 1.07; stroke: #EBEBEB; stroke-linecap: butt;' />
<polyline points='290.47,148.71 290.47,95.48 ' style='stroke-width: 1.07; stroke: #EBEBEB; stroke-linecap: butt;' />
<polyline points='417.76,148.71 417.76,95.48 ' style='stroke-width: 1.07; stroke: #EBEBEB; stroke-linecap: butt;' />
<polyline points='545.06,148.71 545.06,95.48 ' style='stroke-width: 1.07; stroke: #EBEBEB; stroke-linecap: butt;' />
<circle cx='590.98' cy='99.86' r='3.20' style='stroke-width: 0.00; stroke: #444444; stroke-opacity: 0.10; fill: #444444; fill-opacity: 0.10;' />
<circle cx='489.25' cy='120.48' r='3.20' style='stroke-width: 0.00; stroke: #444444; stroke-opacity: 0.10; fill: #444444; fill-opacity: 0.10;' />
<circle cx='531.99' cy='125.01' r='3.20' style='stroke-width: 0.00; stroke: #444444; stroke-opacity: 0.10; fill: #444444; fill-opacity: 0.10;' />
<circle cx='228.95' cy='102.14' r='3.20' style='stroke-width: 0.00; stroke: #444444; stroke-opacity: 0.10; fill: #444444; fill-opacity: 0.10;' />
<circle cx='471.80' cy='136.61' r='3.20' style='stroke-width: 0.00; stroke: #444444; stroke-opacity: 0.10; fill: #444444; fill-opacity: 0.10;' />
<circle cx='341.55' cy='100.68' r='3.20' style='stroke-width: 0.00; stroke: #444444; stroke-opacity: 0.10; fill: #444444; fill-opacity: 0.10;' />
<circle cx='529.02' cy='110.52' r='3.20' style='stroke-width: 0.00; stroke: #444444; stroke-opacity: 0.10; fill: #444444; fill-opacity: 0.10;' />
<circle cx='559.26' cy='114.62' r='3.20' style='stroke-width: 0.00; stroke: #444444; stroke-opacity: 0.10; fill: #444444; fill-opacity: 0.10;' />
<circle cx='316.19' cy='115.26' r='3.20' style='stroke-width: 0.00; stroke: #444444; stroke-opacity: 0.10; fill: #444444; fill-opacity: 0.10;' />
<circle cx='325.70' cy='145.64' r='3.20' style='stroke-width: 0.00; stroke: #444444; stroke-opacity: 0.10; fill: #444444; fill-opacity: 0.10;' />
<circle cx='537.53' cy='125.60' r='3.20' style='stroke-width: 0.00; stroke: #444444; stroke-opacity: 0.10; fill: #444444; fill-opacity: 0.10;' />
<circle cx='494.23' cy='134.45' r='3.20' style='stroke-width: 0.00; stroke: #444444; stroke-opacity: 0.10; fill: #444444; fill-opacity: 0.10;' />
<circle cx='339.81' cy='109.48' r='3.20' style='stroke-width: 0.00; stroke: #444444; stroke-opacity: 0.10; fill: #444444; fill-opacity: 0.10;' />
<circle cx='405.52' cy='138.73' r='3.20' style='stroke-width: 0.00; stroke: #444444; stroke-opacity: 0.10; fill: #444444; fill-opacity: 0.10;' />
<circle cx='240.01' cy='119.70' r='3.20' style='stroke-width: 0.00; stroke: #444444; stroke-opacity: 0.10; fill: #444444; fill-opacity: 0.10;' />
<circle cx='412.57' cy='138.83' r='3.20' style='stroke-width: 0.00; stroke: #444444; stroke-opacity: 0.10; fill: #444444; fill-opacity: 0.10;' />
<circle cx='440.79' cy='127.78' r='3.20' style='stroke-width: 0.00; stroke: #444444; stroke-opacity: 0.10; fill: #444444; fill-opacity: 0.10;' />
<circle cx='542.80' cy='121.67' r='3.20' style='stroke-width: 0.00; stroke: #444444; stroke-opacity: 0.10; fill: #444444; fill-opacity: 0.10;' />
<circle cx='469.90' cy='112.37' r='3.20' style='stroke-width: 0.00; stroke: #444444; stroke-opacity: 0.10; fill: #444444; fill-opacity: 0.10;' />
<circle cx='477.33' cy='136.83' r='3.20' style='stroke-width: 0.00; stroke: #444444; stroke-opacity: 0.10; fill: #444444; fill-opacity: 0.10;' />
<circle cx='546.01' cy='117.17' r='3.20' style='stroke-width: 0.00; stroke: #444444; stroke-opacity: 0.10; fill: #444444; fill-opacity: 0.10;' />
<circle cx='294.24' cy='122.26' r='3.20' style='stroke-width: 0.00; stroke: #444444; stroke-opacity: 0.10; fill: #444444; fill-opacity: 0.10;' />
<circle cx='493.14' cy='136.20' r='3.20' style='stroke-width: 0.00; stroke: #444444; stroke-opacity: 0.10; fill: #444444; fill-opacity: 0.10;' />
<circle cx='498.44' cy='131.37' r='3.20' style='stroke-width: 0.00; stroke: #444444; stroke-opacity: 0.10; fill: #444444; fill-opacity: 0.10;' />
<circle cx='227.94' cy='120.03' r='3.20' style='stroke-width: 0.00; stroke: #444444; stroke-opacity: 0.10; fill: #444444; fill-opacity: 0.10;' />
<circle cx='474.57' cy='122.42' r='3.20' style='stroke-width: 0.00; stroke: #444444; stroke-opacity: 0.10; fill: #444444; fill-opacity: 0.10;' />
<circle cx='422.85' cy='142.42' r='3.20' style='stroke-width: 0.00; stroke: #444444; stroke-opacity: 0.10; fill: #444444; fill-opacity: 0.10;' />
<circle cx='227.22' cy='130.82' r='3.20' style='stroke-width: 0.00; stroke: #444444; stroke-opacity: 0.10; fill: #444444; fill-opacity: 0.10;' />
<circle cx='427.29' cy='128.86' r='3.20' style='stroke-width: 0.00; stroke: #444444; stroke-opacity: 0.10; fill: #444444; fill-opacity: 0.10;' />
<circle cx='224.98' cy='133.97' r='3.20' style='stroke-width: 0.00; stroke: #444444; stroke-opacity: 0.10; fill: #444444; fill-opacity: 0.10;' />
<circle cx='542.74' cy='116.39' r='3.20' style='stroke-width: 0.00; stroke: #444444; stroke-opacity: 0.10; fill: #444444; fill-opacity: 0.10;' />
<circle cx='521.40' cy='114.61' r='3.20' style='stroke-width: 0.00; stroke: #444444; stroke-opacity: 0.10; fill: #444444; fill-opacity: 0.10;' />
<circle cx='397.17' cy='103.21' r='3.20' style='stroke-width: 0.00; stroke: #444444; stroke-opacity: 0.10; fill: #444444; fill-opacity: 0.10;' />
<circle cx='468.58' cy='135.22' r='3.20' style='stroke-width: 0.00; stroke: #444444; stroke-opacity: 0.10; fill: #444444; fill-opacity: 0.10;' />
<circle cx='371.06' cy='106.68' r='3.20' style='stroke-width: 0.00; stroke: #444444; stroke-opacity: 0.10; fill: #444444; fill-opacity: 0.10;' />
<circle cx='259.95' cy='99.26' r='3.20' style='stroke-width: 0.00; stroke: #444444; stroke-opacity: 0.10; fill: #444444; fill-opacity: 0.10;' />
<circle cx='444.38' cy='138.86' r='3.20' style='stroke-width: 0.00; stroke: #444444; stroke-opacity: 0.10; fill: #444444; fill-opacity: 0.10;' />
<circle cx='519.21' cy='129.61' r='3.20' style='stroke-width: 0.00; stroke: #444444; stroke-opacity: 0.10; fill: #444444; fill-opacity: 0.10;' />
<circle cx='562.31' cy='111.86' r='3.20' style='stroke-width: 0.00; stroke: #444444; stroke-opacity: 0.10; fill: #444444; fill-opacity: 0.10;' />
<circle cx='608.22' cy='144.04' r='3.20' style='stroke-width: 0.00; stroke: #444444; stroke-opacity: 0.10; fill: #444444; fill-opacity: 0.10;' />
<circle cx='469.60' cy='129.58' r='3.20' style='stroke-width: 0.00; stroke: #444444; stroke-opacity: 0.10; fill: #444444; fill-opacity: 0.10;' />
<circle cx='387.27' cy='131.51' r='3.20' style='stroke-width: 0.00; stroke: #444444; stroke-opacity: 0.10; fill: #444444; fill-opacity: 0.10;' />
<circle cx='551.67' cy='130.87' r='3.20' style='stroke-width: 0.00; stroke: #444444; stroke-opacity: 0.10; fill: #444444; fill-opacity: 0.10;' />
<circle cx='302.31' cy='133.06' r='3.20' style='stroke-width: 0.00; stroke: #444444; stroke-opacity: 0.10; fill: #444444; fill-opacity: 0.10;' />
<circle cx='325.44' cy='111.42' r='3.20' style='stroke-width: 0.00; stroke: #444444; stroke-opacity: 0.10; fill: #444444; fill-opacity: 0.10;' />
<circle cx='461.56' cy='105.58' r='3.20' style='stroke-width: 0.00; stroke: #444444; stroke-opacity: 0.10; fill: #444444; fill-opacity: 0.10;' />
<circle cx='449.96' cy='104.65' r='3.20' style='stroke-width: 0.00; stroke: #444444; stroke-opacity: 0.10; fill: #444444; fill-opacity: 0.10;' />
<circle cx='358.02' cy='127.85' r='3.20' style='stroke-width: 0.00; stroke: #444444; stroke-opacity: 0.10; fill: #444444; fill-opacity: 0.10;' />
<circle cx='329.29' cy='104.98' r='3.20' style='stroke-width: 0.00; stroke: #444444; stroke-opacity: 0.10; fill: #444444; fill-opacity: 0.10;' />
<circle cx='390.77' cy='129.26' r='3.20' style='stroke-width: 0.00; stroke: #444444; stroke-opacity: 0.10; fill: #444444; fill-opacity: 0.10;' />
<circle cx='584.37' cy='117.17' r='3.20' style='stroke-width: 0.00; stroke: #444444; stroke-opacity: 0.10; fill: #444444; fill-opacity: 0.10;' />
<circle cx='433.56' cy='120.98' r='3.20' style='stroke-width: 0.00; stroke: #444444; stroke-opacity: 0.10; fill: #444444; fill-opacity: 0.10;' />
<circle cx='530.24' cy='119.54' r='3.20' style='stroke-width: 0.00; stroke: #444444; stroke-opacity: 0.10; fill: #444444; fill-opacity: 0.10;' />
<circle cx='356.93' cy='113.51' r='3.20' style='stroke-width: 0.00; stroke: #444444; stroke-opacity: 0.10; fill: #444444; fill-opacity: 0.10;' />
<circle cx='503.09' cy='108.13' r='3.20' style='stroke-width: 0.00; stroke: #444444; stroke-opacity: 0.10; fill: #444444; fill-opacity: 0.10;' />
<circle cx='472.59' cy='136.30' r='3.20' style='stroke-width: 0.00; stroke: #444444; stroke-opacity: 0.10; fill: #444444; fill-opacity: 0.10;' />
<circle cx='253.02' cy='145.99' r='3.20' style='stroke-width: 0.00; stroke: #444444; stroke-opacity: 0.10; fill: #444444; fill-opacity: 0.10;' />
<circle cx='416.58' cy='110.04' r='3.20' style='stroke-width: 0.00; stroke: #444444; stroke-opacity: 0.10; fill: #444444; fill-opacity: 0.10;' />
<circle cx='299.42' cy='105.17' r='3.20' style='stroke-width: 0.00; stroke: #444444; stroke-opacity: 0.10; fill: #444444; fill-opacity: 0.10;' />
<circle cx='446.69' cy='114.43' r='3.20' style='stroke-width: 0.00; stroke: #444444; stroke-opacity: 0.10; fill: #444444; fill-opacity: 0.10;' />
<circle cx='581.04' cy='106.27' r='3.20' style='stroke-width: 0.00; stroke: #444444; stroke-opacity: 0.10; fill: #444444; fill-opacity: 0.10;' />
<circle cx='345.33' cy='106.94' r='3.20' style='stroke-width: 0.00; stroke: #444444; stroke-opacity: 0.10; fill: #444444; fill-opacity: 0.10;' />
<circle cx='515.80' cy='116.80' r='3.20' style='stroke-width: 0.00; stroke: #444444; stroke-opacity: 0.10; fill: #444444; fill-opacity: 0.10;' />
<circle cx='461.44' cy='142.94' r='3.20' style='stroke-width: 0.00; stroke: #444444; stroke-opacity: 0.10; fill: #444444; fill-opacity: 0.10;' />
<circle cx='516.74' cy='114.17' r='3.20' style='stroke-width: 0.00; stroke: #444444; stroke-opacity: 0.10; fill: #444444; fill-opacity: 0.10;' />
<circle cx='482.88' cy='117.71' r='3.20' style='stroke-width: 0.00; stroke: #444444; stroke-opacity: 0.10; fill: #444444; fill-opacity: 0.10;' />
<circle cx='452.22' cy='102.86' r='3.20' style='stroke-width: 0.00; stroke: #444444; stroke-opacity: 0.10; fill: #444444; fill-opacity: 0.10;' />
<circle cx='426.77' cy='117.33' r='3.20' style='stroke-width: 0.00; stroke: #444444; stroke-opacity: 0.10; fill: #444444; fill-opacity: 0.10;' />
<circle cx='485.46' cy='115.00' r='3.20' style='stroke-width: 0.00; stroke: #444444; stroke-opacity: 0.10; fill: #444444; fill-opacity: 0.10;' />
<circle cx='467.37' cy='144.40' r='3.20' style='stroke-width: 0.00; stroke: #444444; stroke-opacity: 0.10; fill: #444444; fill-opacity: 0.10;' />
<circle cx='482.47' cy='101.82' r='3.20' style='stroke-width: 0.00; stroke: #444444; stroke-opacity: 0.10; fill: #444444; fill-opacity: 0.10;' />
<circle cx='489.41' cy='141.97' r='3.20' style='stroke-width: 0.00; stroke: #444444; stroke-opacity: 0.10; fill: #444444; fill-opacity: 0.10;' />
<circle cx='290.88' cy='102.38' r='3.20' style='stroke-width: 0.00; stroke: #444444; stroke-opacity: 0.10; fill: #444444; fill-opacity: 0.10;' />
<circle cx='525.42' cy='110.40' r='3.20' style='stroke-width: 0.00; stroke: #444444; stroke-opacity: 0.10; fill: #444444; fill-opacity: 0.10;' />
<circle cx='448.94' cy='104.20' r='3.20' style='stroke-width: 0.00; stroke: #444444; stroke-opacity: 0.10; fill: #444444; fill-opacity: 0.10;' />
<circle cx='430.78' cy='123.44' r='3.20' style='stroke-width: 0.00; stroke: #444444; stroke-opacity: 0.10; fill: #444444; fill-opacity: 0.10;' />
<circle cx='489.68' cy='108.14' r='3.20' style='stroke-width: 0.00; stroke: #444444; stroke-opacity: 0.10; fill: #444444; fill-opacity: 0.10;' />
<circle cx='357.33' cy='110.16' r='3.20' style='stroke-width: 0.00; stroke: #444444; stroke-opacity: 0.10; fill: #444444; fill-opacity: 0.10;' />
<circle cx='517.41' cy='109.95' r='3.20' style='stroke-width: 0.00; stroke: #444444; stroke-opacity: 0.10; fill: #444444; fill-opacity: 0.10;' />
<circle cx='375.27' cy='128.42' r='3.20' style='stroke-width: 0.00; stroke: #444444; stroke-opacity: 0.10; fill: #444444; fill-opacity: 0.10;' />
<circle cx='476.35' cy='132.91' r='3.20' style='stroke-width: 0.00; stroke: #444444; stroke-opacity: 0.10; fill: #444444; fill-opacity: 0.10;' />
<circle cx='464.23' cy='137.29' r='3.20' style='stroke-width: 0.00; stroke: #444444; stroke-opacity: 0.10; fill: #444444; fill-opacity: 0.10;' />
<circle cx='595.37' cy='133.42' r='3.20' style='stroke-width: 0.00; stroke: #444444; stroke-opacity: 0.10; fill: #444444; fill-opacity: 0.10;' />
<circle cx='428.28' cy='132.27' r='3.20' style='stroke-width: 0.00; stroke: #444444; stroke-opacity: 0.10; fill: #444444; fill-opacity: 0.10;' />
<circle cx='257.00' cy='122.01' r='3.20' style='stroke-width: 0.00; stroke: #444444; stroke-opacity: 0.10; fill: #444444; fill-opacity: 0.10;' />
<circle cx='335.24' cy='106.89' r='3.20' style='stroke-width: 0.00; stroke: #444444; stroke-opacity: 0.10; fill: #444444; fill-opacity: 0.10;' />
<circle cx='319.62' cy='142.49' r='3.20' style='stroke-width: 0.00; stroke: #444444; stroke-opacity: 0.10; fill: #444444; fill-opacity: 0.10;' />
<circle cx='439.39' cy='134.71' r='3.20' style='stroke-width: 0.00; stroke: #444444; stroke-opacity: 0.10; fill: #444444; fill-opacity: 0.10;' />
<circle cx='458.17' cy='111.16' r='3.20' style='stroke-width: 0.00; stroke: #444444; stroke-opacity: 0.10; fill: #444444; fill-opacity: 0.10;' />
<circle cx='446.12' cy='143.29' r='3.20' style='stroke-width: 0.00; stroke: #444444; stroke-opacity: 0.10; fill: #444444; fill-opacity: 0.10;' />
<circle cx='329.08' cy='98.84' r='3.20' style='stroke-width: 0.00; stroke: #444444; stroke-opacity: 0.10; fill: #444444; fill-opacity: 0.10;' />
<circle cx='467.59' cy='113.29' r='3.20' style='stroke-width: 0.00; stroke: #444444; stroke-opacity: 0.10; fill: #444444; fill-opacity: 0.10;' />
<circle cx='399.37' cy='145.65' r='3.20' style='stroke-width: 0.00; stroke: #444444; stroke-opacity: 0.10; fill: #444444; fill-opacity: 0.10;' />
<circle cx='357.63' cy='141.38' r='3.20' style='stroke-width: 0.00; stroke: #444444; stroke-opacity: 0.10; fill: #444444; fill-opacity: 0.10;' />
<circle cx='437.26' cy='115.71' r='3.20' style='stroke-width: 0.00; stroke: #444444; stroke-opacity: 0.10; fill: #444444; fill-opacity: 0.10;' />
<circle cx='501.14' cy='138.02' r='3.20' style='stroke-width: 0.00; stroke: #444444; stroke-opacity: 0.10; fill: #444444; fill-opacity: 0.10;' />
<circle cx='469.81' cy='105.93' r='3.20' style='stroke-width: 0.00; stroke: #444444; stroke-opacity: 0.10; fill: #444444; fill-opacity: 0.10;' />
<circle cx='448.62' cy='131.17' r='3.20' style='stroke-width: 0.00; stroke: #444444; stroke-opacity: 0.10; fill: #444444; fill-opacity: 0.10;' />
<circle cx='530.14' cy='128.79' r='3.20' style='stroke-width: 0.00; stroke: #444444; stroke-opacity: 0.10; fill: #444444; fill-opacity: 0.10;' />
<circle cx='521.48' cy='143.26' r='3.20' style='stroke-width: 0.00; stroke: #444444; stroke-opacity: 0.10; fill: #444444; fill-opacity: 0.10;' />
<circle cx='532.83' cy='100.76' r='3.20' style='stroke-width: 0.00; stroke: #444444; stroke-opacity: 0.10; fill: #444444; fill-opacity: 0.10;' />
<circle cx='490.48' cy='127.05' r='3.20' style='stroke-width: 0.00; stroke: #444444; stroke-opacity: 0.10; fill: #444444; fill-opacity: 0.10;' />
<circle cx='511.66' cy='111.34' r='3.20' style='stroke-width: 0.00; stroke: #444444; stroke-opacity: 0.10; fill: #444444; fill-opacity: 0.10;' />
<circle cx='527.73' cy='145.16' r='3.20' style='stroke-width: 0.00; stroke: #444444; stroke-opacity: 0.10; fill: #444444; fill-opacity: 0.10;' />
<circle cx='525.96' cy='100.66' r='3.20' style='stroke-width: 0.00; stroke: #444444; stroke-opacity: 0.10; fill: #444444; fill-opacity: 0.10;' />
<circle cx='391.58' cy='143.81' r='3.20' style='stroke-width: 0.00; stroke: #444444; stroke-opacity: 0.10; fill: #444444; fill-opacity: 0.10;' />
<circle cx='496.79' cy='115.12' r='3.20' style='stroke-width: 0.00; stroke: #444444; stroke-opacity: 0.10; fill: #444444; fill-opacity: 0.10;' />
<circle cx='451.93' cy='98.41' r='3.20' style='stroke-width: 0.00; stroke: #444444; stroke-opacity: 0.10; fill: #444444; fill-opacity: 0.10;' />
<circle cx='478.66' cy='137.88' r='3.20' style='stroke-width: 0.00; stroke: #444444; stroke-opacity: 0.10; fill: #444444; fill-opacity: 0.10;' />
<circle cx='355.82' cy='129.32' r='3.20' style='stroke-width: 0.00; stroke: #444444; stroke-opacity: 0.10; fill: #444444; fill-opacity: 0.10;' />
<circle cx='564.43' cy='125.76' r='3.20' style='stroke-width: 0.00; stroke: #444444; stroke-opacity: 0.10; fill: #444444; fill-opacity: 0.10;' />
<circle cx='446.52' cy='144.14' r='3.20' style='stroke-width: 0.00; stroke: #444444; stroke-opacity: 0.10; fill: #444444; fill-opacity: 0.10;' />
<circle cx='389.05' cy='111.84' r='3.20' style='stroke-width: 0.00; stroke: #444444; stroke-opacity: 0.10; fill: #444444; fill-opacity: 0.10;' />
<circle cx='523.97' cy='136.29' r='3.20' style='stroke-width: 0.00; stroke: #444444; stroke-opacity: 0.10; fill: #444444; fill-opacity: 0.10;' />
<circle cx='461.93' cy='132.32' r='3.20' style='stroke-width: 0.00; stroke: #444444; stroke-opacity: 0.10; fill: #444444; fill-opacity: 0.10;' />
<circle cx='522.04' cy='129.14' r='3.20' style='stroke-width: 0.00; stroke: #444444; stroke-opacity: 0.10; fill: #444444; fill-opacity: 0.10;' />
<circle cx='447.03' cy='108.02' r='3.20' style='stroke-width: 0.00; stroke: #444444; stroke-opacity: 0.10; fill: #444444; fill-opacity: 0.10;' />
<circle cx='438.93' cy='129.43' r='3.20' style='stroke-width: 0.00; stroke: #444444; stroke-opacity: 0.10; fill: #444444; fill-opacity: 0.10;' />
<circle cx='443.53' cy='111.54' r='3.20' style='stroke-width: 0.00; stroke: #444444; stroke-opacity: 0.10; fill: #444444; fill-opacity: 0.10;' />
<circle cx='589.05' cy='129.99' r='3.20' style='stroke-width: 0.00; stroke: #444444; stroke-opacity: 0.10; fill: #444444; fill-opacity: 0.10;' />
<circle cx='514.28' cy='102.80' r='3.20' style='stroke-width: 0.00; stroke: #444444; stroke-opacity: 0.10; fill: #444444; fill-opacity: 0.10;' />
<circle cx='410.57' cy='105.55' r='3.20' style='stroke-width: 0.00; stroke: #444444; stroke-opacity: 0.10; fill: #444444; fill-opacity: 0.10;' />
<circle cx='443.26' cy='117.44' r='3.20' style='stroke-width: 0.00; stroke: #444444; stroke-opacity: 0.10; fill: #444444; fill-opacity: 0.10;' />
<circle cx='366.12' cy='126.87' r='3.20' style='stroke-width: 0.00; stroke: #444444; stroke-opacity: 0.10; fill: #444444; fill-opacity: 0.10;' />
<circle cx='321.58' cy='135.22' r='3.20' style='stroke-width: 0.00; stroke: #444444; stroke-opacity: 0.10; fill: #444444; fill-opacity: 0.10;' />
<circle cx='507.72' cy='116.72' r='3.20' style='stroke-width: 0.00; stroke: #444444; stroke-opacity: 0.10; fill: #444444; fill-opacity: 0.10;' />
<circle cx='446.35' cy='125.45' r='3.20' style='stroke-width: 0.00; stroke: #444444; stroke-opacity: 0.10; fill: #444444; fill-opacity: 0.10;' />
<circle cx='531.50' cy='115.35' r='3.20' style='stroke-width: 0.00; stroke: #444444; stroke-opacity: 0.10; fill: #444444; fill-opacity: 0.10;' />
<circle cx='394.60' cy='115.21' r='3.20' style='stroke-width: 0.00; stroke: #444444; stroke-opacity: 0.10; fill: #444444; fill-opacity: 0.10;' />
<circle cx='537.94' cy='137.19' r='3.20' style='stroke-width: 0.00; stroke: #444444; stroke-opacity: 0.10; fill: #444444; fill-opacity: 0.10;' />
<circle cx='490.23' cy='126.03' r='3.20' style='stroke-width: 0.00; stroke: #444444; stroke-opacity: 0.10; fill: #444444; fill-opacity: 0.10;' />
<circle cx='403.10' cy='113.00' r='3.20' style='stroke-width: 0.00; stroke: #444444; stroke-opacity: 0.10; fill: #444444; fill-opacity: 0.10;' />
<circle cx='299.52' cy='114.53' r='3.20' style='stroke-width: 0.00; stroke: #444444; stroke-opacity: 0.10; fill: #444444; fill-opacity: 0.10;' />
<circle cx='511.92' cy='141.22' r='3.20' style='stroke-width: 0.00; stroke: #444444; stroke-opacity: 0.10; fill: #444444; fill-opacity: 0.10;' />
<circle cx='356.56' cy='146.29' r='3.20' style='stroke-width: 0.00; stroke: #444444; stroke-opacity: 0.10; fill: #444444; fill-opacity: 0.10;' />
<circle cx='289.78' cy='119.80' r='3.20' style='stroke-width: 0.00; stroke: #444444; stroke-opacity: 0.10; fill: #444444; fill-opacity: 0.10;' />
<circle cx='413.31' cy='99.79' r='3.20' style='stroke-width: 0.00; stroke: #444444; stroke-opacity: 0.10; fill: #444444; fill-opacity: 0.10;' />
<circle cx='337.72' cy='115.09' r='3.20' style='stroke-width: 0.00; stroke: #444444; stroke-opacity: 0.10; fill: #444444; fill-opacity: 0.10;' />
<circle cx='489.32' cy='101.46' r='3.20' style='stroke-width: 0.00; stroke: #444444; stroke-opacity: 0.10; fill: #444444; fill-opacity: 0.10;' />
<circle cx='521.81' cy='140.32' r='3.20' style='stroke-width: 0.00; stroke: #444444; stroke-opacity: 0.10; fill: #444444; fill-opacity: 0.10;' />
<circle cx='543.56' cy='128.84' r='3.20' style='stroke-width: 0.00; stroke: #444444; stroke-opacity: 0.10; fill: #444444; fill-opacity: 0.10;' />
<circle cx='558.53' cy='135.10' r='3.20' style='stroke-width: 0.00; stroke: #444444; stroke-opacity: 0.10; fill: #444444; fill-opacity: 0.10;' />
<circle cx='364.33' cy='141.95' r='3.20' style='stroke-width: 0.00; stroke: #444444; stroke-opacity: 0.10; fill: #444444; fill-opacity: 0.10;' />
<circle cx='75.10' cy='132.99' r='3.20' style='stroke-width: 0.00; stroke: #444444; stroke-opacity: 0.10; fill: #444444; fill-opacity: 0.10;' />
<circle cx='331.16' cy='102.33' r='3.20' style='stroke-width: 0.00; stroke: #444444; stroke-opacity: 0.10; fill: #444444; fill-opacity: 0.10;' />
<circle cx='345.45' cy='125.48' r='3.20' style='stroke-width: 0.00; stroke: #444444; stroke-opacity: 0.10; fill: #444444; fill-opacity: 0.10;' />
<circle cx='313.74' cy='118.42' r='3.20' style='stroke-width: 0.00; stroke: #444444; stroke-opacity: 0.10; fill: #444444; fill-opacity: 0.10;' />
<circle cx='368.31' cy='111.20' r='3.20' style='stroke-width: 0.00; stroke: #444444; stroke-opacity: 0.10; fill: #444444; fill-opacity: 0.10;' />
<circle cx='541.05' cy='140.69' r='3.20' style='stroke-width: 0.00; stroke: #444444; stroke-opacity: 0.10; fill: #444444; fill-opacity: 0.10;' />
<circle cx='447.63' cy='103.35' r='3.20' style='stroke-width: 0.00; stroke: #444444; stroke-opacity: 0.10; fill: #444444; fill-opacity: 0.10;' />
<circle cx='314.33' cy='122.39' r='3.20' style='stroke-width: 0.00; stroke: #444444; stroke-opacity: 0.10; fill: #444444; fill-opacity: 0.10;' />
<circle cx='600.50' cy='105.28' r='3.20' style='stroke-width: 0.00; stroke: #444444; stroke-opacity: 0.10; fill: #444444; fill-opacity: 0.10;' />
<circle cx='507.54' cy='124.68' r='3.20' style='stroke-width: 0.00; stroke: #444444; stroke-opacity: 0.10; fill: #444444; fill-opacity: 0.10;' />
<circle cx='530.82' cy='111.30' r='3.20' style='stroke-width: 0.00; stroke: #444444; stroke-opacity: 0.10; fill: #444444; fill-opacity: 0.10;' />
<circle cx='369.61' cy='117.54' r='3.20' style='stroke-width: 0.00; stroke: #444444; stroke-opacity: 0.10; fill: #444444; fill-opacity: 0.10;' />
<circle cx='508.13' cy='139.98' r='3.20' style='stroke-width: 0.00; stroke: #444444; stroke-opacity: 0.10; fill: #444444; fill-opacity: 0.10;' />
<circle cx='382.26' cy='129.15' r='3.20' style='stroke-width: 0.00; stroke: #444444; stroke-opacity: 0.10; fill: #444444; fill-opacity: 0.10;' />
<circle cx='472.05' cy='116.86' r='3.20' style='stroke-width: 0.00; stroke: #444444; stroke-opacity: 0.10; fill: #444444; fill-opacity: 0.10;' />
<circle cx='537.60' cy='110.98' r='3.20' style='stroke-width: 0.00; stroke: #444444; stroke-opacity: 0.10; fill: #444444; fill-opacity: 0.10;' />
<circle cx='453.46' cy='140.31' r='3.20' style='stroke-width: 0.00; stroke: #444444; stroke-opacity: 0.10; fill: #444444; fill-opacity: 0.10;' />
<circle cx='551.82' cy='124.31' r='3.20' style='stroke-width: 0.00; stroke: #444444; stroke-opacity: 0.10; fill: #444444; fill-opacity: 0.10;' />
<circle cx='574.67' cy='103.72' r='3.20' style='stroke-width: 0.00; stroke: #444444; stroke-opacity: 0.10; fill: #444444; fill-opacity: 0.10;' />
<circle cx='535.99' cy='137.84' r='3.20' style='stroke-width: 0.00; stroke: #444444; stroke-opacity: 0.10; fill: #444444; fill-opacity: 0.10;' />
<circle cx='388.83' cy='103.49' r='3.20' style='stroke-width: 0.00; stroke: #444444; stroke-opacity: 0.10; fill: #444444; fill-opacity: 0.10;' />
<circle cx='530.47' cy='119.24' r='3.20' style='stroke-width: 0.00; stroke: #444444; stroke-opacity: 0.10; fill: #444444; fill-opacity: 0.10;' />
<circle cx='387.37' cy='102.11' r='3.20' style='stroke-width: 0.00; stroke: #444444; stroke-opacity: 0.10; fill: #444444; fill-opacity: 0.10;' />
<circle cx='475.12' cy='128.07' r='3.20' style='stroke-width: 0.00; stroke: #444444; stroke-opacity: 0.10; fill: #444444; fill-opacity: 0.10;' />
<circle cx='539.13' cy='138.55' r='3.20' style='stroke-width: 0.00; stroke: #444444; stroke-opacity: 0.10; fill: #444444; fill-opacity: 0.10;' />
<circle cx='573.89' cy='127.74' r='3.20' style='stroke-width: 0.00; stroke: #444444; stroke-opacity: 0.10; fill: #444444; fill-opacity: 0.10;' />
<circle cx='422.57' cy='130.40' r='3.20' style='stroke-width: 0.00; stroke: #444444; stroke-opacity: 0.10; fill: #444444; fill-opacity: 0.10;' />
<circle cx='549.57' cy='119.35' r='3.20' style='stroke-width: 0.00; stroke: #444444; stroke-opacity: 0.10; fill: #444444; fill-opacity: 0.10;' />
<circle cx='445.65' cy='120.77' r='3.20' style='stroke-width: 0.00; stroke: #444444; stroke-opacity: 0.10; fill: #444444; fill-opacity: 0.10;' />
<circle cx='406.64' cy='101.16' r='3.20' style='stroke-width: 0.00; stroke: #444444; stroke-opacity: 0.10; fill: #444444; fill-opacity: 0.10;' />
<circle cx='422.64' cy='139.66' r='3.20' style='stroke-width: 0.00; stroke: #444444; stroke-opacity: 0.10; fill: #444444; fill-opacity: 0.10;' />
<circle cx='346.42' cy='132.77' r='3.20' style='stroke-width: 0.00; stroke: #444444; stroke-opacity: 0.10; fill: #444444; fill-opacity: 0.10;' />
<circle cx='443.03' cy='128.39' r='3.20' style='stroke-width: 0.00; stroke: #444444; stroke-opacity: 0.10; fill: #444444; fill-opacity: 0.10;' />
<circle cx='395.87' cy='137.15' r='3.20' style='stroke-width: 0.00; stroke: #444444; stroke-opacity: 0.10; fill: #444444; fill-opacity: 0.10;' />
<circle cx='472.99' cy='114.95' r='3.20' style='stroke-width: 0.00; stroke: #444444; stroke-opacity: 0.10; fill: #444444; fill-opacity: 0.10;' />
<circle cx='463.03' cy='105.42' r='3.20' style='stroke-width: 0.00; stroke: #444444; stroke-opacity: 0.10; fill: #444444; fill-opacity: 0.10;' />
<circle cx='240.56' cy='128.80' r='3.20' style='stroke-width: 0.00; stroke: #444444; stroke-opacity: 0.10; fill: #444444; fill-opacity: 0.10;' />
<circle cx='515.30' cy='140.56' r='3.20' style='stroke-width: 0.00; stroke: #444444; stroke-opacity: 0.10; fill: #444444; fill-opacity: 0.10;' />
<circle cx='359.65' cy='118.82' r='3.20' style='stroke-width: 0.00; stroke: #444444; stroke-opacity: 0.10; fill: #444444; fill-opacity: 0.10;' />
<circle cx='374.66' cy='112.37' r='3.20' style='stroke-width: 0.00; stroke: #444444; stroke-opacity: 0.10; fill: #444444; fill-opacity: 0.10;' />
<circle cx='525.26' cy='123.80' r='3.20' style='stroke-width: 0.00; stroke: #444444; stroke-opacity: 0.10; fill: #444444; fill-opacity: 0.10;' />
<circle cx='464.28' cy='134.88' r='3.20' style='stroke-width: 0.00; stroke: #444444; stroke-opacity: 0.10; fill: #444444; fill-opacity: 0.10;' />
<circle cx='557.97' cy='128.43' r='3.20' style='stroke-width: 0.00; stroke: #444444; stroke-opacity: 0.10; fill: #444444; fill-opacity: 0.10;' />
<circle cx='515.34' cy='115.87' r='3.20' style='stroke-width: 0.00; stroke: #444444; stroke-opacity: 0.10; fill: #444444; fill-opacity: 0.10;' />
<circle cx='523.09' cy='117.40' r='3.20' style='stroke-width: 0.00; stroke: #444444; stroke-opacity: 0.10; fill: #444444; fill-opacity: 0.10;' />
<circle cx='357.19' cy='117.43' r='3.20' style='stroke-width: 0.00; stroke: #444444; stroke-opacity: 0.10; fill: #444444; fill-opacity: 0.10;' />
<circle cx='310.50' cy='106.81' r='3.20' style='stroke-width: 0.00; stroke: #444444; stroke-opacity: 0.10; fill: #444444; fill-opacity: 0.10;' />
<circle cx='400.12' cy='123.15' r='3.20' style='stroke-width: 0.00; stroke: #444444; stroke-opacity: 0.10; fill: #444444; fill-opacity: 0.10;' />
<circle cx='394.52' cy='133.58' r='3.20' style='stroke-width: 0.00; stroke: #444444; stroke-opacity: 0.10; fill: #444444; fill-opacity: 0.10;' />
<circle cx='424.60' cy='115.50' r='3.20' style='stroke-width: 0.00; stroke: #444444; stroke-opacity: 0.10; fill: #444444; fill-opacity: 0.10;' />
<circle cx='527.91' cy='115.72' r='3.20' style='stroke-width: 0.00; stroke: #444444; stroke-opacity: 0.10; fill: #444444; fill-opacity: 0.10;' />
<circle cx='466.97' cy='145.62' r='3.20' style='stroke-width: 0.00; stroke: #444444; stroke-opacity: 0.10; fill: #444444; fill-opacity: 0.10;' />
<circle cx='561.89' cy='143.68' r='3.20' style='stroke-width: 0.00; stroke: #444444; stroke-opacity: 0.10; fill: #444444; fill-opacity: 0.10;' />
<circle cx='592.76' cy='98.49' r='3.20' style='stroke-width: 0.00; stroke: #444444; stroke-opacity: 0.10; fill: #444444; fill-opacity: 0.10;' />
<circle cx='474.44' cy='118.50' r='3.20' style='stroke-width: 0.00; stroke: #444444; stroke-opacity: 0.10; fill: #444444; fill-opacity: 0.10;' />
<circle cx='376.84' cy='106.88' r='3.20' style='stroke-width: 0.00; stroke: #444444; stroke-opacity: 0.10; fill: #444444; fill-opacity: 0.10;' />
<circle cx='475.40' cy='127.19' r='3.20' style='stroke-width: 0.00; stroke: #444444; stroke-opacity: 0.10; fill: #444444; fill-opacity: 0.10;' />
<circle cx='521.26' cy='136.89' r='3.20' style='stroke-width: 0.00; stroke: #444444; stroke-opacity: 0.10; fill: #444444; fill-opacity: 0.10;' />
<circle cx='355.89' cy='142.60' r='3.20' style='stroke-width: 0.00; stroke: #444444; stroke-opacity: 0.10; fill: #444444; fill-opacity: 0.10;' />
<circle cx='580.35' cy='102.11' r='3.20' style='stroke-width: 0.00; stroke: #444444; stroke-opacity: 0.10; fill: #444444; fill-opacity: 0.10;' />
<circle cx='539.32' cy='113.07' r='3.20' style='stroke-width: 0.00; stroke: #444444; stroke-opacity: 0.10; fill: #444444; fill-opacity: 0.10;' />
<circle cx='513.37' cy='102.63' r='3.20' style='stroke-width: 0.00; stroke: #444444; stroke-opacity: 0.10; fill: #444444; fill-opacity: 0.10;' />
<circle cx='499.04' cy='125.63' r='3.20' style='stroke-width: 0.00; stroke: #444444; stroke-opacity: 0.10; fill: #444444; fill-opacity: 0.10;' />
<circle cx='389.99' cy='131.80' r='3.20' style='stroke-width: 0.00; stroke: #444444; stroke-opacity: 0.10; fill: #444444; fill-opacity: 0.10;' />
<circle cx='374.70' cy='109.55' r='3.20' style='stroke-width: 0.00; stroke: #444444; stroke-opacity: 0.10; fill: #444444; fill-opacity: 0.10;' />
<circle cx='530.73' cy='105.52' r='3.20' style='stroke-width: 0.00; stroke: #444444; stroke-opacity: 0.10; fill: #444444; fill-opacity: 0.10;' />
<circle cx='467.41' cy='120.10' r='3.20' style='stroke-width: 0.00; stroke: #444444; stroke-opacity: 0.10; fill: #444444; fill-opacity: 0.10;' />
<circle cx='346.61' cy='132.02' r='3.20' style='stroke-width: 0.00; stroke: #444444; stroke-opacity: 0.10; fill: #444444; fill-opacity: 0.10;' />
<circle cx='578.45' cy='107.72' r='3.20' style='stroke-width: 0.00; stroke: #444444; stroke-opacity: 0.10; fill: #444444; fill-opacity: 0.10;' />
<circle cx='448.92' cy='132.18' r='3.20' style='stroke-width: 0.00; stroke: #444444; stroke-opacity: 0.10; fill: #444444; fill-opacity: 0.10;' />
<circle cx='490.68' cy='137.03' r='3.20' style='stroke-width: 0.00; stroke: #444444; stroke-opacity: 0.10; fill: #444444; fill-opacity: 0.10;' />
<circle cx='570.53' cy='134.30' r='3.20' style='stroke-width: 0.00; stroke: #444444; stroke-opacity: 0.10; fill: #444444; fill-opacity: 0.10;' />
<circle cx='497.39' cy='114.11' r='3.20' style='stroke-width: 0.00; stroke: #444444; stroke-opacity: 0.10; fill: #444444; fill-opacity: 0.10;' />
<circle cx='533.94' cy='126.19' r='3.20' style='stroke-width: 0.00; stroke: #444444; stroke-opacity: 0.10; fill: #444444; fill-opacity: 0.10;' />
<circle cx='348.56' cy='121.19' r='3.20' style='stroke-width: 0.00; stroke: #444444; stroke-opacity: 0.10; fill: #444444; fill-opacity: 0.10;' />
<circle cx='457.84' cy='142.00' r='3.20' style='stroke-width: 0.00; stroke: #444444; stroke-opacity: 0.10; fill: #444444; fill-opacity: 0.10;' />
<circle cx='285.97' cy='97.90' r='3.20' style='stroke-width: 0.00; stroke: #444444; stroke-opacity: 0.10; fill: #444444; fill-opacity: 0.10;' />
<circle cx='549.66' cy='139.46' r='3.20' style='stroke-width: 0.00; stroke: #444444; stroke-opacity: 0.10; fill: #444444; fill-opacity: 0.10;' />
<circle cx='395.34' cy='139.21' r='3.20' style='stroke-width: 0.00; stroke: #444444; stroke-opacity: 0.10; fill: #444444; fill-opacity: 0.10;' />
<circle cx='433.44' cy='124.02' r='3.20' style='stroke-width: 0.00; stroke: #444444; stroke-opacity: 0.10; fill: #444444; fill-opacity: 0.10;' />
<circle cx='501.36' cy='134.89' r='3.20' style='stroke-width: 0.00; stroke: #444444; stroke-opacity: 0.10; fill: #444444; fill-opacity: 0.10;' />
<circle cx='326.80' cy='121.51' r='3.20' style='stroke-width: 0.00; stroke: #444444; stroke-opacity: 0.10; fill: #444444; fill-opacity: 0.10;' />
<circle cx='359.72' cy='129.81' r='3.20' style='stroke-width: 0.00; stroke: #444444; stroke-opacity: 0.10; fill: #444444; fill-opacity: 0.10;' />
<circle cx='246.31' cy='136.86' r='3.20' style='stroke-width: 0.00; stroke: #444444; stroke-opacity: 0.10; fill: #444444; fill-opacity: 0.10;' />
<circle cx='233.94' cy='133.48' r='3.20' style='stroke-width: 0.00; stroke: #444444; stroke-opacity: 0.10; fill: #444444; fill-opacity: 0.10;' />
<circle cx='294.66' cy='116.00' r='3.20' style='stroke-width: 0.00; stroke: #444444; stroke-opacity: 0.10; fill: #444444; fill-opacity: 0.10;' />
<circle cx='422.23' cy='116.00' r='3.20' style='stroke-width: 0.00; stroke: #444444; stroke-opacity: 0.10; fill: #444444; fill-opacity: 0.10;' />
<circle cx='428.67' cy='102.20' r='3.20' style='stroke-width: 0.00; stroke: #444444; stroke-opacity: 0.10; fill: #444444; fill-opacity: 0.10;' />
<circle cx='536.95' cy='105.35' r='3.20' style='stroke-width: 0.00; stroke: #444444; stroke-opacity: 0.10; fill: #444444; fill-opacity: 0.10;' />
<circle cx='532.34' cy='99.39' r='3.20' style='stroke-width: 0.00; stroke: #444444; stroke-opacity: 0.10; fill: #444444; fill-opacity: 0.10;' />
<circle cx='458.26' cy='120.36' r='3.20' style='stroke-width: 0.00; stroke: #444444; stroke-opacity: 0.10; fill: #444444; fill-opacity: 0.10;' />
<circle cx='437.33' cy='114.21' r='3.20' style='stroke-width: 0.00; stroke: #444444; stroke-opacity: 0.10; fill: #444444; fill-opacity: 0.10;' />
<circle cx='340.55' cy='128.36' r='3.20' style='stroke-width: 0.00; stroke: #444444; stroke-opacity: 0.10; fill: #444444; fill-opacity: 0.10;' />
<polygon points='429.36,122.24 440.69,131.40 452.01,122.24 440.69,113.09 429.36,122.24 ' style='stroke-width: 1.07; fill: #000000;' />
<rect x='10.41' y='95.48' width='560.11' height='53.23' style='stroke-width: 1.07; stroke: #333333;' />
</g>
<g clip-path='url(#cpMC4wMHw1NzYuMDB8MC4wMHwxODAuMDA=)'>
<polyline points='7.67,122.24 10.41,122.24 ' style='stroke-width: 1.07; stroke: #333333; stroke-linecap: butt;' />
<polyline points='35.87,151.45 35.87,148.71 ' style='stroke-width: 1.07; stroke: #333333; stroke-linecap: butt;' />
<polyline points='163.17,151.45 163.17,148.71 ' style='stroke-width: 1.07; stroke: #333333; stroke-linecap: butt;' />
<polyline points='290.47,151.45 290.47,148.71 ' style='stroke-width: 1.07; stroke: #333333; stroke-linecap: butt;' />
<polyline points='417.76,151.45 417.76,148.71 ' style='stroke-width: 1.07; stroke: #333333; stroke-linecap: butt;' />
<polyline points='545.06,151.45 545.06,148.71 ' style='stroke-width: 1.07; stroke: #333333; stroke-linecap: butt;' />
<text x='35.87' y='159.94' text-anchor='middle' style='font-size: 8.80px; fill: #4D4D4D; font-family: Arial;' textLength='4.90px' lengthAdjust='spacingAndGlyphs'>1</text>
<text x='163.17' y='159.94' text-anchor='middle' style='font-size: 8.80px; fill: #4D4D4D; font-family: Arial;' textLength='4.90px' lengthAdjust='spacingAndGlyphs'>2</text>
<text x='290.47' y='159.94' text-anchor='middle' style='font-size: 8.80px; fill: #4D4D4D; font-family: Arial;' textLength='4.90px' lengthAdjust='spacingAndGlyphs'>3</text>
<text x='417.76' y='159.94' text-anchor='middle' style='font-size: 8.80px; fill: #4D4D4D; font-family: Arial;' textLength='4.90px' lengthAdjust='spacingAndGlyphs'>4</text>
<text x='545.06' y='159.94' text-anchor='middle' style='font-size: 8.80px; fill: #4D4D4D; font-family: Arial;' textLength='4.90px' lengthAdjust='spacingAndGlyphs'>5</text>
<text x='290.47' y='172.36' text-anchor='middle' style='font-size: 11.00px; font-family: Arial;' textLength='91.75px' lengthAdjust='spacingAndGlyphs'>Scores and means</text>
</g>
</svg>
