<?xml version='1.0' encoding='UTF-8' ?>
<svg xmlns='http://www.w3.org/2000/svg' xmlns:xlink='http://www.w3.org/1999/xlink' class='svglite' width='566.93pt' height='340.16pt' viewBox='0 0 566.93 340.16'>
<defs>
  <style type='text/css'><![CDATA[
    .svglite line, .svglite polyline, .svglite polygon, .svglite path, .svglite rect, .svglite circle {
      fill: none;
      stroke: #000000;
      stroke-linecap: round;
      stroke-linejoin: round;
      stroke-miterlimit: 10.00;
    }
  ]]></style>
</defs>
<rect width='100%' height='100%' style='stroke: none; fill: none;'/>
<defs>
  <clipPath id='cpMC4wMHw1NjYuOTN8MC4wMHwzNDAuMTY='>
    <rect x='0.00' y='0.00' width='566.93' height='340.16' />
  </clipPath>
</defs>
<g clip-path='url(#cpMC4wMHw1NjYuOTN8MC4wMHwzNDAuMTY=)'>
</g>
<defs>
  <clipPath id='cpMTQwLjUzfDU2MS40NXw1LjQ4fDI1OS42NA=='>
    <rect x='140.53' y='5.48' width='420.92' height='254.16' />
  </clipPath>
</defs>
<g clip-path='url(#cpMTQwLjUzfDU2MS40NXw1LjQ4fDI1OS42NA==)'>
<polyline points='207.49,259.64 207.49,5.48 ' style='stroke-width: 0.53; stroke: #EBEBEB; stroke-linecap: butt;' />
<polyline points='303.16,259.64 303.16,5.48 ' style='stroke-width: 0.53; stroke: #EBEBEB; stroke-linecap: butt;' />
<polyline points='398.82,259.64 398.82,5.48 ' style='stroke-width: 0.53; stroke: #EBEBEB; stroke-linecap: butt;' />
<polyline points='494.49,259.64 494.49,5.48 ' style='stroke-width: 0.53; stroke: #EBEBEB; stroke-linecap: butt;' />
<polyline points='140.53,243.06 561.45,243.06 ' style='stroke-width: 1.07; stroke: #EBEBEB; stroke-linecap: butt;' />
<polyline points='140.53,215.44 561.45,215.44 ' style='stroke-width: 1.07; stroke: #EBEBEB; stroke-linecap: butt;' />
<polyline points='140.53,187.81 561.45,187.81 ' style='stroke-width: 1.07; stroke: #EBEBEB; stroke-linecap: butt;' />
<polyline points='140.53,160.19 561.45,160.19 ' style='stroke-width: 1.07; stroke: #EBEBEB; stroke-linecap: butt;' />
<polyline points='140.53,132.56 561.45,132.56 ' style='stroke-width: 1.07; stroke: #EBEBEB; stroke-linecap: butt;' />
<polyline points='140.53,104.93 561.45,104.93 ' style='stroke-width: 1.07; stroke: #EBEBEB; stroke-linecap: butt;' />
<polyline points='140.53,77.31 561.45,77.31 ' style='stroke-width: 1.07; stroke: #EBEBEB; stroke-linecap: butt;' />
<polyline points='140.53,49.68 561.45,49.68 ' style='stroke-width: 1.07; stroke: #EBEBEB; stroke-linecap: butt;' />
<polyline points='140.53,22.06 561.45,22.06 ' style='stroke-width: 1.07; stroke: #EBEBEB; stroke-linecap: butt;' />
<polyline points='159.66,259.64 159.66,5.48 ' style='stroke-width: 1.07; stroke: #EBEBEB; stroke-linecap: butt;' />
<polyline points='255.33,259.64 255.33,5.48 ' style='stroke-width: 1.07; stroke: #EBEBEB; stroke-linecap: butt;' />
<polyline points='350.99,259.64 350.99,5.48 ' style='stroke-width: 1.07; stroke: #EBEBEB; stroke-linecap: butt;' />
<polyline points='446.65,259.64 446.65,5.48 ' style='stroke-width: 1.07; stroke: #EBEBEB; stroke-linecap: butt;' />
<polyline points='542.32,259.64 542.32,5.48 ' style='stroke-width: 1.07; stroke: #EBEBEB; stroke-linecap: butt;' />
<rect x='159.66' y='230.63' width='15.05' height='24.86' style='stroke-width: 1.07; stroke: none; stroke-linecap: square; stroke-linejoin: miter; fill: #440154;' />
<rect x='174.71' y='230.63' width='27.52' height='24.86' style='stroke-width: 1.07; stroke: none; stroke-linecap: square; stroke-linejoin: miter; fill: #460B5E;' />
<rect x='202.23' y='230.63' width='33.11' height='24.86' style='stroke-width: 1.07; stroke: none; stroke-linecap: square; stroke-linejoin: miter; fill: #481668;' />
<rect x='235.33' y='230.63' width='30.10' height='24.86' style='stroke-width: 1.07; stroke: none; stroke-linecap: square; stroke-linejoin: miter; fill: #481E70;' />
<rect x='265.43' y='230.63' width='22.79' height='24.86' style='stroke-width: 1.07; stroke: none; stroke-linecap: square; stroke-linejoin: miter; fill: #482778;' />
<rect x='288.22' y='230.63' width='11.61' height='24.86' style='stroke-width: 1.07; stroke: none; stroke-linecap: square; stroke-linejoin: miter; fill: #472F7E;' />
<rect x='299.83' y='230.63' width='84.70' height='24.86' style='stroke-width: 1.07; stroke: none; stroke-linecap: square; stroke-linejoin: miter; fill: #453882;' />
<rect x='384.53' y='230.63' width='3.01' height='24.86' style='stroke-width: 1.07; stroke: none; stroke-linecap: square; stroke-linejoin: miter; fill: #424086;' />
<rect x='387.54' y='230.63' width='4.73' height='24.86' style='stroke-width: 1.07; stroke: none; stroke-linecap: square; stroke-linejoin: miter; fill: #3F4889;' />
<rect x='392.26' y='230.63' width='0.86' height='24.86' style='stroke-width: 1.07; stroke: none; stroke-linecap: square; stroke-linejoin: miter; fill: #3C508B;' />
<rect x='393.12' y='230.63' width='4.73' height='24.86' style='stroke-width: 1.07; stroke: none; stroke-linecap: square; stroke-linejoin: miter; fill: #38588C;' />
<rect x='397.85' y='230.63' width='74.38' height='24.86' style='stroke-width: 1.07; stroke: none; stroke-linecap: square; stroke-linejoin: miter; fill: #31668E;' />
<rect x='472.24' y='230.63' width='0.43' height='24.86' style='stroke-width: 1.07; stroke: none; stroke-linecap: square; stroke-linejoin: miter; fill: #2E6D8E;' />
<rect x='472.67' y='230.63' width='1.72' height='24.86' style='stroke-width: 1.07; stroke: none; stroke-linecap: square; stroke-linejoin: miter; fill: #29798E;' />
<rect x='474.38' y='230.63' width='17.20' height='24.86' style='stroke-width: 1.07; stroke: none; stroke-linecap: square; stroke-linejoin: miter; fill: #24868E;' />
<rect x='491.58' y='230.63' width='1.72' height='24.86' style='stroke-width: 1.07; stroke: none; stroke-linecap: square; stroke-linejoin: miter; fill: #228D8D;' />
<rect x='493.30' y='230.63' width='6.02' height='24.86' style='stroke-width: 1.07; stroke: none; stroke-linecap: square; stroke-linejoin: miter; fill: #1FA188;' />
<rect x='499.32' y='230.63' width='29.67' height='24.86' style='stroke-width: 1.07; stroke: none; stroke-linecap: square; stroke-linejoin: miter; fill: #27AD81;' />
<rect x='528.99' y='230.63' width='3.87' height='24.86' style='stroke-width: 1.07; stroke: none; stroke-linecap: square; stroke-linejoin: miter; fill: #2EB37C;' />
<rect x='532.86' y='230.63' width='1.72' height='24.86' style='stroke-width: 1.07; stroke: none; stroke-linecap: square; stroke-linejoin: miter; fill: #44BF70;' />
<rect x='534.58' y='230.63' width='0.43' height='24.86' style='stroke-width: 1.07; stroke: none; stroke-linecap: square; stroke-linejoin: miter; fill: #60CA60;' />
<rect x='535.01' y='230.63' width='5.59' height='24.86' style='stroke-width: 1.07; stroke: none; stroke-linecap: square; stroke-linejoin: miter; fill: #92D742;' />
<rect x='540.60' y='230.63' width='0.86' height='24.86' style='stroke-width: 1.07; stroke: none; stroke-linecap: square; stroke-linejoin: miter; fill: #B6DE2A;' />
<rect x='541.46' y='230.63' width='0.86' height='24.86' style='stroke-width: 1.07; stroke: none; stroke-linecap: square; stroke-linejoin: miter; fill: #FDE725;' />
<rect x='159.66' y='203.01' width='36.67' height='24.86' style='stroke-width: 1.07; stroke: none; stroke-linecap: square; stroke-linejoin: miter; fill: #440154;' />
<rect x='196.33' y='203.01' width='28.90' height='24.86' style='stroke-width: 1.07; stroke: none; stroke-linecap: square; stroke-linejoin: miter; fill: #460B5E;' />
<rect x='225.24' y='203.01' width='22.43' height='24.86' style='stroke-width: 1.07; stroke: none; stroke-linecap: square; stroke-linejoin: miter; fill: #481668;' />
<rect x='247.67' y='203.01' width='14.24' height='24.86' style='stroke-width: 1.07; stroke: none; stroke-linecap: square; stroke-linejoin: miter; fill: #481E70;' />
<rect x='261.90' y='203.01' width='9.06' height='24.86' style='stroke-width: 1.07; stroke: none; stroke-linecap: square; stroke-linejoin: miter; fill: #482778;' />
<rect x='270.96' y='203.01' width='11.22' height='24.86' style='stroke-width: 1.07; stroke: none; stroke-linecap: square; stroke-linejoin: miter; fill: #472F7E;' />
<rect x='282.18' y='203.01' width='62.12' height='24.86' style='stroke-width: 1.07; stroke: none; stroke-linecap: square; stroke-linejoin: miter; fill: #453882;' />
<rect x='344.30' y='203.01' width='0.43' height='24.86' style='stroke-width: 1.07; stroke: none; stroke-linecap: square; stroke-linejoin: miter; fill: #424086;' />
<rect x='344.73' y='203.01' width='2.59' height='24.86' style='stroke-width: 1.07; stroke: none; stroke-linecap: square; stroke-linejoin: miter; fill: #3F4889;' />
<rect x='347.32' y='203.01' width='0.86' height='24.86' style='stroke-width: 1.07; stroke: none; stroke-linecap: square; stroke-linejoin: miter; fill: #3C508B;' />
<rect x='348.19' y='203.01' width='9.06' height='24.86' style='stroke-width: 1.07; stroke: none; stroke-linecap: square; stroke-linejoin: miter; fill: #38588C;' />
<rect x='357.24' y='203.01' width='0.43' height='24.86' style='stroke-width: 1.07; stroke: none; stroke-linecap: square; stroke-linejoin: miter; fill: #355F8D;' />
<rect x='357.68' y='203.01' width='51.34' height='24.86' style='stroke-width: 1.07; stroke: none; stroke-linecap: square; stroke-linejoin: miter; fill: #31668E;' />
<rect x='409.01' y='203.01' width='1.73' height='24.86' style='stroke-width: 1.07; stroke: none; stroke-linecap: square; stroke-linejoin: miter; fill: #29798E;' />
<rect x='410.74' y='203.01' width='0.43' height='24.86' style='stroke-width: 1.07; stroke: none; stroke-linecap: square; stroke-linejoin: miter; fill: #27808E;' />
<rect x='411.17' y='203.01' width='18.98' height='24.86' style='stroke-width: 1.07; stroke: none; stroke-linecap: square; stroke-linejoin: miter; fill: #24868E;' />
<rect x='430.15' y='203.01' width='1.29' height='24.86' style='stroke-width: 1.07; stroke: none; stroke-linecap: square; stroke-linejoin: miter; fill: #228D8D;' />
<rect x='431.45' y='203.01' width='0.43' height='24.86' style='stroke-width: 1.07; stroke: none; stroke-linecap: square; stroke-linejoin: miter; fill: #20938C;' />
<rect x='431.88' y='203.01' width='14.24' height='24.86' style='stroke-width: 1.07; stroke: none; stroke-linecap: square; stroke-linejoin: miter; fill: #1FA188;' />
<rect x='446.11' y='203.01' width='0.43' height='24.86' style='stroke-width: 1.07; stroke: none; stroke-linecap: square; stroke-linejoin: miter; fill: #22A785;' />
<rect x='446.55' y='203.01' width='50.91' height='24.86' style='stroke-width: 1.07; stroke: none; stroke-linecap: square; stroke-linejoin: miter; fill: #27AD81;' />
<rect x='497.45' y='203.01' width='6.04' height='24.86' style='stroke-width: 1.07; stroke: none; stroke-linecap: square; stroke-linejoin: miter; fill: #2EB37C;' />
<rect x='503.49' y='203.01' width='0.43' height='24.86' style='stroke-width: 1.07; stroke: none; stroke-linecap: square; stroke-linejoin: miter; fill: #39B977;' />
<rect x='503.92' y='203.01' width='3.45' height='24.86' style='stroke-width: 1.07; stroke: none; stroke-linecap: square; stroke-linejoin: miter; fill: #44BF70;' />
<rect x='507.37' y='203.01' width='0.43' height='24.86' style='stroke-width: 1.07; stroke: none; stroke-linecap: square; stroke-linejoin: miter; fill: #52C569;' />
<rect x='507.80' y='203.01' width='0.86' height='24.86' style='stroke-width: 1.07; stroke: none; stroke-linecap: square; stroke-linejoin: miter; fill: #60CA60;' />
<rect x='508.67' y='203.01' width='0.43' height='24.86' style='stroke-width: 1.07; stroke: none; stroke-linecap: square; stroke-linejoin: miter; fill: #70CF57;' />
<rect x='509.10' y='203.01' width='0.86' height='24.86' style='stroke-width: 1.07; stroke: none; stroke-linecap: square; stroke-linejoin: miter; fill: #80D34D;' />
<rect x='509.96' y='203.01' width='21.14' height='24.86' style='stroke-width: 1.07; stroke: none; stroke-linecap: square; stroke-linejoin: miter; fill: #92D742;' />
<rect x='531.10' y='203.01' width='0.86' height='24.86' style='stroke-width: 1.07; stroke: none; stroke-linecap: square; stroke-linejoin: miter; fill: #A3DB36;' />
<rect x='531.96' y='203.01' width='6.90' height='24.86' style='stroke-width: 1.07; stroke: none; stroke-linecap: square; stroke-linejoin: miter; fill: #B6DE2A;' />
<rect x='538.87' y='203.01' width='0.43' height='24.86' style='stroke-width: 1.07; stroke: none; stroke-linecap: square; stroke-linejoin: miter; fill: #C9E020;' />
<rect x='539.30' y='203.01' width='2.59' height='24.86' style='stroke-width: 1.07; stroke: none; stroke-linecap: square; stroke-linejoin: miter; fill: #DBE319;' />
<rect x='541.89' y='203.01' width='0.43' height='24.86' style='stroke-width: 1.07; stroke: none; stroke-linecap: square; stroke-linejoin: miter; fill: #FDE725;' />
<rect x='159.66' y='175.38' width='93.61' height='24.86' style='stroke-width: 1.07; stroke: none; stroke-linecap: square; stroke-linejoin: miter; fill: #440154;' />
<rect x='253.27' y='175.38' width='46.80' height='24.86' style='stroke-width: 1.07; stroke: none; stroke-linecap: square; stroke-linejoin: miter; fill: #460B5E;' />
<rect x='300.07' y='175.38' width='36.84' height='24.86' style='stroke-width: 1.07; stroke: none; stroke-linecap: square; stroke-linejoin: miter; fill: #481668;' />
<rect x='336.91' y='175.38' width='22.10' height='24.86' style='stroke-width: 1.07; stroke: none; stroke-linecap: square; stroke-linejoin: miter; fill: #481E70;' />
<rect x='359.01' y='175.38' width='10.40' height='24.86' style='stroke-width: 1.07; stroke: none; stroke-linecap: square; stroke-linejoin: miter; fill: #482778;' />
<rect x='369.41' y='175.38' width='9.53' height='24.86' style='stroke-width: 1.07; stroke: none; stroke-linecap: square; stroke-linejoin: miter; fill: #472F7E;' />
<rect x='378.94' y='175.38' width='72.37' height='24.86' style='stroke-width: 1.07; stroke: none; stroke-linecap: square; stroke-linejoin: miter; fill: #453882;' />
<rect x='451.31' y='175.38' width='0.43' height='24.86' style='stroke-width: 1.07; stroke: none; stroke-linecap: square; stroke-linejoin: miter; fill: #424086;' />
<rect x='451.75' y='175.38' width='2.17' height='24.86' style='stroke-width: 1.07; stroke: none; stroke-linecap: square; stroke-linejoin: miter; fill: #3F4889;' />
<rect x='453.91' y='175.38' width='0.87' height='24.86' style='stroke-width: 1.07; stroke: none; stroke-linecap: square; stroke-linejoin: miter; fill: #3C508B;' />
<rect x='454.78' y='175.38' width='3.47' height='24.86' style='stroke-width: 1.07; stroke: none; stroke-linecap: square; stroke-linejoin: miter; fill: #38588C;' />
<rect x='458.25' y='175.38' width='37.70' height='24.86' style='stroke-width: 1.07; stroke: none; stroke-linecap: square; stroke-linejoin: miter; fill: #31668E;' />
<rect x='495.95' y='175.38' width='0.43' height='24.86' style='stroke-width: 1.07; stroke: none; stroke-linecap: square; stroke-linejoin: miter; fill: #2C738E;' />
<rect x='496.38' y='175.38' width='1.73' height='24.86' style='stroke-width: 1.07; stroke: none; stroke-linecap: square; stroke-linejoin: miter; fill: #29798E;' />
<rect x='498.11' y='175.38' width='9.10' height='24.86' style='stroke-width: 1.07; stroke: none; stroke-linecap: square; stroke-linejoin: miter; fill: #24868E;' />
<rect x='507.21' y='175.38' width='0.43' height='24.86' style='stroke-width: 1.07; stroke: none; stroke-linecap: square; stroke-linejoin: miter; fill: #228D8D;' />
<rect x='507.65' y='175.38' width='0.43' height='24.86' style='stroke-width: 1.07; stroke: none; stroke-linecap: square; stroke-linejoin: miter; fill: #1F9A8A;' />
<rect x='508.08' y='175.38' width='5.63' height='24.86' style='stroke-width: 1.07; stroke: none; stroke-linecap: square; stroke-linejoin: miter; fill: #1FA188;' />
<rect x='513.72' y='175.38' width='19.07' height='24.86' style='stroke-width: 1.07; stroke: none; stroke-linecap: square; stroke-linejoin: miter; fill: #27AD81;' />
<rect x='532.78' y='175.38' width='1.73' height='24.86' style='stroke-width: 1.07; stroke: none; stroke-linecap: square; stroke-linejoin: miter; fill: #2EB37C;' />
<rect x='534.52' y='175.38' width='1.73' height='24.86' style='stroke-width: 1.07; stroke: none; stroke-linecap: square; stroke-linejoin: miter; fill: #44BF70;' />
<rect x='536.25' y='175.38' width='4.77' height='24.86' style='stroke-width: 1.07; stroke: none; stroke-linecap: square; stroke-linejoin: miter; fill: #92D742;' />
<rect x='541.02' y='175.38' width='1.30' height='24.86' style='stroke-width: 1.07; stroke: none; stroke-linecap: square; stroke-linejoin: miter; fill: #B6DE2A;' />
<rect x='159.66' y='147.75' width='141.98' height='24.86' style='stroke-width: 1.07; stroke: none; stroke-linecap: square; stroke-linejoin: miter; fill: #440154;' />
<rect x='301.64' y='147.75' width='95.66' height='24.86' style='stroke-width: 1.07; stroke: none; stroke-linecap: square; stroke-linejoin: miter; fill: #460B5E;' />
<rect x='397.31' y='147.75' width='48.05' height='24.86' style='stroke-width: 1.07; stroke: none; stroke-linecap: square; stroke-linejoin: miter; fill: #481668;' />
<rect x='445.35' y='147.75' width='21.64' height='24.86' style='stroke-width: 1.07; stroke: none; stroke-linecap: square; stroke-linejoin: miter; fill: #481E70;' />
<rect x='467.00' y='147.75' width='8.22' height='24.86' style='stroke-width: 1.07; stroke: none; stroke-linecap: square; stroke-linejoin: miter; fill: #482778;' />
<rect x='475.22' y='147.75' width='5.63' height='24.86' style='stroke-width: 1.07; stroke: none; stroke-linecap: square; stroke-linejoin: miter; fill: #472F7E;' />
<rect x='480.85' y='147.75' width='34.20' height='24.86' style='stroke-width: 1.07; stroke: none; stroke-linecap: square; stroke-linejoin: miter; fill: #453882;' />
<rect x='515.05' y='147.75' width='0.43' height='24.86' style='stroke-width: 1.07; stroke: none; stroke-linecap: square; stroke-linejoin: miter; fill: #424086;' />
<rect x='515.48' y='147.75' width='2.60' height='24.86' style='stroke-width: 1.07; stroke: none; stroke-linecap: square; stroke-linejoin: miter; fill: #3F4889;' />
<rect x='518.08' y='147.75' width='0.87' height='24.86' style='stroke-width: 1.07; stroke: none; stroke-linecap: square; stroke-linejoin: miter; fill: #38588C;' />
<rect x='518.94' y='147.75' width='12.99' height='24.86' style='stroke-width: 1.07; stroke: none; stroke-linecap: square; stroke-linejoin: miter; fill: #31668E;' />
<rect x='531.93' y='147.75' width='0.87' height='24.86' style='stroke-width: 1.07; stroke: none; stroke-linecap: square; stroke-linejoin: miter; fill: #29798E;' />
<rect x='532.79' y='147.75' width='3.46' height='24.86' style='stroke-width: 1.07; stroke: none; stroke-linecap: square; stroke-linejoin: miter; fill: #24868E;' />
<rect x='536.26' y='147.75' width='0.43' height='24.86' style='stroke-width: 1.07; stroke: none; stroke-linecap: square; stroke-linejoin: miter; fill: #228D8D;' />
<rect x='536.69' y='147.75' width='0.43' height='24.86' style='stroke-width: 1.07; stroke: none; stroke-linecap: square; stroke-linejoin: miter; fill: #1FA188;' />
<rect x='537.12' y='147.75' width='0.87' height='24.86' style='stroke-width: 1.07; stroke: none; stroke-linecap: square; stroke-linejoin: miter; fill: #22A785;' />
<rect x='537.99' y='147.75' width='2.16' height='24.86' style='stroke-width: 1.07; stroke: none; stroke-linecap: square; stroke-linejoin: miter; fill: #27AD81;' />
<rect x='540.15' y='147.75' width='0.43' height='24.86' style='stroke-width: 1.07; stroke: none; stroke-linecap: square; stroke-linejoin: miter; fill: #2EB37C;' />
<rect x='540.59' y='147.75' width='0.43' height='24.86' style='stroke-width: 1.07; stroke: none; stroke-linecap: square; stroke-linejoin: miter; fill: #44BF70;' />
<rect x='541.02' y='147.75' width='0.87' height='24.86' style='stroke-width: 1.07; stroke: none; stroke-linecap: square; stroke-linejoin: miter; fill: #92D742;' />
<rect x='541.88' y='147.75' width='0.43' height='24.86' style='stroke-width: 1.07; stroke: none; stroke-linecap: square; stroke-linejoin: miter; fill: #A3DB36;' />
<rect x='159.66' y='120.13' width='202.35' height='24.86' style='stroke-width: 1.07; stroke: none; stroke-linecap: square; stroke-linejoin: miter; fill: #440154;' />
<rect x='362.02' y='120.13' width='75.67' height='24.86' style='stroke-width: 1.07; stroke: none; stroke-linecap: square; stroke-linejoin: miter; fill: #460B5E;' />
<rect x='437.68' y='120.13' width='40.21' height='24.86' style='stroke-width: 1.07; stroke: none; stroke-linecap: square; stroke-linejoin: miter; fill: #481668;' />
<rect x='477.89' y='120.13' width='16.00' height='24.86' style='stroke-width: 1.07; stroke: none; stroke-linecap: square; stroke-linejoin: miter; fill: #481E70;' />
<rect x='493.89' y='120.13' width='6.49' height='24.86' style='stroke-width: 1.07; stroke: none; stroke-linecap: square; stroke-linejoin: miter; fill: #482778;' />
<rect x='500.38' y='120.13' width='4.76' height='24.86' style='stroke-width: 1.07; stroke: none; stroke-linecap: square; stroke-linejoin: miter; fill: #472F7E;' />
<rect x='505.13' y='120.13' width='18.59' height='24.86' style='stroke-width: 1.07; stroke: none; stroke-linecap: square; stroke-linejoin: miter; fill: #453882;' />
<rect x='523.72' y='120.13' width='0.86' height='24.86' style='stroke-width: 1.07; stroke: none; stroke-linecap: square; stroke-linejoin: miter; fill: #3F4889;' />
<rect x='524.59' y='120.13' width='1.73' height='24.86' style='stroke-width: 1.07; stroke: none; stroke-linecap: square; stroke-linejoin: miter; fill: #38588C;' />
<rect x='526.32' y='120.13' width='7.78' height='24.86' style='stroke-width: 1.07; stroke: none; stroke-linecap: square; stroke-linejoin: miter; fill: #31668E;' />
<rect x='534.10' y='120.13' width='2.59' height='24.86' style='stroke-width: 1.07; stroke: none; stroke-linecap: square; stroke-linejoin: miter; fill: #24868E;' />
<rect x='536.70' y='120.13' width='0.86' height='24.86' style='stroke-width: 1.07; stroke: none; stroke-linecap: square; stroke-linejoin: miter; fill: #22A785;' />
<rect x='537.56' y='120.13' width='2.16' height='24.86' style='stroke-width: 1.07; stroke: none; stroke-linecap: square; stroke-linejoin: miter; fill: #27AD81;' />
<rect x='539.72' y='120.13' width='0.43' height='24.86' style='stroke-width: 1.07; stroke: none; stroke-linecap: square; stroke-linejoin: miter; fill: #2EB37C;' />
<rect x='540.16' y='120.13' width='0.43' height='24.86' style='stroke-width: 1.07; stroke: none; stroke-linecap: square; stroke-linejoin: miter; fill: #44BF70;' />
<rect x='540.59' y='120.13' width='1.30' height='24.86' style='stroke-width: 1.07; stroke: none; stroke-linecap: square; stroke-linejoin: miter; fill: #92D742;' />
<rect x='541.88' y='120.13' width='0.43' height='24.86' style='stroke-width: 1.07; stroke: none; stroke-linecap: square; stroke-linejoin: miter; fill: #ECE51B;' />
<rect x='159.66' y='92.50' width='153.93' height='24.86' style='stroke-width: 1.07; stroke: none; stroke-linecap: square; stroke-linejoin: miter; fill: #440154;' />
<rect x='313.59' y='92.50' width='88.71' height='24.86' style='stroke-width: 1.07; stroke: none; stroke-linecap: square; stroke-linejoin: miter; fill: #460B5E;' />
<rect x='402.30' y='92.50' width='47.83' height='24.86' style='stroke-width: 1.07; stroke: none; stroke-linecap: square; stroke-linejoin: miter; fill: #481668;' />
<rect x='450.13' y='92.50' width='18.26' height='24.86' style='stroke-width: 1.07; stroke: none; stroke-linecap: square; stroke-linejoin: miter; fill: #481E70;' />
<rect x='468.39' y='92.50' width='10.87' height='24.86' style='stroke-width: 1.07; stroke: none; stroke-linecap: square; stroke-linejoin: miter; fill: #482778;' />
<rect x='479.27' y='92.50' width='4.78' height='24.86' style='stroke-width: 1.07; stroke: none; stroke-linecap: square; stroke-linejoin: miter; fill: #472F7E;' />
<rect x='484.05' y='92.50' width='35.22' height='24.86' style='stroke-width: 1.07; stroke: none; stroke-linecap: square; stroke-linejoin: miter; fill: #453882;' />
<rect x='519.27' y='92.50' width='1.30' height='24.86' style='stroke-width: 1.07; stroke: none; stroke-linecap: square; stroke-linejoin: miter; fill: #424086;' />
<rect x='520.58' y='92.50' width='1.30' height='24.86' style='stroke-width: 1.07; stroke: none; stroke-linecap: square; stroke-linejoin: miter; fill: #3F4889;' />
<rect x='521.88' y='92.50' width='2.61' height='24.86' style='stroke-width: 1.07; stroke: none; stroke-linecap: square; stroke-linejoin: miter; fill: #38588C;' />
<rect x='524.49' y='92.50' width='12.61' height='24.86' style='stroke-width: 1.07; stroke: none; stroke-linecap: square; stroke-linejoin: miter; fill: #31668E;' />
<rect x='537.10' y='92.50' width='2.17' height='24.86' style='stroke-width: 1.07; stroke: none; stroke-linecap: square; stroke-linejoin: miter; fill: #24868E;' />
<rect x='539.27' y='92.50' width='0.43' height='24.86' style='stroke-width: 1.07; stroke: none; stroke-linecap: square; stroke-linejoin: miter; fill: #228D8D;' />
<rect x='539.71' y='92.50' width='0.87' height='24.86' style='stroke-width: 1.07; stroke: none; stroke-linecap: square; stroke-linejoin: miter; fill: #27AD81;' />
<rect x='540.58' y='92.50' width='0.43' height='24.86' style='stroke-width: 1.07; stroke: none; stroke-linecap: square; stroke-linejoin: miter; fill: #2EB37C;' />
<rect x='541.01' y='92.50' width='0.43' height='24.86' style='stroke-width: 1.07; stroke: none; stroke-linecap: square; stroke-linejoin: miter; fill: #44BF70;' />
<rect x='541.45' y='92.50' width='0.87' height='24.86' style='stroke-width: 1.07; stroke: none; stroke-linecap: square; stroke-linejoin: miter; fill: #92D742;' />
<rect x='159.66' y='64.88' width='197.40' height='24.86' style='stroke-width: 1.07; stroke: none; stroke-linecap: square; stroke-linejoin: miter; fill: #440154;' />
<rect x='357.06' y='64.88' width='82.87' height='24.86' style='stroke-width: 1.07; stroke: none; stroke-linecap: square; stroke-linejoin: miter; fill: #460B5E;' />
<rect x='439.93' y='64.88' width='41.65' height='24.86' style='stroke-width: 1.07; stroke: none; stroke-linecap: square; stroke-linejoin: miter; fill: #481668;' />
<rect x='481.58' y='64.88' width='16.49' height='24.86' style='stroke-width: 1.07; stroke: none; stroke-linecap: square; stroke-linejoin: miter; fill: #481E70;' />
<rect x='498.06' y='64.88' width='5.21' height='24.86' style='stroke-width: 1.07; stroke: none; stroke-linecap: square; stroke-linejoin: miter; fill: #482778;' />
<rect x='503.27' y='64.88' width='6.07' height='24.86' style='stroke-width: 1.07; stroke: none; stroke-linecap: square; stroke-linejoin: miter; fill: #472F7E;' />
<rect x='509.34' y='64.88' width='17.79' height='24.86' style='stroke-width: 1.07; stroke: none; stroke-linecap: square; stroke-linejoin: miter; fill: #453882;' />
<rect x='527.13' y='64.88' width='0.87' height='24.86' style='stroke-width: 1.07; stroke: none; stroke-linecap: square; stroke-linejoin: miter; fill: #424086;' />
<rect x='528.00' y='64.88' width='1.30' height='24.86' style='stroke-width: 1.07; stroke: none; stroke-linecap: square; stroke-linejoin: miter; fill: #3F4889;' />
<rect x='529.30' y='64.88' width='10.85' height='24.86' style='stroke-width: 1.07; stroke: none; stroke-linecap: square; stroke-linejoin: miter; fill: #31668E;' />
<rect x='540.15' y='64.88' width='0.87' height='24.86' style='stroke-width: 1.07; stroke: none; stroke-linecap: square; stroke-linejoin: miter; fill: #24868E;' />
<rect x='541.02' y='64.88' width='0.87' height='24.86' style='stroke-width: 1.07; stroke: none; stroke-linecap: square; stroke-linejoin: miter; fill: #27AD81;' />
<rect x='541.88' y='64.88' width='0.43' height='24.86' style='stroke-width: 1.07; stroke: none; stroke-linecap: square; stroke-linejoin: miter; fill: #2EB37C;' />
<rect x='159.66' y='37.25' width='140.45' height='24.86' style='stroke-width: 1.07; stroke: none; stroke-linecap: square; stroke-linejoin: miter; fill: #440154;' />
<rect x='300.11' y='37.25' width='100.88' height='24.86' style='stroke-width: 1.07; stroke: none; stroke-linecap: square; stroke-linejoin: miter; fill: #460B5E;' />
<rect x='401.00' y='37.25' width='59.57' height='24.86' style='stroke-width: 1.07; stroke: none; stroke-linecap: square; stroke-linejoin: miter; fill: #481668;' />
<rect x='460.57' y='37.25' width='23.92' height='24.86' style='stroke-width: 1.07; stroke: none; stroke-linecap: square; stroke-linejoin: miter; fill: #481E70;' />
<rect x='484.48' y='37.25' width='7.39' height='24.86' style='stroke-width: 1.07; stroke: none; stroke-linecap: square; stroke-linejoin: miter; fill: #482778;' />
<rect x='491.88' y='37.25' width='6.52' height='24.86' style='stroke-width: 1.07; stroke: none; stroke-linecap: square; stroke-linejoin: miter; fill: #472F7E;' />
<rect x='498.40' y='37.25' width='26.52' height='24.86' style='stroke-width: 1.07; stroke: none; stroke-linecap: square; stroke-linejoin: miter; fill: #453882;' />
<rect x='524.92' y='37.25' width='0.43' height='24.86' style='stroke-width: 1.07; stroke: none; stroke-linecap: square; stroke-linejoin: miter; fill: #424086;' />
<rect x='525.36' y='37.25' width='2.17' height='24.86' style='stroke-width: 1.07; stroke: none; stroke-linecap: square; stroke-linejoin: miter; fill: #3F4889;' />
<rect x='527.53' y='37.25' width='1.30' height='24.86' style='stroke-width: 1.07; stroke: none; stroke-linecap: square; stroke-linejoin: miter; fill: #38588C;' />
<rect x='528.84' y='37.25' width='7.39' height='24.86' style='stroke-width: 1.07; stroke: none; stroke-linecap: square; stroke-linejoin: miter; fill: #31668E;' />
<rect x='536.23' y='37.25' width='0.43' height='24.86' style='stroke-width: 1.07; stroke: none; stroke-linecap: square; stroke-linejoin: miter; fill: #29798E;' />
<rect x='536.66' y='37.25' width='2.61' height='24.86' style='stroke-width: 1.07; stroke: none; stroke-linecap: square; stroke-linejoin: miter; fill: #24868E;' />
<rect x='539.27' y='37.25' width='0.87' height='24.86' style='stroke-width: 1.07; stroke: none; stroke-linecap: square; stroke-linejoin: miter; fill: #1FA188;' />
<rect x='540.14' y='37.25' width='1.74' height='24.86' style='stroke-width: 1.07; stroke: none; stroke-linecap: square; stroke-linejoin: miter; fill: #27AD81;' />
<rect x='541.88' y='37.25' width='0.43' height='24.86' style='stroke-width: 1.07; stroke: none; stroke-linecap: square; stroke-linejoin: miter; fill: #2EB37C;' />
<rect x='159.66' y='9.62' width='95.77' height='24.86' style='stroke-width: 1.07; stroke: none; stroke-linecap: square; stroke-linejoin: miter; fill: #440154;' />
<rect x='255.43' y='9.62' width='102.74' height='24.86' style='stroke-width: 1.07; stroke: none; stroke-linecap: square; stroke-linejoin: miter; fill: #460B5E;' />
<rect x='358.17' y='9.62' width='55.29' height='24.86' style='stroke-width: 1.07; stroke: none; stroke-linecap: square; stroke-linejoin: miter; fill: #481668;' />
<rect x='413.46' y='9.62' width='36.57' height='24.86' style='stroke-width: 1.07; stroke: none; stroke-linecap: square; stroke-linejoin: miter; fill: #481E70;' />
<rect x='450.03' y='9.62' width='19.15' height='24.86' style='stroke-width: 1.07; stroke: none; stroke-linecap: square; stroke-linejoin: miter; fill: #482778;' />
<rect x='469.18' y='9.62' width='14.37' height='24.86' style='stroke-width: 1.07; stroke: none; stroke-linecap: square; stroke-linejoin: miter; fill: #472F7E;' />
<rect x='483.55' y='9.62' width='31.78' height='24.86' style='stroke-width: 1.07; stroke: none; stroke-linecap: square; stroke-linejoin: miter; fill: #453882;' />
<rect x='515.33' y='9.62' width='2.61' height='24.86' style='stroke-width: 1.07; stroke: none; stroke-linecap: square; stroke-linejoin: miter; fill: #424086;' />
<rect x='517.94' y='9.62' width='2.18' height='24.86' style='stroke-width: 1.07; stroke: none; stroke-linecap: square; stroke-linejoin: miter; fill: #3F4889;' />
<rect x='520.12' y='9.62' width='0.44' height='24.86' style='stroke-width: 1.07; stroke: none; stroke-linecap: square; stroke-linejoin: miter; fill: #3C508B;' />
<rect x='520.55' y='9.62' width='1.74' height='24.86' style='stroke-width: 1.07; stroke: none; stroke-linecap: square; stroke-linejoin: miter; fill: #38588C;' />
<rect x='522.29' y='9.62' width='12.62' height='24.86' style='stroke-width: 1.07; stroke: none; stroke-linecap: square; stroke-linejoin: miter; fill: #31668E;' />
<rect x='534.92' y='9.62' width='0.44' height='24.86' style='stroke-width: 1.07; stroke: none; stroke-linecap: square; stroke-linejoin: miter; fill: #2E6D8E;' />
<rect x='535.35' y='9.62' width='2.61' height='24.86' style='stroke-width: 1.07; stroke: none; stroke-linecap: square; stroke-linejoin: miter; fill: #24868E;' />
<rect x='537.96' y='9.62' width='1.31' height='24.86' style='stroke-width: 1.07; stroke: none; stroke-linecap: square; stroke-linejoin: miter; fill: #1FA188;' />
<rect x='539.27' y='9.62' width='1.31' height='24.86' style='stroke-width: 1.07; stroke: none; stroke-linecap: square; stroke-linejoin: miter; fill: #27AD81;' />
<rect x='540.58' y='9.62' width='0.44' height='24.86' style='stroke-width: 1.07; stroke: none; stroke-linecap: square; stroke-linejoin: miter; fill: #60CA60;' />
<rect x='541.01' y='9.62' width='0.44' height='24.86' style='stroke-width: 1.07; stroke: none; stroke-linecap: square; stroke-linejoin: miter; fill: #70CF57;' />
<rect x='541.45' y='9.62' width='0.87' height='24.86' style='stroke-width: 1.07; stroke: none; stroke-linecap: square; stroke-linejoin: miter; fill: #92D742;' />
<text x='167.19' y='241.00' text-anchor='middle' style='font-size: 5.69px; fill: #FFFFFF; font-family: Arial;' textLength='6.32px' lengthAdjust='spacingAndGlyphs'>35</text>
<text x='167.19' y='249.20' text-anchor='middle' style='font-size: 5.69px; fill: #FFFFFF; font-family: Arial;' textLength='12.00px' lengthAdjust='spacingAndGlyphs'>(4%)</text>
<text x='188.47' y='241.00' text-anchor='middle' style='font-size: 5.69px; fill: #FFFFFF; font-family: Arial;' textLength='6.32px' lengthAdjust='spacingAndGlyphs'>64</text>
<text x='188.47' y='249.20' text-anchor='middle' style='font-size: 5.69px; fill: #FFFFFF; font-family: Arial;' textLength='12.00px' lengthAdjust='spacingAndGlyphs'>(7%)</text>
<text x='218.78' y='241.00' text-anchor='middle' style='font-size: 5.69px; fill: #FFFFFF; font-family: Arial;' textLength='6.32px' lengthAdjust='spacingAndGlyphs'>77</text>
<text x='218.78' y='249.20' text-anchor='middle' style='font-size: 5.69px; fill: #FFFFFF; font-family: Arial;' textLength='12.00px' lengthAdjust='spacingAndGlyphs'>(9%)</text>
<text x='250.38' y='241.00' text-anchor='middle' style='font-size: 5.69px; fill: #FFFFFF; font-family: Arial;' textLength='6.32px' lengthAdjust='spacingAndGlyphs'>70</text>
<text x='250.38' y='249.20' text-anchor='middle' style='font-size: 5.69px; fill: #FFFFFF; font-family: Arial;' textLength='12.00px' lengthAdjust='spacingAndGlyphs'>(8%)</text>
<text x='276.82' y='241.00' text-anchor='middle' style='font-size: 5.69px; fill: #FFFFFF; font-family: Arial;' textLength='6.32px' lengthAdjust='spacingAndGlyphs'>53</text>
<text x='276.82' y='249.20' text-anchor='middle' style='font-size: 5.69px; fill: #FFFFFF; font-family: Arial;' textLength='12.00px' lengthAdjust='spacingAndGlyphs'>(6%)</text>
<text x='294.02' y='241.00' text-anchor='middle' style='font-size: 5.69px; fill: #FFFFFF; font-family: Arial;' textLength='6.32px' lengthAdjust='spacingAndGlyphs'>27</text>
<text x='294.02' y='249.20' text-anchor='middle' style='font-size: 5.69px; fill: #FFFFFF; font-family: Arial;' textLength='12.00px' lengthAdjust='spacingAndGlyphs'>(3%)</text>
<text x='342.18' y='241.00' text-anchor='middle' style='font-size: 5.69px; fill: #FFFFFF; font-family: Arial;' textLength='9.48px' lengthAdjust='spacingAndGlyphs'>197</text>
<text x='342.18' y='249.20' text-anchor='middle' style='font-size: 5.69px; fill: #FFFFFF; font-family: Arial;' textLength='15.16px' lengthAdjust='spacingAndGlyphs'>(22%)</text>
<text x='386.03' y='241.00' text-anchor='middle' style='font-size: 5.69px; fill: #FFFFFF; font-family: Arial;' textLength='3.16px' lengthAdjust='spacingAndGlyphs'>7</text>
<text x='386.03' y='249.20' text-anchor='middle' style='font-size: 5.69px; fill: #FFFFFF; font-family: Arial;' textLength='12.00px' lengthAdjust='spacingAndGlyphs'>(1%)</text>
<text x='389.90' y='241.00' text-anchor='middle' style='font-size: 5.69px; fill: #FFFFFF; font-family: Arial;' textLength='5.90px' lengthAdjust='spacingAndGlyphs'>11</text>
<text x='389.90' y='249.20' text-anchor='middle' style='font-size: 5.69px; fill: #FFFFFF; font-family: Arial;' textLength='12.00px' lengthAdjust='spacingAndGlyphs'>(1%)</text>
<text x='395.49' y='241.00' text-anchor='middle' style='font-size: 5.69px; fill: #FFFFFF; font-family: Arial;' textLength='5.90px' lengthAdjust='spacingAndGlyphs'>11</text>
<text x='395.49' y='249.20' text-anchor='middle' style='font-size: 5.69px; fill: #FFFFFF; font-family: Arial;' textLength='12.00px' lengthAdjust='spacingAndGlyphs'>(1%)</text>
<text x='435.04' y='241.00' text-anchor='middle' style='font-size: 5.69px; fill: #FFFFFF; font-family: Arial;' textLength='9.48px' lengthAdjust='spacingAndGlyphs'>173</text>
<text x='435.04' y='249.20' text-anchor='middle' style='font-size: 5.69px; fill: #FFFFFF; font-family: Arial;' textLength='15.16px' lengthAdjust='spacingAndGlyphs'>(19%)</text>
<text x='482.98' y='241.00' text-anchor='middle' style='font-size: 5.69px; fill: #FFFFFF; font-family: Arial;' textLength='6.32px' lengthAdjust='spacingAndGlyphs'>40</text>
<text x='482.98' y='249.20' text-anchor='middle' style='font-size: 5.69px; fill: #FFFFFF; font-family: Arial;' textLength='12.00px' lengthAdjust='spacingAndGlyphs'>(4%)</text>
<text x='496.31' y='241.00' text-anchor='middle' style='font-size: 5.69px; fill: #FFFFFF; font-family: Arial;' textLength='6.32px' lengthAdjust='spacingAndGlyphs'>14</text>
<text x='496.31' y='249.20' text-anchor='middle' style='font-size: 5.69px; fill: #FFFFFF; font-family: Arial;' textLength='12.00px' lengthAdjust='spacingAndGlyphs'>(2%)</text>
<text x='514.16' y='241.00' text-anchor='middle' style='font-size: 5.69px; fill: #FFFFFF; font-family: Arial;' textLength='6.32px' lengthAdjust='spacingAndGlyphs'>69</text>
<text x='514.16' y='249.20' text-anchor='middle' style='font-size: 5.69px; fill: #FFFFFF; font-family: Arial;' textLength='12.00px' lengthAdjust='spacingAndGlyphs'>(8%)</text>
<text x='530.92' y='241.00' text-anchor='middle' style='font-size: 5.69px; fill: #FFFFFF; font-family: Arial;' textLength='3.16px' lengthAdjust='spacingAndGlyphs'>9</text>
<text x='530.92' y='249.20' text-anchor='middle' style='font-size: 5.69px; fill: #FFFFFF; font-family: Arial;' textLength='12.00px' lengthAdjust='spacingAndGlyphs'>(1%)</text>
<text x='537.80' y='241.00' text-anchor='middle' style='font-size: 5.69px; fill: #FFFFFF; font-family: Arial;' textLength='6.32px' lengthAdjust='spacingAndGlyphs'>13</text>
<text x='537.80' y='249.20' text-anchor='middle' style='font-size: 5.69px; fill: #FFFFFF; font-family: Arial;' textLength='12.00px' lengthAdjust='spacingAndGlyphs'>(1%)</text>
<text x='178.00' y='213.38' text-anchor='middle' style='font-size: 5.69px; fill: #FFFFFF; font-family: Arial;' textLength='6.32px' lengthAdjust='spacingAndGlyphs'>85</text>
<text x='178.00' y='221.57' text-anchor='middle' style='font-size: 5.69px; fill: #FFFFFF; font-family: Arial;' textLength='15.16px' lengthAdjust='spacingAndGlyphs'>(10%)</text>
<text x='210.78' y='213.38' text-anchor='middle' style='font-size: 5.69px; fill: #FFFFFF; font-family: Arial;' textLength='6.32px' lengthAdjust='spacingAndGlyphs'>67</text>
<text x='210.78' y='221.57' text-anchor='middle' style='font-size: 5.69px; fill: #FFFFFF; font-family: Arial;' textLength='12.00px' lengthAdjust='spacingAndGlyphs'>(8%)</text>
<text x='236.45' y='213.38' text-anchor='middle' style='font-size: 5.69px; fill: #FFFFFF; font-family: Arial;' textLength='6.32px' lengthAdjust='spacingAndGlyphs'>52</text>
<text x='236.45' y='221.57' text-anchor='middle' style='font-size: 5.69px; fill: #FFFFFF; font-family: Arial;' textLength='12.00px' lengthAdjust='spacingAndGlyphs'>(6%)</text>
<text x='254.79' y='213.38' text-anchor='middle' style='font-size: 5.69px; fill: #FFFFFF; font-family: Arial;' textLength='6.32px' lengthAdjust='spacingAndGlyphs'>33</text>
<text x='254.79' y='221.57' text-anchor='middle' style='font-size: 5.69px; fill: #FFFFFF; font-family: Arial;' textLength='12.00px' lengthAdjust='spacingAndGlyphs'>(4%)</text>
<text x='266.43' y='213.38' text-anchor='middle' style='font-size: 5.69px; fill: #FFFFFF; font-family: Arial;' textLength='6.32px' lengthAdjust='spacingAndGlyphs'>21</text>
<text x='266.43' y='221.57' text-anchor='middle' style='font-size: 5.69px; fill: #FFFFFF; font-family: Arial;' textLength='12.00px' lengthAdjust='spacingAndGlyphs'>(2%)</text>
<text x='276.57' y='213.38' text-anchor='middle' style='font-size: 5.69px; fill: #FFFFFF; font-family: Arial;' textLength='6.32px' lengthAdjust='spacingAndGlyphs'>26</text>
<text x='276.57' y='221.57' text-anchor='middle' style='font-size: 5.69px; fill: #FFFFFF; font-family: Arial;' textLength='12.00px' lengthAdjust='spacingAndGlyphs'>(3%)</text>
<text x='313.24' y='213.38' text-anchor='middle' style='font-size: 5.69px; fill: #FFFFFF; font-family: Arial;' textLength='9.48px' lengthAdjust='spacingAndGlyphs'>144</text>
<text x='313.24' y='221.57' text-anchor='middle' style='font-size: 5.69px; fill: #FFFFFF; font-family: Arial;' textLength='15.16px' lengthAdjust='spacingAndGlyphs'>(16%)</text>
<text x='346.03' y='213.38' text-anchor='middle' style='font-size: 5.69px; fill: #FFFFFF; font-family: Arial;' textLength='3.16px' lengthAdjust='spacingAndGlyphs'>6</text>
<text x='346.03' y='221.57' text-anchor='middle' style='font-size: 5.69px; fill: #FFFFFF; font-family: Arial;' textLength='12.00px' lengthAdjust='spacingAndGlyphs'>(1%)</text>
<text x='352.72' y='213.38' text-anchor='middle' style='font-size: 5.69px; fill: #FFFFFF; font-family: Arial;' textLength='6.32px' lengthAdjust='spacingAndGlyphs'>21</text>
<text x='352.72' y='221.57' text-anchor='middle' style='font-size: 5.69px; fill: #FFFFFF; font-family: Arial;' textLength='12.00px' lengthAdjust='spacingAndGlyphs'>(2%)</text>
<text x='383.34' y='213.38' text-anchor='middle' style='font-size: 5.69px; fill: #FFFFFF; font-family: Arial;' textLength='9.06px' lengthAdjust='spacingAndGlyphs'>119</text>
<text x='383.34' y='221.57' text-anchor='middle' style='font-size: 5.69px; fill: #FFFFFF; font-family: Arial;' textLength='15.16px' lengthAdjust='spacingAndGlyphs'>(13%)</text>
<text x='420.66' y='213.38' text-anchor='middle' style='font-size: 5.69px; fill: #FFFFFF; font-family: Arial;' textLength='6.32px' lengthAdjust='spacingAndGlyphs'>44</text>
<text x='420.66' y='221.57' text-anchor='middle' style='font-size: 5.69px; fill: #FFFFFF; font-family: Arial;' textLength='12.00px' lengthAdjust='spacingAndGlyphs'>(5%)</text>
<text x='439.00' y='213.38' text-anchor='middle' style='font-size: 5.69px; fill: #FFFFFF; font-family: Arial;' textLength='6.32px' lengthAdjust='spacingAndGlyphs'>33</text>
<text x='439.00' y='221.57' text-anchor='middle' style='font-size: 5.69px; fill: #FFFFFF; font-family: Arial;' textLength='12.00px' lengthAdjust='spacingAndGlyphs'>(4%)</text>
<text x='472.00' y='213.38' text-anchor='middle' style='font-size: 5.69px; fill: #FFFFFF; font-family: Arial;' textLength='9.06px' lengthAdjust='spacingAndGlyphs'>118</text>
<text x='472.00' y='221.57' text-anchor='middle' style='font-size: 5.69px; fill: #FFFFFF; font-family: Arial;' textLength='15.16px' lengthAdjust='spacingAndGlyphs'>(13%)</text>
<text x='500.47' y='213.38' text-anchor='middle' style='font-size: 5.69px; fill: #FFFFFF; font-family: Arial;' textLength='6.32px' lengthAdjust='spacingAndGlyphs'>14</text>
<text x='500.47' y='221.57' text-anchor='middle' style='font-size: 5.69px; fill: #FFFFFF; font-family: Arial;' textLength='12.00px' lengthAdjust='spacingAndGlyphs'>(2%)</text>
<text x='505.65' y='213.38' text-anchor='middle' style='font-size: 5.69px; fill: #FFFFFF; font-family: Arial;' textLength='3.16px' lengthAdjust='spacingAndGlyphs'>8</text>
<text x='505.65' y='221.57' text-anchor='middle' style='font-size: 5.69px; fill: #FFFFFF; font-family: Arial;' textLength='12.00px' lengthAdjust='spacingAndGlyphs'>(1%)</text>
<text x='520.53' y='213.38' text-anchor='middle' style='font-size: 5.69px; fill: #FFFFFF; font-family: Arial;' textLength='6.32px' lengthAdjust='spacingAndGlyphs'>49</text>
<text x='520.53' y='221.57' text-anchor='middle' style='font-size: 5.69px; fill: #FFFFFF; font-family: Arial;' textLength='12.00px' lengthAdjust='spacingAndGlyphs'>(6%)</text>
<text x='535.41' y='213.38' text-anchor='middle' style='font-size: 5.69px; fill: #FFFFFF; font-family: Arial;' textLength='6.32px' lengthAdjust='spacingAndGlyphs'>16</text>
<text x='535.41' y='221.57' text-anchor='middle' style='font-size: 5.69px; fill: #FFFFFF; font-family: Arial;' textLength='12.00px' lengthAdjust='spacingAndGlyphs'>(2%)</text>
<text x='540.59' y='213.38' text-anchor='middle' style='font-size: 5.69px; fill: #FFFFFF; font-family: Arial;' textLength='3.16px' lengthAdjust='spacingAndGlyphs'>6</text>
<text x='540.59' y='221.57' text-anchor='middle' style='font-size: 5.69px; fill: #FFFFFF; font-family: Arial;' textLength='12.00px' lengthAdjust='spacingAndGlyphs'>(1%)</text>
<text x='206.46' y='185.75' text-anchor='middle' style='font-size: 5.69px; fill: #FFFFFF; font-family: Arial;' textLength='9.48px' lengthAdjust='spacingAndGlyphs'>216</text>
<text x='206.46' y='193.95' text-anchor='middle' style='font-size: 5.69px; fill: #FFFFFF; font-family: Arial;' textLength='15.16px' lengthAdjust='spacingAndGlyphs'>(24%)</text>
<text x='276.67' y='185.75' text-anchor='middle' style='font-size: 5.69px; fill: #FFFFFF; font-family: Arial;' textLength='9.48px' lengthAdjust='spacingAndGlyphs'>108</text>
<text x='276.67' y='193.95' text-anchor='middle' style='font-size: 5.69px; fill: #FFFFFF; font-family: Arial;' textLength='15.16px' lengthAdjust='spacingAndGlyphs'>(12%)</text>
<text x='318.49' y='185.75' text-anchor='middle' style='font-size: 5.69px; fill: #FFFFFF; font-family: Arial;' textLength='6.32px' lengthAdjust='spacingAndGlyphs'>85</text>
<text x='318.49' y='193.95' text-anchor='middle' style='font-size: 5.69px; fill: #FFFFFF; font-family: Arial;' textLength='15.16px' lengthAdjust='spacingAndGlyphs'>(10%)</text>
<text x='347.96' y='185.75' text-anchor='middle' style='font-size: 5.69px; fill: #FFFFFF; font-family: Arial;' textLength='6.32px' lengthAdjust='spacingAndGlyphs'>51</text>
<text x='347.96' y='193.95' text-anchor='middle' style='font-size: 5.69px; fill: #FFFFFF; font-family: Arial;' textLength='12.00px' lengthAdjust='spacingAndGlyphs'>(6%)</text>
<text x='364.21' y='185.75' text-anchor='middle' style='font-size: 5.69px; fill: #FFFFFF; font-family: Arial;' textLength='6.32px' lengthAdjust='spacingAndGlyphs'>24</text>
<text x='364.21' y='193.95' text-anchor='middle' style='font-size: 5.69px; fill: #FFFFFF; font-family: Arial;' textLength='12.00px' lengthAdjust='spacingAndGlyphs'>(3%)</text>
<text x='374.17' y='185.75' text-anchor='middle' style='font-size: 5.69px; fill: #FFFFFF; font-family: Arial;' textLength='6.32px' lengthAdjust='spacingAndGlyphs'>22</text>
<text x='374.17' y='193.95' text-anchor='middle' style='font-size: 5.69px; fill: #FFFFFF; font-family: Arial;' textLength='12.00px' lengthAdjust='spacingAndGlyphs'>(2%)</text>
<text x='415.13' y='185.75' text-anchor='middle' style='font-size: 5.69px; fill: #FFFFFF; font-family: Arial;' textLength='9.48px' lengthAdjust='spacingAndGlyphs'>167</text>
<text x='415.13' y='193.95' text-anchor='middle' style='font-size: 5.69px; fill: #FFFFFF; font-family: Arial;' textLength='15.16px' lengthAdjust='spacingAndGlyphs'>(19%)</text>
<text x='452.83' y='185.75' text-anchor='middle' style='font-size: 5.69px; fill: #FFFFFF; font-family: Arial;' textLength='3.16px' lengthAdjust='spacingAndGlyphs'>5</text>
<text x='452.83' y='193.95' text-anchor='middle' style='font-size: 5.69px; fill: #FFFFFF; font-family: Arial;' textLength='12.00px' lengthAdjust='spacingAndGlyphs'>(1%)</text>
<text x='456.51' y='185.75' text-anchor='middle' style='font-size: 5.69px; fill: #FFFFFF; font-family: Arial;' textLength='3.16px' lengthAdjust='spacingAndGlyphs'>8</text>
<text x='456.51' y='193.95' text-anchor='middle' style='font-size: 5.69px; fill: #FFFFFF; font-family: Arial;' textLength='12.00px' lengthAdjust='spacingAndGlyphs'>(1%)</text>
<text x='477.10' y='185.75' text-anchor='middle' style='font-size: 5.69px; fill: #FFFFFF; font-family: Arial;' textLength='6.32px' lengthAdjust='spacingAndGlyphs'>87</text>
<text x='477.10' y='193.95' text-anchor='middle' style='font-size: 5.69px; fill: #FFFFFF; font-family: Arial;' textLength='15.16px' lengthAdjust='spacingAndGlyphs'>(10%)</text>
<text x='502.66' y='185.75' text-anchor='middle' style='font-size: 5.69px; fill: #FFFFFF; font-family: Arial;' textLength='6.32px' lengthAdjust='spacingAndGlyphs'>21</text>
<text x='502.66' y='193.95' text-anchor='middle' style='font-size: 5.69px; fill: #FFFFFF; font-family: Arial;' textLength='12.00px' lengthAdjust='spacingAndGlyphs'>(2%)</text>
<text x='510.90' y='185.75' text-anchor='middle' style='font-size: 5.69px; fill: #FFFFFF; font-family: Arial;' textLength='6.32px' lengthAdjust='spacingAndGlyphs'>13</text>
<text x='510.90' y='193.95' text-anchor='middle' style='font-size: 5.69px; fill: #FFFFFF; font-family: Arial;' textLength='12.00px' lengthAdjust='spacingAndGlyphs'>(1%)</text>
<text x='523.25' y='185.75' text-anchor='middle' style='font-size: 5.69px; fill: #FFFFFF; font-family: Arial;' textLength='6.32px' lengthAdjust='spacingAndGlyphs'>44</text>
<text x='523.25' y='193.95' text-anchor='middle' style='font-size: 5.69px; fill: #FFFFFF; font-family: Arial;' textLength='12.00px' lengthAdjust='spacingAndGlyphs'>(5%)</text>
<text x='538.63' y='185.75' text-anchor='middle' style='font-size: 5.69px; fill: #FFFFFF; font-family: Arial;' textLength='5.90px' lengthAdjust='spacingAndGlyphs'>11</text>
<text x='538.63' y='193.95' text-anchor='middle' style='font-size: 5.69px; fill: #FFFFFF; font-family: Arial;' textLength='12.00px' lengthAdjust='spacingAndGlyphs'>(1%)</text>
<text x='230.65' y='158.13' text-anchor='middle' style='font-size: 5.69px; fill: #FFFFFF; font-family: Arial;' textLength='9.48px' lengthAdjust='spacingAndGlyphs'>328</text>
<text x='230.65' y='166.32' text-anchor='middle' style='font-size: 5.69px; fill: #FFFFFF; font-family: Arial;' textLength='15.16px' lengthAdjust='spacingAndGlyphs'>(37%)</text>
<text x='349.47' y='158.13' text-anchor='middle' style='font-size: 5.69px; fill: #FFFFFF; font-family: Arial;' textLength='9.48px' lengthAdjust='spacingAndGlyphs'>221</text>
<text x='349.47' y='166.32' text-anchor='middle' style='font-size: 5.69px; fill: #FFFFFF; font-family: Arial;' textLength='15.16px' lengthAdjust='spacingAndGlyphs'>(25%)</text>
<text x='421.33' y='158.13' text-anchor='middle' style='font-size: 5.69px; fill: #FFFFFF; font-family: Arial;' textLength='8.63px' lengthAdjust='spacingAndGlyphs'>111</text>
<text x='421.33' y='166.32' text-anchor='middle' style='font-size: 5.69px; fill: #FFFFFF; font-family: Arial;' textLength='15.16px' lengthAdjust='spacingAndGlyphs'>(13%)</text>
<text x='456.18' y='158.13' text-anchor='middle' style='font-size: 5.69px; fill: #FFFFFF; font-family: Arial;' textLength='6.32px' lengthAdjust='spacingAndGlyphs'>50</text>
<text x='456.18' y='166.32' text-anchor='middle' style='font-size: 5.69px; fill: #FFFFFF; font-family: Arial;' textLength='12.00px' lengthAdjust='spacingAndGlyphs'>(6%)</text>
<text x='471.11' y='158.13' text-anchor='middle' style='font-size: 5.69px; fill: #FFFFFF; font-family: Arial;' textLength='6.32px' lengthAdjust='spacingAndGlyphs'>19</text>
<text x='471.11' y='166.32' text-anchor='middle' style='font-size: 5.69px; fill: #FFFFFF; font-family: Arial;' textLength='12.00px' lengthAdjust='spacingAndGlyphs'>(2%)</text>
<text x='478.04' y='158.13' text-anchor='middle' style='font-size: 5.69px; fill: #FFFFFF; font-family: Arial;' textLength='6.32px' lengthAdjust='spacingAndGlyphs'>13</text>
<text x='478.04' y='166.32' text-anchor='middle' style='font-size: 5.69px; fill: #FFFFFF; font-family: Arial;' textLength='12.00px' lengthAdjust='spacingAndGlyphs'>(1%)</text>
<text x='497.95' y='158.13' text-anchor='middle' style='font-size: 5.69px; fill: #FFFFFF; font-family: Arial;' textLength='6.32px' lengthAdjust='spacingAndGlyphs'>79</text>
<text x='497.95' y='166.32' text-anchor='middle' style='font-size: 5.69px; fill: #FFFFFF; font-family: Arial;' textLength='12.00px' lengthAdjust='spacingAndGlyphs'>(9%)</text>
<text x='516.78' y='158.13' text-anchor='middle' style='font-size: 5.69px; fill: #FFFFFF; font-family: Arial;' textLength='3.16px' lengthAdjust='spacingAndGlyphs'>6</text>
<text x='516.78' y='166.32' text-anchor='middle' style='font-size: 5.69px; fill: #FFFFFF; font-family: Arial;' textLength='12.00px' lengthAdjust='spacingAndGlyphs'>(1%)</text>
<text x='525.44' y='158.13' text-anchor='middle' style='font-size: 5.69px; fill: #FFFFFF; font-family: Arial;' textLength='6.32px' lengthAdjust='spacingAndGlyphs'>30</text>
<text x='525.44' y='166.32' text-anchor='middle' style='font-size: 5.69px; fill: #FFFFFF; font-family: Arial;' textLength='12.00px' lengthAdjust='spacingAndGlyphs'>(3%)</text>
<text x='534.53' y='158.13' text-anchor='middle' style='font-size: 5.69px; fill: #FFFFFF; font-family: Arial;' textLength='3.16px' lengthAdjust='spacingAndGlyphs'>8</text>
<text x='534.53' y='166.32' text-anchor='middle' style='font-size: 5.69px; fill: #FFFFFF; font-family: Arial;' textLength='12.00px' lengthAdjust='spacingAndGlyphs'>(1%)</text>
<text x='539.07' y='158.13' text-anchor='middle' style='font-size: 5.69px; fill: #FFFFFF; font-family: Arial;' textLength='3.16px' lengthAdjust='spacingAndGlyphs'>5</text>
<text x='539.07' y='166.32' text-anchor='middle' style='font-size: 5.69px; fill: #FFFFFF; font-family: Arial;' textLength='12.00px' lengthAdjust='spacingAndGlyphs'>(1%)</text>
<text x='260.84' y='130.50' text-anchor='middle' style='font-size: 5.69px; fill: #FFFFFF; font-family: Arial;' textLength='9.48px' lengthAdjust='spacingAndGlyphs'>468</text>
<text x='260.84' y='138.69' text-anchor='middle' style='font-size: 5.69px; fill: #FFFFFF; font-family: Arial;' textLength='15.16px' lengthAdjust='spacingAndGlyphs'>(53%)</text>
<text x='399.85' y='130.50' text-anchor='middle' style='font-size: 5.69px; fill: #FFFFFF; font-family: Arial;' textLength='9.48px' lengthAdjust='spacingAndGlyphs'>175</text>
<text x='399.85' y='138.69' text-anchor='middle' style='font-size: 5.69px; fill: #FFFFFF; font-family: Arial;' textLength='15.16px' lengthAdjust='spacingAndGlyphs'>(20%)</text>
<text x='457.79' y='130.50' text-anchor='middle' style='font-size: 5.69px; fill: #FFFFFF; font-family: Arial;' textLength='6.32px' lengthAdjust='spacingAndGlyphs'>93</text>
<text x='457.79' y='138.69' text-anchor='middle' style='font-size: 5.69px; fill: #FFFFFF; font-family: Arial;' textLength='14.74px' lengthAdjust='spacingAndGlyphs'>(11%)</text>
<text x='485.89' y='130.50' text-anchor='middle' style='font-size: 5.69px; fill: #FFFFFF; font-family: Arial;' textLength='6.32px' lengthAdjust='spacingAndGlyphs'>37</text>
<text x='485.89' y='138.69' text-anchor='middle' style='font-size: 5.69px; fill: #FFFFFF; font-family: Arial;' textLength='12.00px' lengthAdjust='spacingAndGlyphs'>(4%)</text>
<text x='497.13' y='130.50' text-anchor='middle' style='font-size: 5.69px; fill: #FFFFFF; font-family: Arial;' textLength='6.32px' lengthAdjust='spacingAndGlyphs'>15</text>
<text x='497.13' y='138.69' text-anchor='middle' style='font-size: 5.69px; fill: #FFFFFF; font-family: Arial;' textLength='12.00px' lengthAdjust='spacingAndGlyphs'>(2%)</text>
<text x='502.75' y='130.50' text-anchor='middle' style='font-size: 5.69px; fill: #FFFFFF; font-family: Arial;' textLength='5.90px' lengthAdjust='spacingAndGlyphs'>11</text>
<text x='502.75' y='138.69' text-anchor='middle' style='font-size: 5.69px; fill: #FFFFFF; font-family: Arial;' textLength='12.00px' lengthAdjust='spacingAndGlyphs'>(1%)</text>
<text x='514.43' y='130.50' text-anchor='middle' style='font-size: 5.69px; fill: #FFFFFF; font-family: Arial;' textLength='6.32px' lengthAdjust='spacingAndGlyphs'>43</text>
<text x='514.43' y='138.69' text-anchor='middle' style='font-size: 5.69px; fill: #FFFFFF; font-family: Arial;' textLength='12.00px' lengthAdjust='spacingAndGlyphs'>(5%)</text>
<text x='530.21' y='130.50' text-anchor='middle' style='font-size: 5.69px; fill: #FFFFFF; font-family: Arial;' textLength='6.32px' lengthAdjust='spacingAndGlyphs'>18</text>
<text x='530.21' y='138.69' text-anchor='middle' style='font-size: 5.69px; fill: #FFFFFF; font-family: Arial;' textLength='12.00px' lengthAdjust='spacingAndGlyphs'>(2%)</text>
<text x='535.40' y='130.50' text-anchor='middle' style='font-size: 5.69px; fill: #FFFFFF; font-family: Arial;' textLength='3.16px' lengthAdjust='spacingAndGlyphs'>6</text>
<text x='535.40' y='138.69' text-anchor='middle' style='font-size: 5.69px; fill: #FFFFFF; font-family: Arial;' textLength='12.00px' lengthAdjust='spacingAndGlyphs'>(1%)</text>
<text x='538.64' y='130.50' text-anchor='middle' style='font-size: 5.69px; fill: #FFFFFF; font-family: Arial;' textLength='3.16px' lengthAdjust='spacingAndGlyphs'>5</text>
<text x='538.64' y='138.69' text-anchor='middle' style='font-size: 5.69px; fill: #FFFFFF; font-family: Arial;' textLength='12.00px' lengthAdjust='spacingAndGlyphs'>(1%)</text>
<text x='236.63' y='102.87' text-anchor='middle' style='font-size: 5.69px; fill: #FFFFFF; font-family: Arial;' textLength='9.48px' lengthAdjust='spacingAndGlyphs'>354</text>
<text x='236.63' y='111.07' text-anchor='middle' style='font-size: 5.69px; fill: #FFFFFF; font-family: Arial;' textLength='15.16px' lengthAdjust='spacingAndGlyphs'>(40%)</text>
<text x='357.95' y='102.87' text-anchor='middle' style='font-size: 5.69px; fill: #FFFFFF; font-family: Arial;' textLength='9.48px' lengthAdjust='spacingAndGlyphs'>204</text>
<text x='357.95' y='111.07' text-anchor='middle' style='font-size: 5.69px; fill: #FFFFFF; font-family: Arial;' textLength='15.16px' lengthAdjust='spacingAndGlyphs'>(23%)</text>
<text x='426.22' y='102.87' text-anchor='middle' style='font-size: 5.69px; fill: #FFFFFF; font-family: Arial;' textLength='9.06px' lengthAdjust='spacingAndGlyphs'>110</text>
<text x='426.22' y='111.07' text-anchor='middle' style='font-size: 5.69px; fill: #FFFFFF; font-family: Arial;' textLength='15.16px' lengthAdjust='spacingAndGlyphs'>(12%)</text>
<text x='459.26' y='102.87' text-anchor='middle' style='font-size: 5.69px; fill: #FFFFFF; font-family: Arial;' textLength='6.32px' lengthAdjust='spacingAndGlyphs'>42</text>
<text x='459.26' y='111.07' text-anchor='middle' style='font-size: 5.69px; fill: #FFFFFF; font-family: Arial;' textLength='12.00px' lengthAdjust='spacingAndGlyphs'>(5%)</text>
<text x='473.83' y='102.87' text-anchor='middle' style='font-size: 5.69px; fill: #FFFFFF; font-family: Arial;' textLength='6.32px' lengthAdjust='spacingAndGlyphs'>25</text>
<text x='473.83' y='111.07' text-anchor='middle' style='font-size: 5.69px; fill: #FFFFFF; font-family: Arial;' textLength='12.00px' lengthAdjust='spacingAndGlyphs'>(3%)</text>
<text x='481.66' y='102.87' text-anchor='middle' style='font-size: 5.69px; fill: #FFFFFF; font-family: Arial;' textLength='5.90px' lengthAdjust='spacingAndGlyphs'>11</text>
<text x='481.66' y='111.07' text-anchor='middle' style='font-size: 5.69px; fill: #FFFFFF; font-family: Arial;' textLength='12.00px' lengthAdjust='spacingAndGlyphs'>(1%)</text>
<text x='501.66' y='102.87' text-anchor='middle' style='font-size: 5.69px; fill: #FFFFFF; font-family: Arial;' textLength='6.32px' lengthAdjust='spacingAndGlyphs'>81</text>
<text x='501.66' y='111.07' text-anchor='middle' style='font-size: 5.69px; fill: #FFFFFF; font-family: Arial;' textLength='12.00px' lengthAdjust='spacingAndGlyphs'>(9%)</text>
<text x='523.18' y='102.87' text-anchor='middle' style='font-size: 5.69px; fill: #FFFFFF; font-family: Arial;' textLength='3.16px' lengthAdjust='spacingAndGlyphs'>6</text>
<text x='523.18' y='111.07' text-anchor='middle' style='font-size: 5.69px; fill: #FFFFFF; font-family: Arial;' textLength='12.00px' lengthAdjust='spacingAndGlyphs'>(1%)</text>
<text x='530.79' y='102.87' text-anchor='middle' style='font-size: 5.69px; fill: #FFFFFF; font-family: Arial;' textLength='6.32px' lengthAdjust='spacingAndGlyphs'>29</text>
<text x='530.79' y='111.07' text-anchor='middle' style='font-size: 5.69px; fill: #FFFFFF; font-family: Arial;' textLength='12.00px' lengthAdjust='spacingAndGlyphs'>(3%)</text>
<text x='538.19' y='102.87' text-anchor='middle' style='font-size: 5.69px; fill: #FFFFFF; font-family: Arial;' textLength='3.16px' lengthAdjust='spacingAndGlyphs'>5</text>
<text x='538.19' y='111.07' text-anchor='middle' style='font-size: 5.69px; fill: #FFFFFF; font-family: Arial;' textLength='12.00px' lengthAdjust='spacingAndGlyphs'>(1%)</text>
<text x='258.36' y='75.25' text-anchor='middle' style='font-size: 5.69px; fill: #FFFFFF; font-family: Arial;' textLength='9.48px' lengthAdjust='spacingAndGlyphs'>455</text>
<text x='258.36' y='83.44' text-anchor='middle' style='font-size: 5.69px; fill: #FFFFFF; font-family: Arial;' textLength='15.16px' lengthAdjust='spacingAndGlyphs'>(52%)</text>
<text x='398.50' y='75.25' text-anchor='middle' style='font-size: 5.69px; fill: #FFFFFF; font-family: Arial;' textLength='9.48px' lengthAdjust='spacingAndGlyphs'>191</text>
<text x='398.50' y='83.44' text-anchor='middle' style='font-size: 5.69px; fill: #FFFFFF; font-family: Arial;' textLength='15.16px' lengthAdjust='spacingAndGlyphs'>(22%)</text>
<text x='460.75' y='75.25' text-anchor='middle' style='font-size: 5.69px; fill: #FFFFFF; font-family: Arial;' textLength='6.32px' lengthAdjust='spacingAndGlyphs'>96</text>
<text x='460.75' y='83.44' text-anchor='middle' style='font-size: 5.69px; fill: #FFFFFF; font-family: Arial;' textLength='14.74px' lengthAdjust='spacingAndGlyphs'>(11%)</text>
<text x='489.82' y='75.25' text-anchor='middle' style='font-size: 5.69px; fill: #FFFFFF; font-family: Arial;' textLength='6.32px' lengthAdjust='spacingAndGlyphs'>38</text>
<text x='489.82' y='83.44' text-anchor='middle' style='font-size: 5.69px; fill: #FFFFFF; font-family: Arial;' textLength='12.00px' lengthAdjust='spacingAndGlyphs'>(4%)</text>
<text x='500.67' y='75.25' text-anchor='middle' style='font-size: 5.69px; fill: #FFFFFF; font-family: Arial;' textLength='6.32px' lengthAdjust='spacingAndGlyphs'>12</text>
<text x='500.67' y='83.44' text-anchor='middle' style='font-size: 5.69px; fill: #FFFFFF; font-family: Arial;' textLength='12.00px' lengthAdjust='spacingAndGlyphs'>(1%)</text>
<text x='506.31' y='75.25' text-anchor='middle' style='font-size: 5.69px; fill: #FFFFFF; font-family: Arial;' textLength='6.32px' lengthAdjust='spacingAndGlyphs'>14</text>
<text x='506.31' y='83.44' text-anchor='middle' style='font-size: 5.69px; fill: #FFFFFF; font-family: Arial;' textLength='12.00px' lengthAdjust='spacingAndGlyphs'>(2%)</text>
<text x='518.24' y='75.25' text-anchor='middle' style='font-size: 5.69px; fill: #FFFFFF; font-family: Arial;' textLength='6.32px' lengthAdjust='spacingAndGlyphs'>41</text>
<text x='518.24' y='83.44' text-anchor='middle' style='font-size: 5.69px; fill: #FFFFFF; font-family: Arial;' textLength='12.00px' lengthAdjust='spacingAndGlyphs'>(5%)</text>
<text x='534.72' y='75.25' text-anchor='middle' style='font-size: 5.69px; fill: #FFFFFF; font-family: Arial;' textLength='6.32px' lengthAdjust='spacingAndGlyphs'>25</text>
<text x='534.72' y='83.44' text-anchor='middle' style='font-size: 5.69px; fill: #FFFFFF; font-family: Arial;' textLength='12.00px' lengthAdjust='spacingAndGlyphs'>(3%)</text>
<text x='229.89' y='47.62' text-anchor='middle' style='font-size: 5.69px; fill: #FFFFFF; font-family: Arial;' textLength='9.48px' lengthAdjust='spacingAndGlyphs'>323</text>
<text x='229.89' y='55.82' text-anchor='middle' style='font-size: 5.69px; fill: #FFFFFF; font-family: Arial;' textLength='15.16px' lengthAdjust='spacingAndGlyphs'>(37%)</text>
<text x='350.55' y='47.62' text-anchor='middle' style='font-size: 5.69px; fill: #FFFFFF; font-family: Arial;' textLength='9.48px' lengthAdjust='spacingAndGlyphs'>232</text>
<text x='350.55' y='55.82' text-anchor='middle' style='font-size: 5.69px; fill: #FFFFFF; font-family: Arial;' textLength='15.16px' lengthAdjust='spacingAndGlyphs'>(26%)</text>
<text x='430.78' y='47.62' text-anchor='middle' style='font-size: 5.69px; fill: #FFFFFF; font-family: Arial;' textLength='9.48px' lengthAdjust='spacingAndGlyphs'>137</text>
<text x='430.78' y='55.82' text-anchor='middle' style='font-size: 5.69px; fill: #FFFFFF; font-family: Arial;' textLength='15.16px' lengthAdjust='spacingAndGlyphs'>(16%)</text>
<text x='472.53' y='47.62' text-anchor='middle' style='font-size: 5.69px; fill: #FFFFFF; font-family: Arial;' textLength='6.32px' lengthAdjust='spacingAndGlyphs'>55</text>
<text x='472.53' y='55.82' text-anchor='middle' style='font-size: 5.69px; fill: #FFFFFF; font-family: Arial;' textLength='12.00px' lengthAdjust='spacingAndGlyphs'>(6%)</text>
<text x='488.18' y='47.62' text-anchor='middle' style='font-size: 5.69px; fill: #FFFFFF; font-family: Arial;' textLength='6.32px' lengthAdjust='spacingAndGlyphs'>17</text>
<text x='488.18' y='55.82' text-anchor='middle' style='font-size: 5.69px; fill: #FFFFFF; font-family: Arial;' textLength='12.00px' lengthAdjust='spacingAndGlyphs'>(2%)</text>
<text x='495.14' y='47.62' text-anchor='middle' style='font-size: 5.69px; fill: #FFFFFF; font-family: Arial;' textLength='6.32px' lengthAdjust='spacingAndGlyphs'>15</text>
<text x='495.14' y='55.82' text-anchor='middle' style='font-size: 5.69px; fill: #FFFFFF; font-family: Arial;' textLength='12.00px' lengthAdjust='spacingAndGlyphs'>(2%)</text>
<text x='511.66' y='47.62' text-anchor='middle' style='font-size: 5.69px; fill: #FFFFFF; font-family: Arial;' textLength='6.32px' lengthAdjust='spacingAndGlyphs'>61</text>
<text x='511.66' y='55.82' text-anchor='middle' style='font-size: 5.69px; fill: #FFFFFF; font-family: Arial;' textLength='12.00px' lengthAdjust='spacingAndGlyphs'>(7%)</text>
<text x='526.45' y='47.62' text-anchor='middle' style='font-size: 5.69px; fill: #FFFFFF; font-family: Arial;' textLength='3.16px' lengthAdjust='spacingAndGlyphs'>5</text>
<text x='526.45' y='55.82' text-anchor='middle' style='font-size: 5.69px; fill: #FFFFFF; font-family: Arial;' textLength='12.00px' lengthAdjust='spacingAndGlyphs'>(1%)</text>
<text x='532.53' y='47.62' text-anchor='middle' style='font-size: 5.69px; fill: #FFFFFF; font-family: Arial;' textLength='6.32px' lengthAdjust='spacingAndGlyphs'>17</text>
<text x='532.53' y='55.82' text-anchor='middle' style='font-size: 5.69px; fill: #FFFFFF; font-family: Arial;' textLength='12.00px' lengthAdjust='spacingAndGlyphs'>(2%)</text>
<text x='537.97' y='47.62' text-anchor='middle' style='font-size: 5.69px; fill: #FFFFFF; font-family: Arial;' textLength='3.16px' lengthAdjust='spacingAndGlyphs'>6</text>
<text x='537.97' y='55.82' text-anchor='middle' style='font-size: 5.69px; fill: #FFFFFF; font-family: Arial;' textLength='12.00px' lengthAdjust='spacingAndGlyphs'>(1%)</text>
<text x='207.55' y='20.00' text-anchor='middle' style='font-size: 5.69px; fill: #FFFFFF; font-family: Arial;' textLength='9.48px' lengthAdjust='spacingAndGlyphs'>220</text>
<text x='207.55' y='28.19' text-anchor='middle' style='font-size: 5.69px; fill: #FFFFFF; font-family: Arial;' textLength='15.16px' lengthAdjust='spacingAndGlyphs'>(25%)</text>
<text x='306.80' y='20.00' text-anchor='middle' style='font-size: 5.69px; fill: #FFFFFF; font-family: Arial;' textLength='9.48px' lengthAdjust='spacingAndGlyphs'>236</text>
<text x='306.80' y='28.19' text-anchor='middle' style='font-size: 5.69px; fill: #FFFFFF; font-family: Arial;' textLength='15.16px' lengthAdjust='spacingAndGlyphs'>(27%)</text>
<text x='385.82' y='20.00' text-anchor='middle' style='font-size: 5.69px; fill: #FFFFFF; font-family: Arial;' textLength='9.48px' lengthAdjust='spacingAndGlyphs'>127</text>
<text x='385.82' y='28.19' text-anchor='middle' style='font-size: 5.69px; fill: #FFFFFF; font-family: Arial;' textLength='15.16px' lengthAdjust='spacingAndGlyphs'>(14%)</text>
<text x='431.74' y='20.00' text-anchor='middle' style='font-size: 5.69px; fill: #FFFFFF; font-family: Arial;' textLength='6.32px' lengthAdjust='spacingAndGlyphs'>84</text>
<text x='431.74' y='28.19' text-anchor='middle' style='font-size: 5.69px; fill: #FFFFFF; font-family: Arial;' textLength='15.16px' lengthAdjust='spacingAndGlyphs'>(10%)</text>
<text x='459.60' y='20.00' text-anchor='middle' style='font-size: 5.69px; fill: #FFFFFF; font-family: Arial;' textLength='6.32px' lengthAdjust='spacingAndGlyphs'>44</text>
<text x='459.60' y='28.19' text-anchor='middle' style='font-size: 5.69px; fill: #FFFFFF; font-family: Arial;' textLength='12.00px' lengthAdjust='spacingAndGlyphs'>(5%)</text>
<text x='476.36' y='20.00' text-anchor='middle' style='font-size: 5.69px; fill: #FFFFFF; font-family: Arial;' textLength='6.32px' lengthAdjust='spacingAndGlyphs'>33</text>
<text x='476.36' y='28.19' text-anchor='middle' style='font-size: 5.69px; fill: #FFFFFF; font-family: Arial;' textLength='12.00px' lengthAdjust='spacingAndGlyphs'>(4%)</text>
<text x='499.44' y='20.00' text-anchor='middle' style='font-size: 5.69px; fill: #FFFFFF; font-family: Arial;' textLength='6.32px' lengthAdjust='spacingAndGlyphs'>73</text>
<text x='499.44' y='28.19' text-anchor='middle' style='font-size: 5.69px; fill: #FFFFFF; font-family: Arial;' textLength='12.00px' lengthAdjust='spacingAndGlyphs'>(8%)</text>
<text x='516.63' y='20.00' text-anchor='middle' style='font-size: 5.69px; fill: #FFFFFF; font-family: Arial;' textLength='3.16px' lengthAdjust='spacingAndGlyphs'>6</text>
<text x='516.63' y='28.19' text-anchor='middle' style='font-size: 5.69px; fill: #FFFFFF; font-family: Arial;' textLength='12.00px' lengthAdjust='spacingAndGlyphs'>(1%)</text>
<text x='519.03' y='20.00' text-anchor='middle' style='font-size: 5.69px; fill: #FFFFFF; font-family: Arial;' textLength='3.16px' lengthAdjust='spacingAndGlyphs'>5</text>
<text x='519.03' y='28.19' text-anchor='middle' style='font-size: 5.69px; fill: #FFFFFF; font-family: Arial;' textLength='12.00px' lengthAdjust='spacingAndGlyphs'>(1%)</text>
<text x='528.60' y='20.00' text-anchor='middle' style='font-size: 5.69px; fill: #FFFFFF; font-family: Arial;' textLength='6.32px' lengthAdjust='spacingAndGlyphs'>29</text>
<text x='528.60' y='28.19' text-anchor='middle' style='font-size: 5.69px; fill: #FFFFFF; font-family: Arial;' textLength='12.00px' lengthAdjust='spacingAndGlyphs'>(3%)</text>
<text x='536.66' y='20.00' text-anchor='middle' style='font-size: 5.69px; fill: #FFFFFF; font-family: Arial;' textLength='3.16px' lengthAdjust='spacingAndGlyphs'>6</text>
<text x='536.66' y='28.19' text-anchor='middle' style='font-size: 5.69px; fill: #FFFFFF; font-family: Arial;' textLength='12.00px' lengthAdjust='spacingAndGlyphs'>(1%)</text>
</g>
<g clip-path='url(#cpMC4wMHw1NjYuOTN8MC4wMHwzNDAuMTY=)'>
<text x='135.60' y='246.21' text-anchor='end' style='font-size: 8.80px; fill: #4D4D4D; font-family: Arial;' textLength='102.27px' lengthAdjust='spacingAndGlyphs'>goingOutFreq_houseparty</text>
<text x='135.60' y='218.59' text-anchor='end' style='font-size: 8.80px; fill: #4D4D4D; font-family: Arial;' textLength='75.36px' lengthAdjust='spacingAndGlyphs'>goingOutFreq_cafe</text>
<text x='135.60' y='190.96' text-anchor='end' style='font-size: 8.80px; fill: #4D4D4D; font-family: Arial;' textLength='79.26px' lengthAdjust='spacingAndGlyphs'>goingOutFreq_disco</text>
<text x='135.60' y='163.34' text-anchor='end' style='font-size: 8.80px; fill: #4D4D4D; font-family: Arial;' textLength='102.27px' lengthAdjust='spacingAndGlyphs'>goingOutFreq_poppodium</text>
<text x='135.60' y='135.71' text-anchor='end' style='font-size: 8.80px; fill: #4D4D4D; font-family: Arial;' textLength='78.30px' lengthAdjust='spacingAndGlyphs'>goingOutFreq_band</text>
<text x='135.60' y='108.08' text-anchor='end' style='font-size: 8.80px; fill: #4D4D4D; font-family: Arial;' textLength='123.27px' lengthAdjust='spacingAndGlyphs'>goingOutFreq_smallPartyInside</text>
<text x='135.60' y='80.46' text-anchor='end' style='font-size: 8.80px; fill: #4D4D4D; font-family: Arial;' textLength='114.49px' lengthAdjust='spacingAndGlyphs'>goingOutFreq_bigPartyInside</text>
<text x='135.60' y='52.83' text-anchor='end' style='font-size: 8.80px; fill: #4D4D4D; font-family: Arial;' textLength='130.12px' lengthAdjust='spacingAndGlyphs'>goingOutFreq_smallPartyOutside</text>
<text x='135.60' y='25.21' text-anchor='end' style='font-size: 8.80px; fill: #4D4D4D; font-family: Arial;' textLength='121.33px' lengthAdjust='spacingAndGlyphs'>goingOutFreq_bigPartyOutside</text>
<text x='159.66' y='270.87' text-anchor='middle' style='font-size: 8.80px; fill: #4D4D4D; font-family: Arial;' textLength='4.90px' lengthAdjust='spacingAndGlyphs'>0</text>
<text x='255.33' y='270.87' text-anchor='middle' style='font-size: 8.80px; fill: #4D4D4D; font-family: Arial;' textLength='9.79px' lengthAdjust='spacingAndGlyphs'>25</text>
<text x='350.99' y='270.87' text-anchor='middle' style='font-size: 8.80px; fill: #4D4D4D; font-family: Arial;' textLength='9.79px' lengthAdjust='spacingAndGlyphs'>50</text>
<text x='446.65' y='270.87' text-anchor='middle' style='font-size: 8.80px; fill: #4D4D4D; font-family: Arial;' textLength='9.79px' lengthAdjust='spacingAndGlyphs'>75</text>
<text x='542.32' y='270.87' text-anchor='middle' style='font-size: 8.80px; fill: #4D4D4D; font-family: Arial;' textLength='14.69px' lengthAdjust='spacingAndGlyphs'>100</text>
<rect x='-11.46' y='289.87' width='15.86' height='15.86' style='stroke-width: 1.07; stroke: none; stroke-linecap: square; stroke-linejoin: miter; fill: #440154;' />
<rect x='26.57' y='289.87' width='15.86' height='15.86' style='stroke-width: 1.07; stroke: none; stroke-linecap: square; stroke-linejoin: miter; fill: #460B5E;' />
<rect x='64.60' y='289.87' width='15.86' height='15.86' style='stroke-width: 1.07; stroke: none; stroke-linecap: square; stroke-linejoin: miter; fill: #481668;' />
<rect x='102.63' y='289.87' width='15.86' height='15.86' style='stroke-width: 1.07; stroke: none; stroke-linecap: square; stroke-linejoin: miter; fill: #481E70;' />
<rect x='140.66' y='289.87' width='15.86' height='15.86' style='stroke-width: 1.07; stroke: none; stroke-linecap: square; stroke-linejoin: miter; fill: #482778;' />
<rect x='178.69' y='289.87' width='15.86' height='15.86' style='stroke-width: 1.07; stroke: none; stroke-linecap: square; stroke-linejoin: miter; fill: #472F7E;' />
<rect x='216.73' y='289.87' width='15.86' height='15.86' style='stroke-width: 1.07; stroke: none; stroke-linecap: square; stroke-linejoin: miter; fill: #453882;' />
<rect x='254.76' y='289.87' width='15.86' height='15.86' style='stroke-width: 1.07; stroke: none; stroke-linecap: square; stroke-linejoin: miter; fill: #424086;' />
<rect x='292.79' y='289.87' width='15.86' height='15.86' style='stroke-width: 1.07; stroke: none; stroke-linecap: square; stroke-linejoin: miter; fill: #3F4889;' />
<rect x='330.82' y='289.87' width='15.86' height='15.86' style='stroke-width: 1.07; stroke: none; stroke-linecap: square; stroke-linejoin: miter; fill: #3C508B;' />
<rect x='368.85' y='289.87' width='15.86' height='15.86' style='stroke-width: 1.07; stroke: none; stroke-linecap: square; stroke-linejoin: miter; fill: #38588C;' />
<rect x='406.88' y='289.87' width='15.86' height='15.86' style='stroke-width: 1.07; stroke: none; stroke-linecap: square; stroke-linejoin: miter; fill: #355F8D;' />
<rect x='444.91' y='289.87' width='15.86' height='15.86' style='stroke-width: 1.07; stroke: none; stroke-linecap: square; stroke-linejoin: miter; fill: #31668E;' />
<rect x='482.94' y='289.87' width='15.86' height='15.86' style='stroke-width: 1.07; stroke: none; stroke-linecap: square; stroke-linejoin: miter; fill: #2E6D8E;' />
<rect x='520.97' y='289.87' width='15.86' height='15.86' style='stroke-width: 1.07; stroke: none; stroke-linecap: square; stroke-linejoin: miter; fill: #2C738E;' />
<rect x='559.00' y='289.87' width='15.86' height='15.86' style='stroke-width: 1.07; stroke: none; stroke-linecap: square; stroke-linejoin: miter; fill: #29798E;' />
<rect x='597.03' y='289.87' width='15.86' height='15.86' style='stroke-width: 1.07; stroke: none; stroke-linecap: square; stroke-linejoin: miter; fill: #27808E;' />
<rect x='639.96' y='289.87' width='15.86' height='15.86' style='stroke-width: 1.07; stroke: none; stroke-linecap: square; stroke-linejoin: miter; fill: #24868E;' />
<rect x='682.89' y='289.87' width='15.86' height='15.86' style='stroke-width: 1.07; stroke: none; stroke-linecap: square; stroke-linejoin: miter; fill: #228D8D;' />
<rect x='-11.46' y='312.63' width='15.86' height='15.86' style='stroke-width: 1.07; stroke: none; stroke-linecap: square; stroke-linejoin: miter; fill: #20938C;' />
<rect x='26.57' y='312.63' width='15.86' height='15.86' style='stroke-width: 1.07; stroke: none; stroke-linecap: square; stroke-linejoin: miter; fill: #1F9A8A;' />
<rect x='64.60' y='312.63' width='15.86' height='15.86' style='stroke-width: 1.07; stroke: none; stroke-linecap: square; stroke-linejoin: miter; fill: #1FA188;' />
<rect x='102.63' y='312.63' width='15.86' height='15.86' style='stroke-width: 1.07; stroke: none; stroke-linecap: square; stroke-linejoin: miter; fill: #22A785;' />
<rect x='140.66' y='312.63' width='15.86' height='15.86' style='stroke-width: 1.07; stroke: none; stroke-linecap: square; stroke-linejoin: miter; fill: #27AD81;' />
<rect x='178.69' y='312.63' width='15.86' height='15.86' style='stroke-width: 1.07; stroke: none; stroke-linecap: square; stroke-linejoin: miter; fill: #2EB37C;' />
<rect x='216.73' y='312.63' width='15.86' height='15.86' style='stroke-width: 1.07; stroke: none; stroke-linecap: square; stroke-linejoin: miter; fill: #39B977;' />
<rect x='254.76' y='312.63' width='15.86' height='15.86' style='stroke-width: 1.07; stroke: none; stroke-linecap: square; stroke-linejoin: miter; fill: #44BF70;' />
<rect x='292.79' y='312.63' width='15.86' height='15.86' style='stroke-width: 1.07; stroke: none; stroke-linecap: square; stroke-linejoin: miter; fill: #52C569;' />
<rect x='330.82' y='312.63' width='15.86' height='15.86' style='stroke-width: 1.07; stroke: none; stroke-linecap: square; stroke-linejoin: miter; fill: #60CA60;' />
<rect x='368.85' y='312.63' width='15.86' height='15.86' style='stroke-width: 1.07; stroke: none; stroke-linecap: square; stroke-linejoin: miter; fill: #70CF57;' />
<rect x='406.88' y='312.63' width='15.86' height='15.86' style='stroke-width: 1.07; stroke: none; stroke-linecap: square; stroke-linejoin: miter; fill: #80D34D;' />
<rect x='444.91' y='312.63' width='15.86' height='15.86' style='stroke-width: 1.07; stroke: none; stroke-linecap: square; stroke-linejoin: miter; fill: #92D742;' />
<rect x='482.94' y='312.63' width='15.86' height='15.86' style='stroke-width: 1.07; stroke: none; stroke-linecap: square; stroke-linejoin: miter; fill: #A3DB36;' />
<rect x='520.97' y='312.63' width='15.86' height='15.86' style='stroke-width: 1.07; stroke: none; stroke-linecap: square; stroke-linejoin: miter; fill: #B6DE2A;' />
<rect x='559.00' y='312.63' width='15.86' height='15.86' style='stroke-width: 1.07; stroke: none; stroke-linecap: square; stroke-linejoin: miter; fill: #C9E020;' />
<rect x='597.03' y='312.63' width='15.86' height='15.86' style='stroke-width: 1.07; stroke: none; stroke-linecap: square; stroke-linejoin: miter; fill: #DBE319;' />
<rect x='639.96' y='312.63' width='15.86' height='15.86' style='stroke-width: 1.07; stroke: none; stroke-linecap: square; stroke-linejoin: miter; fill: #ECE51B;' />
<rect x='682.89' y='312.63' width='15.86' height='15.86' style='stroke-width: 1.07; stroke: none; stroke-linecap: square; stroke-linejoin: miter; fill: #FDE725;' />
<text x='10.59' y='300.95' style='font-size: 8.80px; font-family: Arial;' textLength='4.90px' lengthAdjust='spacingAndGlyphs'>0</text>
<text x='48.62' y='300.95' style='font-size: 8.80px; font-family: Arial;' textLength='4.90px' lengthAdjust='spacingAndGlyphs'>1</text>
<text x='86.65' y='300.95' style='font-size: 8.80px; font-family: Arial;' textLength='4.90px' lengthAdjust='spacingAndGlyphs'>2</text>
<text x='124.68' y='300.95' style='font-size: 8.80px; font-family: Arial;' textLength='4.90px' lengthAdjust='spacingAndGlyphs'>3</text>
<text x='162.71' y='300.95' style='font-size: 8.80px; font-family: Arial;' textLength='4.90px' lengthAdjust='spacingAndGlyphs'>4</text>
<text x='200.75' y='300.95' style='font-size: 8.80px; font-family: Arial;' textLength='4.90px' lengthAdjust='spacingAndGlyphs'>5</text>
<text x='238.78' y='300.95' style='font-size: 8.80px; font-family: Arial;' textLength='4.90px' lengthAdjust='spacingAndGlyphs'>6</text>
<text x='276.81' y='300.95' style='font-size: 8.80px; font-family: Arial;' textLength='4.90px' lengthAdjust='spacingAndGlyphs'>7</text>
<text x='314.84' y='300.95' style='font-size: 8.80px; font-family: Arial;' textLength='4.90px' lengthAdjust='spacingAndGlyphs'>8</text>
<text x='352.87' y='300.95' style='font-size: 8.80px; font-family: Arial;' textLength='4.90px' lengthAdjust='spacingAndGlyphs'>9</text>
<text x='390.90' y='300.95' style='font-size: 8.80px; font-family: Arial;' textLength='9.79px' lengthAdjust='spacingAndGlyphs'>10</text>
<text x='428.93' y='300.95' style='font-size: 8.80px; font-family: Arial;' textLength='9.14px' lengthAdjust='spacingAndGlyphs'>11</text>
<text x='466.96' y='300.95' style='font-size: 8.80px; font-family: Arial;' textLength='9.79px' lengthAdjust='spacingAndGlyphs'>12</text>
<text x='504.99' y='300.95' style='font-size: 8.80px; font-family: Arial;' textLength='9.79px' lengthAdjust='spacingAndGlyphs'>13</text>
<text x='543.02' y='300.95' style='font-size: 8.80px; font-family: Arial;' textLength='9.79px' lengthAdjust='spacingAndGlyphs'>14</text>
<text x='581.05' y='300.95' style='font-size: 8.80px; font-family: Arial;' textLength='9.79px' lengthAdjust='spacingAndGlyphs'>15</text>
<text x='619.09' y='300.95' style='font-size: 8.80px; font-family: Arial;' textLength='9.79px' lengthAdjust='spacingAndGlyphs'>17</text>
<text x='662.01' y='300.95' style='font-size: 8.80px; font-family: Arial;' textLength='9.79px' lengthAdjust='spacingAndGlyphs'>18</text>
<text x='704.94' y='300.95' style='font-size: 8.80px; font-family: Arial;' textLength='9.79px' lengthAdjust='spacingAndGlyphs'>20</text>
<text x='10.59' y='323.71' style='font-size: 8.80px; font-family: Arial;' textLength='9.79px' lengthAdjust='spacingAndGlyphs'>22</text>
<text x='48.62' y='323.71' style='font-size: 8.80px; font-family: Arial;' textLength='9.79px' lengthAdjust='spacingAndGlyphs'>23</text>
<text x='86.65' y='323.71' style='font-size: 8.80px; font-family: Arial;' textLength='9.79px' lengthAdjust='spacingAndGlyphs'>24</text>
<text x='124.68' y='323.71' style='font-size: 8.80px; font-family: Arial;' textLength='9.79px' lengthAdjust='spacingAndGlyphs'>25</text>
<text x='162.71' y='323.71' style='font-size: 8.80px; font-family: Arial;' textLength='9.79px' lengthAdjust='spacingAndGlyphs'>26</text>
<text x='200.75' y='323.71' style='font-size: 8.80px; font-family: Arial;' textLength='9.79px' lengthAdjust='spacingAndGlyphs'>30</text>
<text x='238.78' y='323.71' style='font-size: 8.80px; font-family: Arial;' textLength='9.79px' lengthAdjust='spacingAndGlyphs'>35</text>
<text x='276.81' y='323.71' style='font-size: 8.80px; font-family: Arial;' textLength='9.79px' lengthAdjust='spacingAndGlyphs'>36</text>
<text x='314.84' y='323.71' style='font-size: 8.80px; font-family: Arial;' textLength='9.79px' lengthAdjust='spacingAndGlyphs'>40</text>
<text x='352.87' y='323.71' style='font-size: 8.80px; font-family: Arial;' textLength='9.79px' lengthAdjust='spacingAndGlyphs'>42</text>
<text x='390.90' y='323.71' style='font-size: 8.80px; font-family: Arial;' textLength='9.79px' lengthAdjust='spacingAndGlyphs'>48</text>
<text x='428.93' y='323.71' style='font-size: 8.80px; font-family: Arial;' textLength='9.79px' lengthAdjust='spacingAndGlyphs'>50</text>
<text x='466.96' y='323.71' style='font-size: 8.80px; font-family: Arial;' textLength='9.79px' lengthAdjust='spacingAndGlyphs'>52</text>
<text x='504.99' y='323.71' style='font-size: 8.80px; font-family: Arial;' textLength='9.79px' lengthAdjust='spacingAndGlyphs'>60</text>
<text x='543.02' y='323.71' style='font-size: 8.80px; font-family: Arial;' textLength='9.79px' lengthAdjust='spacingAndGlyphs'>78</text>
<text x='581.05' y='323.71' style='font-size: 8.80px; font-family: Arial;' textLength='9.79px' lengthAdjust='spacingAndGlyphs'>90</text>
<text x='619.09' y='323.71' style='font-size: 8.80px; font-family: Arial;' textLength='14.69px' lengthAdjust='spacingAndGlyphs'>104</text>
<text x='662.01' y='323.71' style='font-size: 8.80px; font-family: Arial;' textLength='14.69px' lengthAdjust='spacingAndGlyphs'>128</text>
<text x='704.94' y='323.71' style='font-size: 8.80px; font-family: Arial;' textLength='14.69px' lengthAdjust='spacingAndGlyphs'>130</text>
</g>
</svg>
