<?xml version='1.0' encoding='UTF-8' ?>
<svg xmlns='http://www.w3.org/2000/svg' xmlns:xlink='http://www.w3.org/1999/xlink' class='svglite' width='340.16pt' height='340.16pt' viewBox='0 0 340.16 340.16'>
<defs>
  <style type='text/css'><![CDATA[
    .svglite line, .svglite polyline, .svglite polygon, .svglite path, .svglite rect, .svglite circle {
      fill: none;
      stroke: #000000;
      stroke-linecap: round;
      stroke-linejoin: round;
      stroke-miterlimit: 10.00;
    }
  ]]></style>
</defs>
<rect width='100%' height='100%' style='stroke: none; fill: none;'/>
<defs>
  <clipPath id='cpMC4wMHwzNDAuMTZ8MC4wMHwzNDAuMTY='>
    <rect x='0.00' y='0.00' width='340.16' height='340.16' />
  </clipPath>
</defs>
<g clip-path='url(#cpMC4wMHwzNDAuMTZ8MC4wMHwzNDAuMTY=)'>
</g>
<defs>
  <clipPath id='cpMi4wMnwzMzguMTR8MC4wMHwzNDAuMTY='>
    <rect x='2.02' y='0.00' width='336.12' height='340.16' />
  </clipPath>
</defs>
<g clip-path='url(#cpMi4wMnwzMzguMTR8MC4wMHwzNDAuMTY=)'>
<rect x='2.02' y='0.00' width='336.12' height='340.16' style='stroke-width: 1.07; stroke: #FFFFFF; fill: #FFFFFF;' />
</g>
<g clip-path='url(#cpMC4wMHwzNDAuMTZ8MC4wMHwzNDAuMTY=)'>
</g>
<defs>
  <clipPath id='cpMTAuMjR8MzMyLjY2fDUuNDh8MzI3Ljkw'>
    <rect x='10.24' y='5.48' width='322.42' height='322.42' />
  </clipPath>
</defs>
<g clip-path='url(#cpMTAuMjR8MzMyLjY2fDUuNDh8MzI3Ljkw)'>
<rect x='10.24' y='5.48' width='322.42' height='322.42' style='stroke-width: 1.07; stroke: none; fill: #FFFFFF;' />
<polyline points='171.45,166.69 35.37,116.36 ' style='stroke-width: 1.07; stroke: #FFFFFF; stroke-linecap: butt;' />
<polyline points='171.45,166.69 305.64,221.85 ' style='stroke-width: 1.07; stroke: #FFFFFF; stroke-linecap: butt;' />
<polyline points='171.45,166.69 176.64,21.69 ' style='stroke-width: 1.07; stroke: #FFFFFF; stroke-linecap: butt;' />
<polyline points='171.45,166.69 35.37,116.36 ' style='stroke-width: 0.53; stroke: #FFFFFF; stroke-linecap: butt;' />
<polyline points='171.45,166.69 118.70,301.85 ' style='stroke-width: 0.53; stroke: #FFFFFF; stroke-linecap: butt;' />
<polyline points='171.45,166.69 305.64,221.85 ' style='stroke-width: 0.53; stroke: #FFFFFF; stroke-linecap: butt;' />
<polyline points='171.45,166.69 293.40,88.09 ' style='stroke-width: 0.53; stroke: #FFFFFF; stroke-linecap: butt;' />
<polyline points='171.45,166.69 176.64,21.69 ' style='stroke-width: 0.53; stroke: #FFFFFF; stroke-linecap: butt;' />
<polyline points='171.45,102.20 175.54,102.33 179.61,102.72 183.65,103.37 187.64,104.27 191.57,105.42 195.41,106.82 199.16,108.46 202.80,110.34 206.31,112.44 209.68,114.76 212.90,117.29 215.95,120.02 218.82,122.94 221.50,126.03 223.98,129.28 226.24,132.69 228.29,136.23 230.10,139.90 231.69,143.67 233.02,147.54 234.11,151.49 234.95,155.49 235.53,159.54 235.86,163.62 235.92,167.71 235.73,171.80 235.28,175.86 234.57,179.89 233.60,183.87 232.39,187.78 230.93,191.60 229.23,195.32 227.29,198.93 225.14,202.41 222.76,205.74 220.18,208.92 217.41,211.92 214.44,214.74 211.31,217.38 208.01,219.80 204.57,222.01 201.00,224.00 197.30,225.76 193.50,227.28 189.62,228.56 185.65,229.59 181.64,230.36 177.58,230.88 173.49,231.14 169.40,231.14 165.32,230.88 161.26,230.36 157.24,229.59 153.28,228.56 149.39,227.28 145.60,225.76 141.90,224.00 138.32,222.01 134.88,219.80 131.59,217.38 128.45,214.74 125.49,211.92 122.72,208.92 120.14,205.74 117.76,202.41 115.60,198.93 113.67,195.32 111.97,191.60 110.51,187.78 109.30,183.87 108.33,179.89 107.62,175.86 107.17,171.80 106.97,167.71 107.04,163.62 107.36,159.54 107.94,155.49 108.78,151.49 109.87,147.54 111.21,143.67 112.79,139.90 114.61,136.23 116.66,132.69 118.92,129.28 121.40,126.03 124.08,122.94 126.95,120.02 130.00,117.29 133.22,114.76 136.59,112.44 140.10,110.34 143.73,108.46 147.48,106.82 151.33,105.42 155.25,104.27 159.25,103.37 163.29,102.72 167.36,102.33 171.45,102.20 ' style='stroke-width: 1.07; stroke: #FFFFFF; stroke-linecap: butt;' />
<polyline points='171.45,21.60 180.65,21.89 189.82,22.77 198.91,24.22 207.89,26.25 216.72,28.84 225.37,31.99 233.81,35.68 241.99,39.90 249.89,44.63 257.47,49.85 264.71,55.54 271.57,61.68 278.03,68.24 284.06,75.20 289.63,82.53 294.73,90.19 299.34,98.17 303.42,106.42 306.98,114.91 309.99,123.61 312.45,132.48 314.33,141.49 315.64,150.61 316.37,159.78 316.52,168.99 316.08,178.19 315.06,187.34 313.46,196.40 311.29,205.35 308.56,214.14 305.27,222.74 301.45,231.12 297.10,239.23 292.24,247.05 286.90,254.55 281.10,261.70 274.85,268.46 268.19,274.82 261.14,280.73 253.72,286.19 245.98,291.17 237.93,295.65 229.62,299.60 221.07,303.03 212.32,305.90 203.41,308.21 194.37,309.95 185.24,311.12 176.05,311.70 166.85,311.70 157.66,311.12 148.52,309.95 139.48,308.21 130.57,305.90 121.83,303.03 113.28,299.60 104.97,295.65 96.92,291.17 89.18,286.19 81.76,280.73 74.71,274.82 68.05,268.46 61.80,261.70 55.99,254.55 50.65,247.05 45.80,239.23 41.45,231.12 37.63,222.74 34.34,214.14 31.61,205.35 29.44,196.40 27.84,187.34 26.82,178.19 26.38,168.99 26.53,159.78 27.26,150.61 28.57,141.49 30.45,132.48 32.90,123.61 35.92,114.91 39.47,106.42 43.56,98.17 48.16,90.19 53.26,82.53 58.84,75.20 64.87,68.24 71.33,61.68 78.19,55.54 85.43,49.85 93.01,44.63 100.91,39.90 109.09,35.68 117.53,31.99 126.18,28.84 135.01,26.25 143.99,24.22 153.08,22.77 162.25,21.89 171.45,21.60 ' style='stroke-width: 1.07; stroke: #FFFFFF; stroke-linecap: butt;' />
<polygon points='171.45,166.69 171.45,162.24 171.45,157.79 171.45,153.35 171.45,148.90 171.45,144.45 171.45,140.01 171.45,135.56 171.45,131.11 171.45,126.66 171.45,122.22 171.45,117.77 171.45,113.32 171.45,108.88 171.45,104.43 171.45,99.98 171.45,95.53 171.45,91.09 171.45,86.64 171.45,82.19 171.45,77.75 171.45,73.30 171.45,68.85 171.45,64.40 171.45,59.96 171.45,55.51 171.45,51.06 171.45,46.62 171.45,42.17 171.45,37.72 167.03,37.80 162.62,38.02 158.21,38.40 153.83,38.93 149.46,39.61 145.12,40.44 140.81,41.41 136.53,42.54 132.30,43.81 128.11,45.22 123.98,46.78 119.90,48.47 115.88,50.31 111.92,52.28 108.04,54.39 104.23,56.63 100.49,58.99 96.85,61.49 93.29,64.11 89.82,66.85 86.44,69.70 83.17,72.67 80.00,75.75 76.94,78.94 73.99,82.23 71.15,85.62 68.43,89.10 65.83,92.67 63.36,96.34 61.01,100.08 58.80,103.90 56.71,107.80 54.76,111.77 52.95,115.80 51.27,119.89 49.74,124.03 48.35,128.23 47.10,132.47 46.01,136.75 45.05,141.06 44.25,145.41 43.60,149.78 43.09,154.17 42.74,158.58 42.53,162.99 42.48,167.41 42.58,171.83 42.84,176.24 43.24,180.64 43.79,185.03 44.50,189.39 45.35,193.72 46.35,198.03 47.50,202.30 48.79,206.52 50.23,210.70 51.80,214.83 53.52,218.90 55.38,222.91 57.38,226.85 59.51,230.73 61.77,234.53 64.15,238.24 66.67,241.88 69.31,245.42 72.06,248.88 74.94,252.23 77.93,255.49 81.02,258.64 84.23,261.69 87.53,264.62 90.43,261.24 93.32,257.87 96.21,254.49 99.11,251.11 102.00,247.73 104.90,244.36 107.79,240.98 110.68,237.60 113.58,234.23 116.47,230.85 119.36,227.47 122.26,224.10 125.15,220.72 128.04,217.34 130.94,213.97 133.83,210.59 136.73,207.21 139.62,203.83 142.51,200.46 145.41,197.08 148.30,193.70 151.19,190.33 154.09,186.95 156.98,183.57 159.87,180.20 162.77,176.82 165.66,173.44 168.55,170.06 171.45,166.69 171.45,166.69 ' style='stroke-width: 1.07; fill: #440154;' />
<polygon points='171.45,166.69 168.55,170.06 165.66,173.44 162.77,176.82 159.87,180.20 156.98,183.57 154.09,186.95 151.19,190.33 148.30,193.70 145.41,197.08 142.51,200.46 139.62,203.83 136.73,207.21 133.83,210.59 130.94,213.97 128.04,217.34 125.15,220.72 122.26,224.10 119.36,227.47 116.47,230.85 113.58,234.23 110.68,237.60 107.79,240.98 104.90,244.36 102.00,247.73 99.11,251.11 96.21,254.49 93.32,257.87 90.43,261.24 87.53,264.62 90.92,267.42 94.39,270.10 97.95,272.66 101.60,275.10 105.33,277.42 109.14,279.60 113.02,281.66 116.97,283.58 120.98,285.37 125.05,287.02 129.17,288.53 133.34,289.90 137.55,291.12 141.81,292.20 146.10,293.14 150.42,293.93 154.76,294.57 159.12,295.06 163.50,295.41 167.88,295.61 172.27,295.65 176.66,295.55 181.04,295.30 185.41,294.90 189.77,294.35 194.10,293.65 198.41,292.80 202.69,291.81 206.93,290.68 211.13,289.40 215.28,287.98 219.38,286.41 223.43,284.71 227.42,282.88 231.34,280.90 235.19,278.80 238.97,276.57 242.67,274.20 246.29,271.72 249.82,269.11 253.26,266.38 256.61,263.54 259.85,260.59 263.00,257.52 266.04,254.35 268.97,251.08 271.78,247.72 274.48,244.26 277.06,240.70 279.52,237.07 281.85,233.35 284.06,229.55 286.13,225.68 288.07,221.75 289.88,217.74 291.55,213.68 293.08,209.57 294.47,205.41 295.71,201.20 296.82,196.95 297.77,192.66 298.58,188.35 299.25,184.01 299.76,179.65 300.13,175.27 300.35,170.89 300.42,166.50 300.33,162.11 300.10,157.73 299.72,153.35 299.20,149.00 298.52,144.66 297.70,140.35 296.73,136.07 295.61,131.82 294.35,127.61 292.95,123.45 291.41,119.34 289.73,115.29 287.91,111.29 285.96,107.36 283.87,103.50 281.66,99.71 279.31,96.00 276.85,92.37 274.26,88.82 271.55,85.37 268.72,82.01 265.78,78.75 262.73,75.59 259.58,72.53 256.33,69.59 252.97,66.76 249.52,64.04 245.98,61.44 242.36,58.97 238.65,56.61 234.87,54.39 231.01,52.30 227.08,50.34 223.09,48.51 219.04,46.82 214.93,45.27 210.77,43.86 206.57,42.60 202.33,41.47 198.05,40.49 193.74,39.66 189.40,38.98 185.04,38.44 180.67,38.05 180.35,42.49 180.03,46.92 179.72,51.36 179.40,55.79 179.08,60.23 178.76,64.67 178.44,69.10 178.13,73.54 177.81,77.97 177.49,82.41 177.17,86.84 176.85,91.28 176.54,95.72 176.22,100.15 175.90,104.59 175.58,109.02 175.26,113.46 174.95,117.89 174.63,122.33 174.31,126.77 173.99,131.20 173.67,135.64 173.36,140.07 173.04,144.51 172.72,148.94 172.40,153.38 172.08,157.82 171.77,162.25 171.45,166.69 171.45,166.69 ' style='stroke-width: 1.07; fill: #21908C;' />
<polygon points='171.45,166.69 171.77,162.25 172.08,157.82 172.40,153.38 172.72,148.94 173.04,144.51 173.36,140.07 173.67,135.64 173.99,131.20 174.31,126.77 174.63,122.33 174.95,117.89 175.26,113.46 175.58,109.02 175.90,104.59 176.22,100.15 176.54,95.72 176.85,91.28 177.17,86.84 177.49,82.41 177.81,77.97 178.13,73.54 178.44,69.10 178.76,64.67 179.08,60.23 179.40,55.79 179.72,51.36 180.03,46.92 180.35,42.49 180.67,38.05 176.06,37.80 171.45,37.72 171.45,42.17 171.45,46.62 171.45,51.06 171.45,55.51 171.45,59.96 171.45,64.40 171.45,68.85 171.45,73.30 171.45,77.75 171.45,82.19 171.45,86.64 171.45,91.09 171.45,95.53 171.45,99.98 171.45,104.43 171.45,108.88 171.45,113.32 171.45,117.77 171.45,122.22 171.45,126.66 171.45,131.11 171.45,135.56 171.45,140.01 171.45,144.45 171.45,148.90 171.45,153.35 171.45,157.79 171.45,162.24 171.45,166.69 171.45,166.69 ' style='stroke-width: 1.07; fill: #FDE725;' />
<text x='35.37' y='119.51' text-anchor='middle' style='font-size: 8.80px; font-family: Arial;' textLength='19.07px' lengthAdjust='spacingAndGlyphs'>Male</text>
<text x='305.64' y='225.00' text-anchor='middle' style='font-size: 8.80px; font-family: Arial;' textLength='29.34px' lengthAdjust='spacingAndGlyphs'>Female</text>
<text x='176.64' y='24.84' text-anchor='middle' style='font-size: 8.80px; font-family: Arial;' textLength='140.46px' lengthAdjust='spacingAndGlyphs'>Other (e.g. genderqueer, nonbinary)</text>
</g>
<g clip-path='url(#cpMC4wMHwzNDAuMTZ8MC4wMHwzNDAuMTY=)'>
</g>
</svg>
